<?xml version="1.0" encoding="UTF-8" standalone="no"?>
<svg xmlns:xlink="http://www.w3.org/1999/xlink" height="54.4px" width="41.0px" xmlns="http://www.w3.org/2000/svg">
  <g transform="matrix(1.0, 0.0, 0.0, 1.0, 20.6, 53.4)">
    <use height="34.45" transform="matrix(1.0, 0.0, 0.0, 1.0, -20.6, -33.45)" width="41.0" xlink:href="#shape0"/>
    <use height="36.0" transform="matrix(1.1426, 0.0, 0.0, 0.902, -19.8743, -32.4706)" width="34.2" xlink:href="#sprite0"/>
  </g>
  <defs>
    <g id="shape0" transform="matrix(1.0, 0.0, 0.0, 1.0, 20.6, 33.45)">
      <path d="M1.55 -26.4 L4.05 -27.75 4.5 -27.9 4.95 -27.8 8.85 -25.8 10.55 -25.3 11.95 -25.8 12.6 -25.85 13.1 -25.5 17.45 -20.1 17.55 -19.95 20.3 -14.6 20.4 -14.05 20.2 -13.55 19.05 -11.95 18.1 -7.05 17.75 -6.5 17.15 -6.25 14.4 -6.15 Q9.9 -2.25 4.3 -0.35 -6.65 3.5 -15.45 -3.6 -18.7 -6.2 -18.75 -10.35 L-18.75 -10.4 Q-18.8 -15.25 -15.85 -18.9 L-19.95 -20.4 -20.4 -20.8 -20.6 -21.4 -20.35 -21.95 -19.8 -22.3 -12.65 -24.05 -14.45 -25.7 -14.8 -26.35 -14.6 -27.05 -13.15 -29.0 -12.5 -29.35 -11.8 -29.25 -8.5 -27.15 -1.45 -33.2 -0.75 -33.45 Q-0.35 -33.45 -0.1 -33.15 2.75 -30.4 0.65 -26.45 L1.55 -26.4" fill="#000000" fill-rule="evenodd" stroke="none"/>
    </g>
    <g id="sprite0" transform="matrix(1.0, 0.0, 0.0, 1.0, 17.35, 36.0)">
      <use height="36.0" transform="matrix(1.0, 0.0, 0.0, 1.0, -17.35, -36.0)" width="33.35" xlink:href="#shape1"/>
      <use height="9.05" transform="matrix(1.0, 0.0, 0.0, 1.0, -10.7, -25.75)" width="8.6" xlink:href="#sprite1"/>
      <use height="17.05" transform="matrix(1.0, 0.0, 0.0, 1.0, -4.9, -24.6)" width="21.75" xlink:href="#shape3"/>
    </g>
    <g id="shape1" transform="matrix(1.0, 0.0, 0.0, 1.0, 17.35, 36.0)">
      <path d="M-0.9 -35.8 L-1.2 -33.35 Q-1.25 -32.25 -1.65 -31.2 L-2.3 -30.1 -2.6 -29.75 Q-3.9 -28.35 -5.9 -28.6 L-6.65 -29.4 -6.9 -29.75 -7.15 -29.9 Q-5.5 -34.05 -0.9 -35.8 M-7.75 -27.65 L-6.85 -26.7 -6.3 -26.3 -6.75 -26.3 -7.95 -26.45 -7.75 -27.65 M-9.45 -25.95 L-9.5 -25.9 -10.3 -25.05 Q-11.35 -24.4 -12.5 -24.05 L-16.9 -23.55 -17.1 -23.7 Q-13.75 -26.75 -9.45 -25.95 M-13.95 -21.55 L-11.95 -21.75 Q-9.25 -21.85 -7.6 -23.9 L-7.2 -24.6 -7.1 -25.15 -6.75 -25.0 Q-9.0 -20.2 -13.95 -21.55" fill="#00cc00" fill-rule="evenodd" stroke="none"/>
      <path d="M-0.9 -35.8 L-0.4 -36.0 Q0.95 -31.4 -0.7 -28.95 L-1.1 -28.45 Q-2.7 -26.65 -6.3 -26.3 L-6.85 -26.7 -7.75 -27.65 -7.6 -28.45 -7.2 -29.75 -7.15 -29.9 -6.9 -29.75 -6.65 -29.4 -5.9 -28.6 Q-3.9 -28.35 -2.6 -29.75 L-2.3 -30.1 -1.65 -31.2 Q-1.25 -32.25 -1.2 -33.35 L-0.9 -35.8 M-9.45 -25.95 L-7.95 -25.55 -7.65 -25.4 -7.1 -25.2 -7.1 -25.15 -7.2 -24.6 -7.6 -23.9 Q-9.25 -21.85 -11.95 -21.75 L-13.95 -21.55 -14.25 -21.65 -14.8 -21.85 Q-16.25 -22.35 -17.35 -23.5 L-17.1 -23.7 -16.9 -23.55 -12.5 -24.05 Q-11.35 -24.4 -10.3 -25.05 L-9.5 -25.9 -9.45 -25.95" fill="#009933" fill-rule="evenodd" stroke="none"/>
      <path d="M-11.0 -31.35 L-10.45 -31.7 -8.6 -29.75 -7.45 -28.45 -5.25 -25.5 -5.5 -25.15 Q-6.2 -24.75 -6.75 -25.45 L-9.15 -28.45 -10.2 -29.75 -10.25 -29.8 -11.0 -31.1 -11.05 -31.25 -11.0 -31.35" fill="#ab7b43" fill-rule="evenodd" stroke="none"/>
      <path d="M-11.0 -31.35 L-11.05 -31.25 -11.0 -31.1 -10.25 -29.8 -10.2 -29.75 -9.15 -28.45 -6.75 -25.45 Q-6.2 -24.75 -5.5 -25.15 L-5.25 -25.5 -4.0 -23.65 -4.05 -23.0 -5.25 -22.6 Q-8.85 -25.1 -11.65 -28.45 L-12.25 -29.2 -12.05 -29.75 -12.05 -29.8 -11.0 -31.35" fill="#835201" fill-rule="evenodd" stroke="none"/>
      <path d="M-9.45 -17.2 Q-6.7 -15.95 -4.15 -17.8 -2.1 -19.25 -2.1 -21.7 -2.15 -25.25 -5.6 -25.75 -6.95 -25.3 -8.1 -24.5 -11.15 -22.3 -10.6 -18.8 -10.4 -17.7 -9.45 -17.2 M1.55 -28.0 Q2.4 -29.95 4.8 -29.8 6.3 -29.05 7.1 -27.65 L7.1 -27.55 7.15 -27.45 9.05 -26.7 Q9.6 -27.45 10.6 -27.45 11.3 -27.5 11.7 -27.0 L11.8 -26.95 Q12.8 -26.4 13.45 -25.25 14.3 -23.75 14.55 -22.1 L14.35 -21.45 15.05 -20.0 15.45 -19.05 Q16.5 -16.15 15.6 -13.3 L15.8 -11.65 15.8 -11.3 15.65 -10.95 15.55 -10.7 Q15.55 -9.7 15.15 -8.7 L15.0 -8.45 Q14.65 -7.1 13.25 -7.6 L12.05 -7.75 Q7.85 -3.0 1.65 -0.95 -7.1 2.1 -13.2 -4.75 -15.75 -7.65 -15.95 -11.15 L-15.85 -13.7 -15.8 -13.95 Q-14.45 -21.45 -7.9 -25.3 L-6.45 -26.1 -3.75 -27.2 -0.7 -27.85 -0.5 -27.85 1.35 -28.0 1.55 -28.0" fill="url(#gradient0)" fill-rule="evenodd" stroke="none"/>
    </g>
    <radialGradient cx="0" cy="0" gradientTransform="matrix(0.0204, 0.0, 0.0, 0.0204, 1.75, -17.35)" gradientUnits="userSpaceOnUse" id="gradient0" r="819.2" spreadMethod="pad">
      <stop offset="0.6627450980392157" stop-color="#e90101"/>
      <stop offset="0.8705882352941177" stop-color="#ac0202"/>
      <stop offset="1.0" stop-color="#ba0101"/>
    </radialGradient>
    <g id="sprite1" transform="matrix(1.0, 0.0, 0.0, 1.0, 4.3, 4.55)">
      <use height="9.05" transform="matrix(1.0, 0.0, 0.0, 1.0, -4.3, -4.55)" width="8.6" xlink:href="#shape2"/>
    </g>
    <g id="shape2" transform="matrix(1.0, 0.0, 0.0, 1.0, 4.3, 4.55)">
      <path d="M2.5 1.05 L3.05 0.0 Q4.05 -3.15 0.65 -3.55 -2.85 -2.35 -3.1 1.25 L-3.15 2.2 Q-3.2 3.2 -2.3 3.25 0.75 3.45 2.5 1.05 M-3.05 4.0 Q-4.0 3.5 -4.2 2.4 -4.75 -1.1 -1.7 -3.3 -0.55 -4.1 0.8 -4.55 4.25 -4.05 4.3 -0.5 4.3 1.95 2.25 3.4 -0.3 5.25 -3.05 4.0" fill="#fe9618" fill-rule="evenodd" stroke="none"/>
      <path d="M2.5 1.05 Q0.75 3.45 -2.3 3.25 -3.2 3.2 -3.15 2.2 L-3.1 1.25 Q-2.85 -2.35 0.65 -3.55 4.05 -3.15 3.05 0.0 L2.5 1.05 M-0.35 0.6 L-0.25 0.55 Q2.05 -0.7 0.65 -2.3 -1.85 -2.0 -1.3 0.25 L-0.35 0.6" fill="#fe9e9e" fill-rule="evenodd" stroke="none"/>
      <path d="M-0.35 0.6 L-1.3 0.25 Q-1.85 -2.0 0.65 -2.3 2.05 -0.7 -0.25 0.55 L-0.35 0.6" fill="#fff2f2" fill-rule="evenodd" stroke="none"/>
    </g>
    <g id="shape3" transform="matrix(1.0, 0.0, 0.0, 1.0, 4.9, 24.6)">
      <path d="M1.8 -21.8 Q2.0 -23.35 3.15 -24.2 6.2 -25.45 8.45 -23.0 10.25 -21.05 11.1 -18.6 12.05 -15.45 9.9 -13.1 9.4 -12.6 8.6 -12.6 4.7 -12.55 2.85 -16.0 1.4 -18.85 1.8 -21.8" fill="#ffffff" fill-rule="evenodd" stroke="none"/>
      <path d="M10.2 -15.85 Q9.1 -18.05 9.45 -20.3 9.6 -21.55 10.45 -22.2 12.85 -23.15 14.6 -21.25 15.95 -19.75 16.6 -17.85 17.4 -15.4 15.7 -13.6 15.35 -13.2 14.7 -13.2 11.65 -13.15 10.2 -15.85" fill="#ffffff" fill-rule="evenodd" stroke="none"/>
      <path d="M11.8 -8.3 L12.35 -7.8 Q7.2 -9.15 2.05 -7.75 -1.0 -6.95 -2.95 -9.25 L-3.95 -10.4 -4.45 -11.15 Q-5.05 -12.25 -4.85 -13.5 L-4.8 -13.7 Q-4.6 -14.35 -4.05 -14.8 -3.2 -15.45 -2.2 -15.55 L-2.0 -15.45 -1.95 -15.35 -3.2 -13.7 -3.35 -13.5 Q-3.8 -12.85 -3.4 -12.1 L-2.8 -11.15 -1.55 -9.5 Q-1.05 -8.9 -0.25 -8.85 L5.25 -9.05 8.5 -8.95 11.8 -8.3" fill="#690101" fill-rule="evenodd" stroke="none"/>
      <path d="M8.45 -18.65 Q8.8 -19.85 9.7 -20.6 11.8 -20.4 12.5 -17.8 13.15 -15.2 10.9 -14.7 L10.6 -14.75 Q9.15 -15.9 8.6 -18.05 L8.45 -18.65" fill="#000000" fill-rule="evenodd" stroke="none"/>
      <path d="M14.85 -16.15 L14.7 -15.8 14.65 -15.65 Q13.15 -14.2 12.3 -16.2 11.7 -17.6 12.35 -18.7 L12.7 -19.05 Q14.85 -18.55 14.85 -16.15" fill="#000000" fill-rule="evenodd" stroke="none"/>
    </g>
  </defs>
</svg>
