<?xml version="1.0" encoding="UTF-8" standalone="no"?>
<svg xmlns:xlink="http://www.w3.org/1999/xlink" height="29.3px" width="32.55px" xmlns="http://www.w3.org/2000/svg">
  <g transform="matrix(1.0, 0.0, 0.0, 1.0, 15.15, 28.65)">
    <use height="35.2" id="0tJ" transform="matrix(0.832, 0.0, 0.0, 0.832, -15.1321, -28.6509)" width="39.1" xlink:href="#sprite0"/>
    <use height="32.8" transform="matrix(0.832, 0.0, 0.0, 0.832, -10.961, -27.4446)" width="33.2" xlink:href="#sprite1"/>
  </g>
  <defs>
    <g id="sprite0" transform="matrix(1.0, 0.0, 0.0, 1.0, 19.45, 17.85)">
      <use height="35.2" transform="matrix(1.0, 0.0, 0.0, 1.0, -19.45, -17.85)" width="39.1" xlink:href="#shape0"/>
    </g>
    <g id="shape0" transform="matrix(1.0, 0.0, 0.0, 1.0, 19.45, 17.85)">
      <path d="M3.35 0.45 L1.6 -12.85 1.6 -13.2 6.9 -9.65 5.3 -1.0 3.35 0.45 M10.85 2.45 L11.2 0.25 12.8 -5.7 13.15 -5.35 16.3 0.1 10.85 2.45 M12.7 13.95 L9.9 17.0 5.35 17.1 7.8 16.9 5.45 17.05 2.6 17.2 5.35 15.15 8.4 12.85 9.9 14.15 9.9 11.9 11.6 13.9 12.7 13.95 M-14.55 1.35 L-7.75 1.8 -7.75 4.25 -8.45 6.95 -6.95 1.5 -5.6 4.55 -2.65 14.3 -6.05 16.4 -9.1 10.0 -6.9 4.05 -9.35 9.4 -13.65 3.35 -14.55 1.35" fill="#cccccc" fill-rule="evenodd" stroke="none"/>
      <path d="M5.45 -1.4 L5.9 -2.6 5.95 -2.6 5.45 -1.4 M-2.1 -14.1 L-2.7 -12.0 -6.55 -7.25 -1.6 -3.4 3.35 0.45 -0.65 9.5 0.4 0.55 -2.55 -1.75 -6.3 -4.75 -6.0 0.5 -7.9 -8.0 -2.1 -14.1 M7.85 0.0 L8.05 0.6 9.15 2.0 9.65 1.0 10.8 -2.25 11.2 0.25 10.85 2.45 11.55 2.95 9.35 3.8 -0.1 16.95 0.4 16.85 -0.75 17.15 0.7 14.55 7.5 1.65 6.7 0.45 5.9 -0.8 6.95 -3.45 11.35 -7.1 11.1 -5.9 6.95 -2.95 7.85 0.0 M-10.85 9.9 L-7.7 17.1 -11.75 10.45 -13.45 10.75 -16.4 11.45 -8.65 17.05 -8.35 17.1 -8.35 17.15 -10.8 17.15 -18.65 10.75 -17.35 7.45 -17.55 10.35 -13.9 9.6 -12.8 9.4 -10.85 9.9" fill="#dddddd" fill-rule="evenodd" stroke="none"/>
      <path d="M7.85 0.0 L9.5 -4.5 6.95 -2.95 11.1 -5.9 10.9 -2.7 10.8 -2.25 9.65 1.0 9.15 2.0 8.05 0.6 7.85 0.0 M6.7 0.45 L7.5 1.65 0.7 14.55 -1.2 17.15 -0.8 12.95 6.7 0.45" fill="#aaaaaa" fill-rule="evenodd" stroke="none"/>
      <path d="M5.3 -1.0 L6.9 -9.65 1.6 -13.2 1.6 -12.85 3.35 0.45 -0.05 -11.65 -1.1 -13.25 -2.7 -12.0 -2.1 -14.1 0.7 -16.4 8.45 -10.25 5.9 -2.6 5.45 -1.4 5.3 -1.0 M10.8 -2.25 L10.9 -2.7 11.1 -5.9 11.35 -7.1 12.8 -5.7 11.2 0.25 10.8 -2.25 M11.55 2.95 L10.85 2.45 16.3 0.1 13.15 -5.35 18.65 -0.1 12.7 5.35 14.6 2.3 11.55 2.95 M9.45 10.55 L14.0 11.2 12.7 13.95 11.6 13.9 9.9 11.9 9.9 14.15 8.4 12.85 8.4 12.3 8.4 12.2 8.4 12.25 9.45 10.55 M-14.55 0.3 L-7.25 0.9 -6.95 1.5 -7.75 4.25 -7.75 1.8 -14.55 1.35 -14.55 0.3" fill="#ffffff" fill-rule="evenodd" stroke="none"/>
      <path d="M5.9 -2.6 L5.95 -2.65 5.95 -2.6 5.9 -2.6 M-8.2 17.1 L-8.35 17.15 -8.35 17.1 -8.2 17.1" fill="#b5f2ff" fill-rule="evenodd" stroke="none"/>
      <path d="M8.4 12.25 L8.4 12.2 8.4 12.3 7.85 12.85 8.4 12.25 M-7.7 17.1 L-8.35 17.15 -8.2 17.1 -7.7 17.1" fill="#00618a" fill-rule="evenodd" stroke="none"/>
      <path d="M5.3 -1.0 L5.45 -1.4 5.95 -2.6 5.95 -2.65 5.9 -2.6 8.45 -10.25 0.7 -16.4 -2.1 -14.1 -7.9 -8.0 -6.0 0.5 -6.3 -4.75 -2.55 -1.75 -1.35 11.0 -0.65 9.5 3.35 0.45 5.3 -1.0 M-2.7 -12.0 L-1.1 -13.25 -0.05 -11.65 -1.6 -3.4 -6.55 -7.25 -2.7 -12.0 M6.95 -2.95 L9.5 -4.5 7.85 0.0 6.95 -2.95 M11.35 -7.1 L6.95 -3.45 5.9 -0.8 6.7 0.45 -0.8 12.95 -1.2 17.15 0.7 14.55 -0.75 17.15 0.4 16.85 5.35 15.15 2.6 17.2 5.45 17.05 5.35 17.1 9.9 17.0 12.7 13.95 14.0 11.2 9.45 10.55 8.9 10.5 3.3 14.1 12.7 5.35 18.65 -0.1 13.15 -5.35 12.8 -5.7 11.35 -7.1 M9.4 -10.5 L7.95 -5.55 11.5 -7.75 19.65 -0.35 19.55 0.45 9.65 9.55 14.7 10.5 15.0 11.15 11.1 17.35 -12.2 17.25 -19.45 10.75 -15.1 -0.55 -7.9 -0.35 -9.45 -8.15 0.45 -17.85 9.4 -10.5 M-6.95 1.5 L-7.25 0.9 -14.55 0.3 -14.95 2.95 -12.8 9.4 -13.9 9.6 -17.35 7.45 -18.65 10.75 -10.8 17.15 -8.35 17.15 -7.7 17.1 -10.85 9.9 -13.65 3.35 -9.35 9.4 -6.9 4.05 -9.1 10.0 -6.05 16.4 -2.65 14.3 -5.6 4.55 -6.95 1.5 M-13.45 10.75 L-11.75 10.45 -8.65 17.05 -13.45 10.75" fill="#000000" fill-rule="evenodd" stroke="none"/>
      <path d="M-0.05 -11.65 L3.35 0.45 -1.6 -3.4 -0.05 -11.65 M0.4 16.85 L-0.1 16.95 9.35 3.8 11.55 2.95 14.6 2.3 12.7 5.35 3.3 14.1 8.9 10.5 9.45 10.55 8.4 12.25 7.85 12.85 8.4 12.3 8.4 12.85 5.35 15.15 0.4 16.85 M-2.55 -1.75 L0.4 0.55 -0.65 9.5 -1.35 11.0 -2.55 -1.75 M-14.55 0.3 L-14.55 1.35 -13.65 3.35 -10.85 9.9 -12.8 9.4 -14.95 2.95 -14.55 0.3 M-17.35 7.45 L-13.9 9.6 -17.55 10.35 -17.35 7.45 M-13.45 10.75 L-8.65 17.05 -11.75 10.45 -7.7 17.1 -8.2 17.1 -8.35 17.1 -8.65 17.05 -16.4 11.45 -13.45 10.75" fill="#999999" fill-rule="evenodd" stroke="none"/>
    </g>
    <g id="sprite1" transform="matrix(1.0, 0.0, 0.0, 1.0, 16.6, 16.4)">
      <use height="32.8" transform="matrix(1.0, 0.0, 0.0, 1.0, -16.6, -16.4)" width="33.2" xlink:href="#shape1"/>
    </g>
    <g id="shape1" transform="matrix(1.0, 0.0, 0.0, 1.0, 16.6, 16.4)">
      <path d="M2.2 -3.4 L0.35 -2.45 -2.1 -11.65 -3.15 -13.25 -4.75 -12.0 -4.15 -14.1 -1.35 -16.4 6.4 -10.25 3.85 -2.6 3.15 -3.7 4.85 -9.65 -0.5 -13.25 2.2 -3.4 M9.15 0.25 L8.75 -2.25 8.85 -2.7 9.05 -5.9 9.3 -7.1 10.75 -5.7 9.15 0.25 M11.1 -5.35 L16.6 -0.1 10.65 5.35 12.55 2.3 9.5 2.95 8.8 2.45 14.25 0.1 11.1 -5.35 M9.55 13.9 Q10.2 12.75 9.85 12.25 9.25 11.25 7.7 10.95 L7.85 14.15 6.35 12.85 6.35 12.3 6.35 12.2 6.35 12.25 7.4 10.55 11.95 11.2 10.65 13.95 9.55 13.9 M-9.8 4.25 L-9.8 1.8 -16.6 1.35 -16.6 0.3 -9.4 0.7 -9.0 1.5 -9.8 4.25" fill="#ffffff" fill-rule="evenodd" stroke="none"/>
      <path d="M2.2 -3.4 L-0.5 -13.25 4.85 -9.65 3.15 -3.7 2.75 -2.3 2.2 -3.4 M9.15 0.25 L10.75 -5.7 10.8 -5.9 11.1 -5.35 14.25 0.1 8.8 2.45 9.15 0.25 M7.85 14.15 L7.7 10.95 Q9.25 11.25 9.85 12.25 10.2 12.75 9.55 13.9 8.75 14.95 7.9 15.05 L7.85 14.15 M-16.6 1.35 L-9.8 1.8 -9.8 4.25 -10.75 7.85 -12.45 7.3 -15.7 3.35 -16.6 1.35 M-8.1 16.4 L-9.4 13.85 -10.4 9.65 Q-6.8 8.6 -7.7 4.55 L-4.55 14.2 -8.1 16.4" fill="url(#gradient0)" fill-rule="evenodd" stroke="none"/>
    </g>
    <linearGradient gradientTransform="matrix(1.0, 0.0, 0.0, 1.0, 0.0, 0.0)" gradientUnits="userSpaceOnUse" id="gradient0" spreadMethod="pad" x1="-819.2" x2="819.2">
      <stop offset="0.0" stop-color="#ffffff"/>
      <stop offset="1.0" stop-color="#ffffff" stop-opacity="0.0"/>
    </linearGradient>
  </defs>
</svg>
