<?xml version="1.0" encoding="UTF-8" standalone="no"?>
<svg
   xmlns:dc="http://purl.org/dc/elements/1.1/"
   xmlns:cc="http://creativecommons.org/ns#"
   xmlns:rdf="http://www.w3.org/1999/02/22-rdf-syntax-ns#"
   xmlns:svg="http://www.w3.org/2000/svg"
   xmlns="http://www.w3.org/2000/svg"
   xmlns:sodipodi="http://sodipodi.sourceforge.net/DTD/sodipodi-0.dtd"
   xmlns:inkscape="http://www.inkscape.org/namespaces/inkscape"
   height="28.482096"
   width="29.37093"
   version="1.1"
   id="svg81"
   sodipodi:docname="3176.svg"
   inkscape:version="0.92.1 r15371">
  <metadata
     id="metadata87">
    <rdf:RDF>
      <cc:Work
         rdf:about="">
        <dc:format>image/svg+xml</dc:format>
        <dc:type
           rdf:resource="http://purl.org/dc/dcmitype/StillImage" />
        <dc:title></dc:title>
      </cc:Work>
    </rdf:RDF>
  </metadata>
  <defs
     id="defs85">
    <linearGradient
       gradientTransform="matrix(0.0043,0,0,0.0065,5.8,-6.55)"
       gradientUnits="userSpaceOnUse"
       id="gradient0"
       spreadMethod="pad"
       x1="-819.20001"
       x2="819.20001">
      <stop
         offset="0.23137254901960785"
         stop-color="#687cb7"
         id="stop22" />
      <stop
         offset="1.0"
         stop-color="#ffffff"
         id="stop24" />
    </linearGradient>
    <linearGradient
       gradientTransform="matrix(-0.0026,-0.0039,0.0047,-0.0029,5.35,2.8)"
       gradientUnits="userSpaceOnUse"
       id="gradient1"
       spreadMethod="pad"
       x1="-819.20001"
       x2="819.20001">
      <stop
         offset="0.28627450980392155"
         stop-color="#ffffff"
         id="stop27" />
      <stop
         offset="1.0"
         stop-color="#8db8d6"
         id="stop29" />
    </linearGradient>
    <linearGradient
       gradientTransform="matrix(0.0044,0,0,0.004,-5.85,-1.8)"
       gradientUnits="userSpaceOnUse"
       id="gradient2"
       spreadMethod="pad"
       x1="-819.20001"
       x2="819.20001">
      <stop
         offset="0.23137254901960785"
         stop-color="#687cb7"
         id="stop32" />
      <stop
         offset="1.0"
         stop-color="#ffffff"
         id="stop34" />
    </linearGradient>
    <linearGradient
       gradientTransform="matrix(0.0027,0,0,0.0048,0.1,2.85)"
       gradientUnits="userSpaceOnUse"
       id="gradient3"
       spreadMethod="pad"
       x1="-819.20001"
       x2="819.20001">
      <stop
         offset="0.28627450980392155"
         stop-color="#5a85c9"
         id="stop37" />
      <stop
         offset="1.0"
         stop-color="#22475e"
         id="stop39" />
    </linearGradient>
    <linearGradient
       gradientTransform="matrix(0.0046,0,0,0.0031,-1.85,9.35)"
       gradientUnits="userSpaceOnUse"
       id="gradient4"
       spreadMethod="pad"
       x1="-819.20001"
       x2="819.20001">
      <stop
         offset="0.23137254901960785"
         stop-color="#687cb7"
         id="stop42" />
      <stop
         offset="1.0"
         stop-color="#ffffff"
         id="stop44" />
    </linearGradient>
    <linearGradient
       gradientTransform="matrix(0.0024,0,0,0.0037,3.3,8.9)"
       gradientUnits="userSpaceOnUse"
       id="gradient5"
       spreadMethod="pad"
       x1="-819.20001"
       x2="819.20001">
      <stop
         offset="0.28627450980392155"
         stop-color="#5a85c9"
         id="stop47" />
      <stop
         offset="1.0"
         stop-color="#22475e"
         id="stop49" />
    </linearGradient>
    <linearGradient
       gradientTransform="matrix(-0.0016,-0.0036,0.0067,-0.0027,-6.25,5.7)"
       gradientUnits="userSpaceOnUse"
       id="gradient6"
       spreadMethod="pad"
       x1="-819.20001"
       x2="819.20001">
      <stop
         offset="0.28627450980392155"
         stop-color="#ffffff"
         id="stop52" />
      <stop
         offset="1.0"
         stop-color="#8db8d6"
         id="stop54" />
    </linearGradient>
  </defs>
  <sodipodi:namedview
     pagecolor="#ffffff"
     bordercolor="#666666"
     borderopacity="1"
     objecttolerance="10"
     gridtolerance="10"
     guidetolerance="10"
     inkscape:pageopacity="0"
     inkscape:pageshadow="2"
     inkscape:window-width="960"
     inkscape:window-height="1016"
     id="namedview83"
     showgrid="false"
     inkscape:object-nodes="false"
     inkscape:pagecheckerboard="true"
     fit-margin-top="0"
     fit-margin-left="0"
     fit-margin-right="0"
     fit-margin-bottom="0"
     inkscape:zoom="11.45631"
     inkscape:cx="12.40161"
     inkscape:cy="9.0879641"
     inkscape:window-x="960"
     inkscape:window-y="27"
     inkscape:window-maximized="0"
     inkscape:current-layer="svg81" />
  <g
     transform="matrix(0.90210808,0,0,0.90210808,20.868333,11.779693)"
     id="g79">
    <path
       d="m 2.3,0.35 v 0.1 H -2.05 L -3.85,-7.6 2.9,-9.45 2.3,0.35"
       id="path65"
       inkscape:connector-curvature="0"
       style="fill:#ffffff;fill-rule:evenodd;stroke:none" />
    <path
       d="m 1.65,7.35 v 3.8 L -6.05,9.9 1.65,7.35"
       id="path67"
       inkscape:connector-curvature="0"
       style="fill:#cc6600;fill-rule:evenodd;stroke:none" />
    <path
       d="m 9.35,0.05 -7.05,0.3 0.6,-9.8 6.45,9.5 M -9.3,3.1 -7.9,-2.7 -2.05,0.45 -9.3,3.1"
       id="path69"
       inkscape:connector-curvature="0"
       style="fill:#ffa74f;fill-rule:evenodd;stroke:none" />
    <path
       d="M 9.35,0.05 9.4,0.1 6.6,8.3 1.65,7.35 2.3,0.55 2.35,0.45 H 2.3 v -0.1 l 7.05,-0.3 m -13.2,-7.65 1.8,8.05 -5.85,-3.15 4.05,-4.9 m -2.2,17.5 -3.25,-6.8 7.25,-2.65 -4,9.45"
       id="path71"
       inkscape:connector-curvature="0"
       style="fill:#ffd7ae;fill-rule:evenodd;stroke:none" />
    <path
       d="M 2.3,0.55 1.65,7.35 6.6,8.3 1.65,11.15 v -3.8 l -3.7,-6.9 H 2.3 v 0.1"
       id="path73"
       inkscape:connector-curvature="0"
       style="fill:#d96c00;fill-rule:evenodd;stroke:none" />
    <path
       d="m -2.05,0.45 3.7,6.9 -7.7,2.55 4,-9.45"
       id="path75"
       inkscape:connector-curvature="0"
       style="fill:#ffc58a;fill-rule:evenodd;stroke:none" />
    <path
       d="M 9.4,0.1 9.35,0.05"
       id="path77"
       inkscape:connector-curvature="0"
       style="fill:none;stroke:#000404;stroke-width:0.05;stroke-linecap:round;stroke-linejoin:round" />
  </g>
  <g
     transform="matrix(0.77713986,0,0,0.77713986,6.8973125,10.219389)"
     id="g101">
    <path
       style="fill:#ffffff;fill-rule:evenodd;stroke:none"
       inkscape:connector-curvature="0"
       d="m -8.25,-6.1 3.7,-6.05 7.8,-1 L -3,-7.3 2.4,-1.45 -1.85,1.15 -3,-7.3 -8.25,-6.1"
       id="path89" />
    <path
       style="fill:#aeff17;fill-rule:evenodd;stroke:none"
       inkscape:connector-curvature="0"
       d="m 2.4,-1.45 6.35,-2.9 -2.35,10.7 -4,-7.8 M -8.8,2.6 -8.85,2.55 -8.25,-6.1 -3,-7.3 -1.85,1.15 -8.8,2.6"
       id="path91" />
    <path
       style="fill:#95e600;fill-rule:evenodd;stroke:none"
       inkscape:connector-curvature="0"
       d="m 3.25,-13.15 5.5,8.8 -6.35,2.9 0.85,-11.7"
       id="path93" />
    <path
       style="fill:#85cc00;fill-rule:evenodd;stroke:none"
       inkscape:connector-curvature="0"
       d="M 3.25,-13.15 2.4,-1.45 -3,-7.3 3.25,-13.15 m 3.15,19.5 -6.8,5.1 -0.1,-0.1 -1.35,-10.2 4.25,-2.6 4,7.8"
       id="path95" />
    <path
       style="fill:#6faa00;fill-rule:evenodd;stroke:none"
       inkscape:connector-curvature="0"
       d="m -0.5,11.35 -5.3,-2.9 -3,-5.85 6.95,-1.45 1.35,10.2"
       id="path97" />
    <path
       style="fill:none;stroke:#000404;stroke-width:0.05;stroke-linecap:round;stroke-linejoin:round"
       inkscape:connector-curvature="0"
       d="m -0.4,11.45 -0.1,-0.1 M -8.8,2.6 -8.85,2.55"
       id="path99" />
  </g>
  <g
     transform="translate(13.232118,16.506843)"
     id="g20">
    <path
       style="fill:#ffffff;fill-rule:evenodd;stroke:none"
       inkscape:connector-curvature="0"
       d="M -5.6,11.4 -5.8,11.3 -2.5,0.15 -2.2,0.05 -3.55,-5 3,-12 l 0.1,0.15 -0.8,10.6 v 0.1 l -4.45,1.05 3.45,6.9 -6.9,4.6"
       id="path2" />
    <path
       style="fill:url(#gradient0);fill-rule:evenodd;stroke:none"
       inkscape:connector-curvature="0"
       d="m 3.1,-11.85 6.25,10.3 -7.05,0.3 0.8,-10.6"
       id="path4" />
    <path
       style="fill:url(#gradient1);fill-rule:evenodd;stroke:none"
       inkscape:connector-curvature="0"
       d="M 9.35,-1.55 9.4,-1.5 5.3,5.85 1.35,7.2 V 7.05 6.9 6.75 l 0.95,-7.8 0.05,-0.1 H 2.3 v -0.1 l 7.05,-0.3"
       id="path6" />
    <path
       style="fill:url(#gradient2);fill-rule:evenodd;stroke:none"
       inkscape:connector-curvature="0"
       d="M -9.3,1.5 -9.4,1.3 -3.55,-5 -2.2,0.05 -2.5,0.15 -9.3,1.5"
       id="path8" />
    <path
       style="fill:url(#gradient3);fill-rule:evenodd;stroke:none"
       inkscape:connector-curvature="0"
       d="M 2.3,-1.05 1.35,6.75 1.3,6.8 -2.15,-0.1 2.3,-1.15 v 0.1"
       id="path10" />
    <path
       style="fill:url(#gradient4);fill-rule:evenodd;stroke:none"
       inkscape:connector-curvature="0"
       d="M 1.95,11.9 1.9,11.95 -5.6,11.4 1.3,6.8 1.35,6.9 V 7.05 L 1.3,7.2 h 0.05 l 0.6,4.7"
       id="path12" />
    <path
       style="fill:url(#gradient5);fill-rule:evenodd;stroke:none"
       inkscape:connector-curvature="0"
       d="M 5.3,5.85 1.95,11.9 1.35,7.2 5.3,5.85"
       id="path14" />
    <path
       style="fill:url(#gradient6);fill-rule:evenodd;stroke:none"
       inkscape:connector-curvature="0"
       d="M -5.8,11.3 -9.3,1.5 -2.5,0.15 -5.8,11.3"
       id="path16" />
    <path
       style="fill:none;stroke:#000404;stroke-width:0.05;stroke-linecap:round;stroke-linejoin:round"
       inkscape:connector-curvature="0"
       d="M 9.35,-1.55 9.4,-1.5 M 1.95,11.9 1.9,11.95 M 3,-12 l 0.1,0.15"
       id="path18" />
  </g>
</svg>
