<?xml version="1.0" encoding="UTF-8" standalone="no"?>
<svg xmlns:xlink="http://www.w3.org/1999/xlink" height="23.65px" width="32.05px" xmlns="http://www.w3.org/2000/svg">
  <g transform="matrix(1.0, 0.0, 0.0, 1.0, 15.6, 23.45)">
    <path d="M13.45 -19.4 L12.6 -18.85 13.4 -17.55 14.25 -18.15 14.0 -19.2 13.45 -19.4 M11.5 -16.65 L10.7 -17.9 11.35 -20.1 Q4.6 -22.0 -1.8 -19.2 L-4.1 -18.55 -3.55 -14.85 -0.8 -12.3 Q6.75 -12.35 13.15 -16.6 L11.5 -16.65 M-4.2 -20.1 L1.05 -20.85 7.6 -22.1 Q11.05 -22.6 13.65 -20.2 16.4 -17.75 15.15 -14.05 14.0 -10.9 11.55 -8.55 9.25 -6.25 6.4 -4.25 L3.65 -3.75 Q0.75 -4.25 -1.75 -5.7 L-3.7 -7.75 Q-5.85 -10.25 -5.85 -13.45 -5.85 -16.9 -4.2 -20.1" fill="#c8bd86" fill-rule="evenodd" stroke="none"/>
    <path d="M13.45 -19.4 L14.0 -19.2 14.25 -18.15 13.4 -17.55 12.6 -18.85 13.45 -19.4 M-4.2 -20.1 Q-5.85 -16.9 -5.85 -13.45 -5.85 -10.25 -3.7 -7.75 L-1.75 -5.7 -2.25 -5.15 -5.4 -5.0 Q-6.75 -6.8 -7.45 -9.05 L-9.3 -14.4 -10.2 -15.75 -12.95 -15.2 -10.8 -17.1 Q-8.2 -19.4 -4.8 -20.45 L-4.2 -20.1" fill="#ab9c4e" fill-rule="evenodd" stroke="none"/>
    <path d="M-1.75 -5.7 Q0.75 -4.25 3.65 -3.75 L6.4 -4.25 6.25 -2.85 Q3.55 -1.05 0.15 -0.35 L-6.05 -0.85 Q-9.3 -1.65 -11.35 -4.15 -13.85 -7.3 -13.55 -11.35 L-12.95 -15.2 -10.2 -15.75 -9.3 -14.4 -7.45 -9.05 Q-6.75 -6.8 -5.4 -5.0 L-2.25 -5.15 -1.75 -5.7 M-12.1 -3.2 Q-14.4 -3.5 -15.0 -5.8 L-15.25 -6.9 -14.45 -9.05 Q-14.05 -7.15 -13.1 -5.2 L-12.1 -3.2" fill="#8a7e3e" fill-rule="evenodd" stroke="none"/>
    <path d="M11.5 -16.65 L13.15 -16.6 Q6.75 -12.35 -0.8 -12.3 L-3.55 -14.85 -4.1 -18.55 -1.8 -19.2 Q4.6 -22.0 11.35 -20.1 L10.7 -17.9 11.5 -16.65 M8.65 -19.75 L7.95 -20.25 Q2.95 -19.7 -1.2 -17.35 L-1.05 -16.15 -0.75 -15.9 Q4.2 -16.7 8.6 -19.2 L8.65 -19.75" fill="#dfd8b7" fill-rule="evenodd" stroke="none"/>
    <path d="M6.4 -4.25 Q9.25 -6.25 11.55 -8.55 14.0 -10.9 15.15 -14.05 16.4 -17.75 13.65 -20.2 11.05 -22.6 7.6 -22.1 L1.05 -20.85 -4.2 -20.1 -4.8 -20.45 Q-8.2 -19.4 -10.8 -17.1 L-12.95 -15.2 -13.55 -11.35 Q-13.85 -7.3 -11.35 -4.15 -9.3 -1.65 -6.05 -0.85 L0.15 -0.35 Q3.55 -1.05 6.25 -2.85 L6.4 -4.25 M10.7 -23.2 Q13.9 -22.15 15.55 -19.15 17.45 -15.55 15.35 -11.85 13.1 -7.75 9.55 -5.05 L8.55 -4.3 7.45 -3.6 7.3 -2.25 Q5.0 -0.2 1.2 0.0 L-4.95 0.2 Q-7.35 0.15 -8.9 -0.65 L-12.4 -2.35 Q-15.95 -4.1 -15.55 -7.85 L-15.25 -8.8 -14.6 -10.0 -14.45 -12.6 Q-14.3 -15.2 -12.55 -16.85 -9.8 -19.55 -6.3 -20.9 L-5.5 -21.25 -4.7 -21.65 -4.05 -21.35 8.85 -23.45 10.7 -23.2 M-12.1 -3.2 L-13.1 -5.2 Q-14.05 -7.15 -14.45 -9.05 L-15.25 -6.9 -15.0 -5.8 Q-14.4 -3.5 -12.1 -3.2" fill="#000000" fill-rule="evenodd" stroke="none"/>
    <path d="M8.65 -19.75 L8.6 -19.2 Q4.2 -16.7 -0.75 -15.9 L-1.05 -16.15 -1.2 -17.35 Q2.95 -19.7 7.95 -20.25 L8.65 -19.75" fill="#ece7d5" fill-rule="evenodd" stroke="none"/>
  </g>
</svg>
