<?xml version="1.0" encoding="UTF-8" standalone="no"?>
<svg xmlns:xlink="http://www.w3.org/1999/xlink" height="22.0px" width="20.4px" xmlns="http://www.w3.org/2000/svg">
  <g transform="matrix(1.0, 0.0, 0.0, 1.0, 10.2, 20.6)">
    <path d="M5.2 -19.1 L5.2 -19.15 Q7.4 -17.75 8.7 -15.35 L8.7 -15.4 Q9.65 -13.65 10.1 -11.8 10.35 -10.4 10.1 -9.05 L9.9 -8.65 8.35 -7.45 Q6.85 -6.7 5.35 -6.45 L5.65 -5.7 5.65 -5.75 Q6.75 -2.8 4.6 -0.55 L4.55 -0.55 Q2.45 1.6 -0.5 1.4 L-0.6 1.4 Q-2.95 1.05 -4.65 -0.65 L-4.75 -0.8 Q-5.2 -1.4 -5.45 -2.15 L-5.65 -3.8 -5.65 -3.85 Q-5.5 -5.4 -4.65 -6.7 L-5.45 -6.8 -5.6 -6.85 -7.45 -7.5 Q-9.55 -8.45 -10.0 -10.0 -10.55 -11.55 -9.4 -13.6 -8.25 -15.8 -6.65 -17.3 -4.6 -19.25 -1.8 -20.05 L1.1 -20.55 1.3 -20.55 Q3.35 -20.4 5.2 -19.1" fill="#000000" fill-rule="evenodd" stroke="none"/>
    <path d="M-3.7 -5.4 L-3.35 -5.9 -3.05 -6.05 Q-2.75 -5.9 -2.85 -5.45 -3.0 -4.8 -3.6 -4.6 L-3.75 -4.65 -3.7 -5.4" fill="#ffffff" fill-rule="evenodd" stroke="none"/>
    <path d="M-2.85 -7.35 Q-0.1 -9.35 2.7 -7.8 5.45 -6.3 4.75 -3.35 4.0 -0.2 0.85 0.3 -2.0 0.7 -3.9 -1.45 -0.75 -0.75 1.1 -3.3 1.9 -4.4 2.0 -5.75 L1.5 -6.25 Q-0.95 -5.85 -3.15 -7.0 L-2.85 -7.35" fill="#8080aa" fill-rule="evenodd" stroke="none"/>
    <path d="M-2.85 -7.35 L-3.15 -7.0 Q-0.95 -5.85 1.5 -6.25 L2.0 -5.75 Q1.9 -4.4 1.1 -3.3 -0.75 -0.75 -3.9 -1.45 L-4.45 -2.6 -4.6 -3.85 Q-4.4 -5.85 -2.85 -7.35 M-3.7 -5.4 L-3.75 -4.65 -3.6 -4.6 Q-3.0 -4.8 -2.85 -5.45 -2.75 -5.9 -3.05 -6.05 L-3.35 -5.9 -3.7 -5.4" fill="#9bbcdd" fill-rule="evenodd" stroke="none"/>
    <path d="M1.25 -19.65 L1.25 -19.05 Q3.1 -17.7 4.0 -15.4 4.85 -13.15 4.2 -10.85 L3.75 -10.0 Q2.05 -8.3 -0.55 -8.25 L-5.25 -7.9 -7.0 -8.55 Q-10.25 -9.95 -8.5 -13.25 -7.45 -15.3 -5.95 -16.65 -4.05 -18.45 -1.45 -19.2 L1.25 -19.65 M-1.0 -18.1 L-1.35 -18.35 -3.0 -17.7 Q-4.65 -16.7 -4.65 -15.1 L-4.25 -15.05 Q-1.85 -15.75 -0.9 -18.0 L-1.0 -18.1" fill="#6699cc" fill-rule="evenodd" stroke="none"/>
    <path d="M-1.0 -18.1 L-0.9 -18.0 Q-1.85 -15.75 -4.25 -15.05 L-4.65 -15.1 Q-4.65 -16.7 -3.0 -17.7 L-1.35 -18.35 -1.0 -18.1" fill="#ffffff" fill-rule="evenodd" stroke="none"/>
    <path d="M-5.25 -7.9 L-0.55 -8.25 Q2.05 -8.3 3.75 -10.0 L4.2 -10.85 Q4.85 -13.15 4.0 -15.4 3.1 -17.7 1.25 -19.05 L1.25 -19.65 Q3.05 -19.5 4.7 -18.4 6.7 -17.15 7.85 -15.0 L9.15 -11.7 Q9.4 -10.5 9.15 -9.4 L7.95 -8.45 Q5.8 -7.35 3.55 -7.5 1.1 -7.45 -1.25 -7.55 L-5.25 -7.9" fill="#666699" fill-rule="evenodd" stroke="none"/>
  </g>
</svg>
