<?xml version="1.0" encoding="UTF-8" standalone="no"?>
<svg
   xmlns:dc="http://purl.org/dc/elements/1.1/"
   xmlns:cc="http://creativecommons.org/ns#"
   xmlns:rdf="http://www.w3.org/1999/02/22-rdf-syntax-ns#"
   xmlns:svg="http://www.w3.org/2000/svg"
   xmlns="http://www.w3.org/2000/svg"
   xmlns:sodipodi="http://sodipodi.sourceforge.net/DTD/sodipodi-0.dtd"
   xmlns:inkscape="http://www.inkscape.org/namespaces/inkscape"
   height="37.25px"
   width="34.85px"
   version="1.1"
   id="svg16"
   sodipodi:docname="2557.svg"
   inkscape:version="0.92.1 r15371">
  <metadata
     id="metadata22">
    <rdf:RDF>
      <cc:Work
         rdf:about="">
        <dc:format>image/svg+xml</dc:format>
        <dc:type
           rdf:resource="http://purl.org/dc/dcmitype/StillImage" />
        <dc:title></dc:title>
      </cc:Work>
    </rdf:RDF>
  </metadata>
  <defs
     id="defs20" />
  <sodipodi:namedview
     pagecolor="#ffffff"
     bordercolor="#666666"
     borderopacity="1"
     objecttolerance="10"
     gridtolerance="10"
     guidetolerance="10"
     inkscape:pageopacity="0"
     inkscape:pageshadow="2"
     inkscape:window-width="960"
     inkscape:window-height="1016"
     id="namedview18"
     showgrid="false"
     inkscape:object-nodes="false"
     inkscape:zoom="6.3355705"
     inkscape:cx="17.740677"
     inkscape:cy="18.625"
     inkscape:window-x="960"
     inkscape:window-y="27"
     inkscape:window-maximized="0"
     inkscape:current-layer="svg16" />
  <g
     transform="matrix(1.0, 0.0, 0.0, 1.0, 21.5, 34.95)"
     id="g14">
    <path
       d="M-1.65 -34.9 L-1.1 -34.45 13.1 -13.3 13.3 -13.0 13.35 -12.6 13.35 -11.65 13.2 -11.1 12.75 -10.75 12.1 -10.45 12.0 -10.4 12.1 -10.2 13.1 -8.7 13.3 -8.4 13.35 -8.0 13.35 -7.05 13.2 -6.5 12.75 -6.15 -4.9 2.2 -5.55 2.25 -6.1 1.9 -6.2 1.8 -6.25 1.7 -20.4 -19.45 -20.45 -19.5 Q-22.5 -23.1 -20.5 -25.95 L-20.45 -26.1 -20.0 -26.5 -2.35 -34.8 -1.65 -34.9"
       fill="#000000"
       fill-rule="evenodd"
       stroke="none"
       id="path2" />
    <path
       d="M-19.6 -19.9 Q-21.45 -23.0 -19.6 -25.5 L-1.95 -33.8 12.3 -12.55 -5.35 -4.25 -5.35 -4.2 -19.6 -25.5 -19.6 -24.5 -5.75 -3.75 -5.65 -3.65 -6.2 -2.05 -6.2 -0.9 -19.6 -20.9 -19.6 -19.9 M11.05 -9.85 L12.3 -7.95 -4.7 0.05 -4.85 -0.3 -4.95 -0.65 -5.0 -0.75 11.1 -8.3 Q11.0 -9.05 11.05 -9.85"
       fill="#8d5c2e"
       fill-rule="evenodd"
       stroke="none"
       id="path4" />
    <path
       d="M12.3 -12.55 L12.3 -11.55 11.15 -11.0 -4.9 -3.4 -5.1 -2.55 Q-5.25 -1.7 -5.0 -0.75 L-4.95 -0.65 -4.85 -0.3 -4.7 0.05 12.3 -7.95 12.3 -6.95 -5.35 1.4 -5.45 1.25 -19.6 -19.9 -19.6 -20.9 -6.2 -0.9 -6.2 -2.05 -5.65 -3.65 -5.75 -3.75 -5.35 -4.2 -5.35 -4.25 12.3 -12.55"
       fill="#5a3c1d"
       fill-rule="evenodd"
       stroke="none"
       id="path6" />
    <path
       d="M11.15 -11.0 L11.05 -10.05 -5.1 -2.55 -4.9 -3.4 11.15 -11.0"
       fill="#d08515"
       fill-rule="evenodd"
       stroke="none"
       id="path8" />
    <path
       d="M11.05 -10.05 L11.05 -9.85 Q11.0 -9.05 11.1 -8.3 L-5.0 -0.75 Q-5.25 -1.7 -5.1 -2.55 L11.05 -10.05"
       fill="#fed23d"
       fill-rule="evenodd"
       stroke="none"
       id="path10" />
    <path
       d="M-5.75 -3.75 L-19.6 -24.5 -19.6 -25.5 -5.35 -4.2 -5.75 -3.75"
       fill="#eaa77b"
       fill-rule="evenodd"
       stroke="none"
       id="path12" />
  </g>
  <g
     transform="matrix(0.49511635,-0.31217522,0.31217522,0.49511635,17.844837,16.418328)"
     id="g14-6">
    <g
       id="use2">
      <g
         id="use3724">
        <path
           style="fill:#d08515;fill-rule:evenodd;stroke:none"
           inkscape:connector-curvature="0"
           id="path3748"
           d="m 2.5,-11.35 -3.05,-3.9 5.05,3.1 q 0.35,0 0.35,1.35 0,1.65 -2.8,2.4 l -3.7,0.9 q 3.75,2.6 4.2,4.35 0.2,0.85 -0.25,0.7 l -0.4,0.2 -1.5,-0.4 -2.2,0.85 -0.65,-0.05 -0.05,-0.7 q 0,-0.45 1.15,-1 -1.1,-0.25 -2.2,-1.6 -1.2,-1.4 -1.2,-2.15 0,-1.35 1.65,-2.5 1.4,-1 2.3,-1 l 3.05,-0.55 H 2.5 m -6.45,-1.3 0.45,1.45 -0.1,0.45 -0.35,0.1 q -0.8,0 -1.4,-1.25 -0.6,-1.15 -0.6,-2.45 0,-0.75 0.35,-0.7 l 0.85,0.25 0.8,2.15" />
      </g>
    </g>
    <g
       transform="matrix(0.5,0.866,-0.866,0.5,4e-4,-2e-4)"
       id="use4">
      <g
         id="use3728">
        <path
           style="fill:#d08515;fill-rule:evenodd;stroke:none"
           inkscape:connector-curvature="0"
           id="path3752"
           d="m 2.5,-11.35 -3.05,-3.9 5.05,3.1 q 0.35,0 0.35,1.35 0,1.65 -2.8,2.4 l -3.7,0.9 q 3.75,2.6 4.2,4.35 0.2,0.85 -0.25,0.7 l -0.4,0.2 -1.5,-0.4 -2.2,0.85 -0.65,-0.05 -0.05,-0.7 q 0,-0.45 1.15,-1 -1.1,-0.25 -2.2,-1.6 -1.2,-1.4 -1.2,-2.15 0,-1.35 1.65,-2.5 1.4,-1 2.3,-1 l 3.05,-0.55 H 2.5 m -6.45,-1.3 0.45,1.45 -0.1,0.45 -0.35,0.1 q -0.8,0 -1.4,-1.25 -0.6,-1.15 -0.6,-2.45 0,-0.75 0.35,-0.7 l 0.85,0.25 0.8,2.15" />
      </g>
    </g>
    <g
       transform="matrix(-0.5,0.866,-0.866,-0.5,-0.0499,-4e-4)"
       id="use6">
      <g
         id="use3732">
        <path
           style="fill:#d08515;fill-rule:evenodd;stroke:none"
           inkscape:connector-curvature="0"
           id="path3756"
           d="m 2.5,-11.35 -3.05,-3.9 5.05,3.1 q 0.35,0 0.35,1.35 0,1.65 -2.8,2.4 l -3.7,0.9 q 3.75,2.6 4.2,4.35 0.2,0.85 -0.25,0.7 l -0.4,0.2 -1.5,-0.4 -2.2,0.85 -0.65,-0.05 -0.05,-0.7 q 0,-0.45 1.15,-1 -1.1,-0.25 -2.2,-1.6 -1.2,-1.4 -1.2,-2.15 0,-1.35 1.65,-2.5 1.4,-1 2.3,-1 l 3.05,-0.55 H 2.5 m -6.45,-1.3 0.45,1.45 -0.1,0.45 -0.35,0.1 q -0.8,0 -1.4,-1.25 -0.6,-1.15 -0.6,-2.45 0,-0.75 0.35,-0.7 l 0.85,0.25 0.8,2.15" />
      </g>
    </g>
    <g
       transform="rotate(180,-0.02505,-0.02505)"
       id="use8">
      <g
         id="use3736">
        <path
           style="fill:#d08515;fill-rule:evenodd;stroke:none"
           inkscape:connector-curvature="0"
           id="path3760"
           d="m 2.5,-11.35 -3.05,-3.9 5.05,3.1 q 0.35,0 0.35,1.35 0,1.65 -2.8,2.4 l -3.7,0.9 q 3.75,2.6 4.2,4.35 0.2,0.85 -0.25,0.7 l -0.4,0.2 -1.5,-0.4 -2.2,0.85 -0.65,-0.05 -0.05,-0.7 q 0,-0.45 1.15,-1 -1.1,-0.25 -2.2,-1.6 -1.2,-1.4 -1.2,-2.15 0,-1.35 1.65,-2.5 1.4,-1 2.3,-1 l 3.05,-0.55 H 2.5 m -6.45,-1.3 0.45,1.45 -0.1,0.45 -0.35,0.1 q -0.8,0 -1.4,-1.25 -0.6,-1.15 -0.6,-2.45 0,-0.75 0.35,-0.7 l 0.85,0.25 0.8,2.15" />
      </g>
    </g>
    <g
       transform="matrix(-0.5,-0.866,0.866,-0.5,-4e-4,-0.0997)"
       id="use10">
      <g
         id="use3740">
        <path
           style="fill:#d08515;fill-rule:evenodd;stroke:none"
           inkscape:connector-curvature="0"
           id="path3764"
           d="m 2.5,-11.35 -3.05,-3.9 5.05,3.1 q 0.35,0 0.35,1.35 0,1.65 -2.8,2.4 l -3.7,0.9 q 3.75,2.6 4.2,4.35 0.2,0.85 -0.25,0.7 l -0.4,0.2 -1.5,-0.4 -2.2,0.85 -0.65,-0.05 -0.05,-0.7 q 0,-0.45 1.15,-1 -1.1,-0.25 -2.2,-1.6 -1.2,-1.4 -1.2,-2.15 0,-1.35 1.65,-2.5 1.4,-1 2.3,-1 l 3.05,-0.55 H 2.5 m -6.45,-1.3 0.45,1.45 -0.1,0.45 -0.35,0.1 q -0.8,0 -1.4,-1.25 -0.6,-1.15 -0.6,-2.45 0,-0.75 0.35,-0.7 l 0.85,0.25 0.8,2.15" />
      </g>
    </g>
    <g
       transform="matrix(0.5,-0.866,0.866,0.5,0.0497,-0.0497)"
       id="use12">
      <g
         id="use3744">
        <path
           style="fill:#d08515;fill-rule:evenodd;stroke:none"
           inkscape:connector-curvature="0"
           id="path3768"
           d="m 2.5,-11.35 -3.05,-3.9 5.05,3.1 q 0.35,0 0.35,1.35 0,1.65 -2.8,2.4 l -3.7,0.9 q 3.75,2.6 4.2,4.35 0.2,0.85 -0.25,0.7 l -0.4,0.2 -1.5,-0.4 -2.2,0.85 -0.65,-0.05 -0.05,-0.7 q 0,-0.45 1.15,-1 -1.1,-0.25 -2.2,-1.6 -1.2,-1.4 -1.2,-2.15 0,-1.35 1.65,-2.5 1.4,-1 2.3,-1 l 3.05,-0.55 H 2.5 m -6.45,-1.3 0.45,1.45 -0.1,0.45 -0.35,0.1 q -0.8,0 -1.4,-1.25 -0.6,-1.15 -0.6,-2.45 0,-0.75 0.35,-0.7 l 0.85,0.25 0.8,2.15" />
      </g>
    </g>
  </g>
  <g
     transform="translate(21.401483,35.248093)"
     id="g4">
    <path
       d="m 2.25,-12.55 q 1.7,0 1.7,0.85 0,0.55 -0.85,0.55 -1.25,0 -1.25,-0.95 l 0.1,-0.4 0.3,-0.05 m 4.6,-1.7 2,-0.85 q 0.65,0 0.8,0.75 0,0.45 -1.45,1 l -2.55,0.95 q -0.45,-0.2 -0.45,-0.5 0,-0.45 1.65,-1.35 m -17.4,-12.6 0.35,-0.2 q 0.55,0 0.75,0.35 l 0.45,0.6 q 1.1,-1.1 2.5,-1.55 0.5,-2.1 1.4,-2.4 0.55,0.15 0.5,1.1 -0.05,0.85 0.85,0.8 l 0.1,0.35 q 0,0.4 -1.15,0.9 -1,0.45 -1.4,0.45 -1.5,0 -1.9,0.95 -0.35,0.9 -0.85,0.9 -1,0 -1.65,-2 l 0.05,-0.25 m -4.95,1.15 q 0.45,0.5 0.75,1.7 0.25,1 0.9,1.5 l -0.25,-2.15 q -0.05,-1.8 1.05,-1.8 l 2.3,2.4 q -0.6,0.75 -0.95,0.75 -0.9,0 -1.2,-0.85 h -0.05 l 0.05,2.35 q 0,0.6 -0.9,0.6 -2.05,0 -2.35,-2.95 l 0.3,-1.4 0.35,-0.15 m 12.1,-4 0.35,-0.75 h 0.2 q 0.6,0 1.45,1.65 0,0.75 -0.7,0.75 -0.65,0 -1.3,-1.65 m 0.5,22.25 q -0.15,0.55 -0.6,0.55 -1.1,0 -2.4,-1 L -6,-8.3 q 0,-0.45 1.65,-1.35 0.7,0 1.45,2.2 m 1.45,-3.1 1.25,-1.15 q 0.75,0 0.7,0.9 0,2.05 -1.55,2.05 -1.7,0 -1.7,-1.5 0,-0.75 0.65,-0.75 0.45,0 0.65,0.45"
       id="path2-3"
       inkscape:connector-curvature="0"
       style="fill:#4f2f11;fill-rule:evenodd;stroke:none" />
  </g>
</svg>
