<?xml version="1.0" encoding="UTF-8" standalone="no"?>
<svg xmlns:xlink="http://www.w3.org/1999/xlink" height="23.45px" width="32.8px" xmlns="http://www.w3.org/2000/svg">
  <g transform="matrix(1.0, 0.0, 0.0, 1.0, 19.15, 19.05)">
    <path d="M-12.3 -10.55 L-11.4 -11.0 -10.2 -11.3 -9.65 -11.5 -9.4 -11.5 Q-7.3 -11.2 -5.7 -9.55 -4.85 -8.75 -4.35 -7.7 -3.7 -6.35 -3.7 -4.7 -3.7 -1.85 -5.7 0.15 -7.05 1.5 -8.8 1.95 L-10.55 2.15 Q-13.4 2.1 -15.4 0.15 -17.4 -1.85 -17.4 -4.7 -17.4 -7.05 -16.05 -8.8 L-15.4 -9.55 -14.5 -10.3 -14.25 -10.15 -14.3 -10.0 -15.2 -9.2 -15.5 -8.8 Q-16.65 -7.1 -16.65 -5.45 L-16.55 -3.45 Q-16.5 -2.6 -15.8 -1.55 -15.35 -0.8 -13.95 0.0 -12.2 0.95 -10.3 1.0 -9.3 1.0 -7.95 0.3 L-7.85 0.3 Q-6.3 -0.55 -5.7 -1.7 -5.05 -2.9 -5.05 -3.45 L-4.9 -5.25 Q-4.9 -6.95 -6.3 -8.55 -7.85 -10.4 -9.8 -10.4 -11.2 -10.4 -12.4 -9.55 L-13.35 -8.65 Q-14.85 -6.95 -14.85 -4.7 -14.85 -3.0 -13.45 -1.95 -12.1 -0.9 -9.95 -0.85 L-9.4 -0.9 Q-6.5 -1.15 -6.5 -4.1 -6.5 -5.35 -7.1 -6.6 -8.15 -8.6 -9.8 -8.55 -10.9 -8.6 -11.8 -7.9 L-12.2 -7.55 Q-13.25 -6.5 -13.25 -5.1 -13.25 -2.7 -10.5 -2.6 L-10.35 -2.6 Q-9.4 -2.6 -8.75 -3.45 -8.3 -4.1 -8.3 -4.7 -8.3 -6.5 -10.15 -6.45 -11.3 -6.45 -11.5 -5.7 L-11.55 -5.25 Q-11.55 -4.7 -11.2 -4.5 L-10.7 -4.4 Q-10.25 -4.4 -10.25 -4.75 -10.25 -5.1 -10.85 -5.25 -10.85 -5.75 -10.15 -5.7 -9.1 -5.75 -9.05 -4.7 -9.35 -3.4 -10.4 -3.4 L-10.85 -3.4 Q-12.55 -3.6 -12.55 -5.2 -12.55 -5.9 -11.95 -6.75 L-11.7 -7.0 Q-10.95 -7.85 -9.85 -7.8 -8.75 -7.85 -7.75 -6.2 -7.3 -5.4 -7.25 -4.1 -7.25 -1.6 -9.9 -1.6 L-9.95 -1.6 Q-14.15 -1.6 -14.15 -5.2 -14.15 -6.15 -13.2 -7.6 -12.6 -8.6 -11.8 -9.1 -10.95 -9.65 -9.85 -9.65 -7.85 -9.65 -6.6 -7.7 -5.65 -6.35 -5.65 -5.25 -5.65 -1.15 -8.55 -0.1 L-10.95 0.3 -13.5 -0.6 -15.2 -2.0 Q-15.75 -2.55 -15.8 -3.65 L-15.85 -5.45 -15.55 -7.25 -14.3 -8.95 -13.95 -9.35 -12.3 -10.55" fill="#fef1af" fill-rule="evenodd" stroke="none"/>
    <path d="M7.45 -15.35 L7.4 -15.3 7.4 -15.35 7.45 -15.35 M8.15 -14.85 L8.15 -14.9 8.75 -15.4 Q9.85 -15.05 10.45 -14.1 L12.0 -11.5 Q12.6 -10.05 12.55 -8.65 12.4 -7.15 11.7 -5.9 10.9 -4.7 9.55 -3.85 8.15 -3.05 6.55 -2.45 L3.6 -1.3 1.05 -0.4 -0.85 0.15 -2.3 0.8 -4.75 1.95 -7.65 2.85 -7.95 2.85 -10.45 3.2 Q-13.7 3.2 -15.95 0.9 -18.25 -1.35 -18.25 -4.6 -18.25 -7.9 -15.95 -10.15 -14.45 -11.7 -12.45 -12.2 L-10.15 -12.85 -8.0 -13.35 -7.75 -13.05 -7.5 -12.9 -9.7 -12.4 Q-6.9 -12.2 -4.9 -10.15 -3.9 -9.15 -3.3 -7.9 L0.15 -8.9 0.8 -9.1 1.15 -9.1 1.05 -9.1 2.1 -9.4 3.0 -9.05 3.3 -9.25 3.3 -9.4 Q3.65 -9.4 3.75 -9.95 L8.0 -10.6 Q11.1 -11.2 11.1 -11.8 11.1 -12.65 9.9 -13.8 9.1 -14.5 8.15 -14.85 M-3.3 -14.25 L-0.9 -14.75 1.75 -15.2 3.35 -15.45 4.15 -15.55 4.35 -15.4 4.15 -15.15 -0.45 -14.45 -1.15 -14.6 Q-2.2 -14.6 -2.2 -14.05 L-2.2 -14.0 -2.8 -13.8 -3.25 -14.05 -3.3 -14.25 M11.25 -10.1 L10.8 -10.55 Q0.1 -7.4 -1.1 -7.4 L-2.9 -6.85 -2.7 -5.95 Q-0.6 -6.1 4.5 -7.5 11.25 -9.4 11.25 -10.1 M6.9 -6.8 L3.75 -6.2 -2.6 -4.85 -2.6 -4.6 -2.6 -4.55 -2.5 -4.55 Q10.65 -7.1 10.65 -7.4 L10.4 -7.7 6.9 -6.8 M-12.3 -10.55 L-13.95 -9.35 -14.3 -8.95 -15.55 -7.25 -15.85 -5.45 -15.8 -3.65 Q-15.75 -2.55 -15.2 -2.0 L-13.5 -0.6 -10.95 0.3 -8.55 -0.1 Q-5.65 -1.15 -5.65 -5.25 -5.65 -6.35 -6.6 -7.7 -7.85 -9.65 -9.85 -9.65 -10.95 -9.65 -11.8 -9.1 -12.6 -8.6 -13.2 -7.6 -14.15 -6.15 -14.15 -5.2 -14.15 -1.6 -9.95 -1.6 L-9.9 -1.6 Q-7.25 -1.6 -7.25 -4.1 -7.3 -5.4 -7.75 -6.2 -8.75 -7.85 -9.85 -7.8 -10.95 -7.85 -11.7 -7.0 L-11.95 -6.75 Q-12.55 -5.9 -12.55 -5.2 -12.55 -3.6 -10.85 -3.4 L-10.4 -3.4 Q-9.35 -3.4 -9.05 -4.7 -9.1 -5.75 -10.15 -5.7 -10.85 -5.75 -10.85 -5.25 -10.25 -5.1 -10.25 -4.75 -10.25 -4.4 -10.7 -4.4 L-11.2 -4.5 Q-11.55 -4.7 -11.55 -5.25 L-11.5 -5.7 Q-11.3 -6.45 -10.15 -6.45 -8.3 -6.5 -8.3 -4.7 -8.3 -4.1 -8.75 -3.45 -9.4 -2.6 -10.35 -2.6 L-10.5 -2.6 Q-13.25 -2.7 -13.25 -5.1 -13.25 -6.5 -12.2 -7.55 L-11.8 -7.9 Q-10.9 -8.6 -9.8 -8.55 -8.15 -8.6 -7.1 -6.6 -6.5 -5.35 -6.5 -4.1 -6.5 -1.15 -9.4 -0.9 L-9.95 -0.85 Q-12.1 -0.9 -13.45 -1.95 -14.85 -3.0 -14.85 -4.7 -14.85 -6.95 -13.35 -8.65 L-12.4 -9.55 Q-11.2 -10.4 -9.8 -10.4 -7.85 -10.4 -6.3 -8.55 -4.9 -6.95 -4.9 -5.25 L-5.05 -3.45 Q-5.05 -2.9 -5.7 -1.7 -6.3 -0.55 -7.85 0.3 L-7.95 0.3 Q-9.3 1.0 -10.3 1.0 -12.2 0.95 -13.95 0.0 -15.35 -0.8 -15.8 -1.55 -16.5 -2.6 -16.55 -3.45 L-16.65 -5.45 Q-16.65 -7.1 -15.5 -8.8 L-15.2 -9.2 -14.3 -10.0 -14.25 -10.15 -14.5 -10.3 -15.4 -9.55 -16.05 -8.8 Q-17.4 -7.05 -17.4 -4.7 -17.4 -1.85 -15.4 0.15 -13.4 2.1 -10.55 2.15 L-8.8 1.95 Q-7.05 1.5 -5.7 0.15 -3.7 -1.85 -3.7 -4.7 -3.7 -6.35 -4.35 -7.7 -4.85 -8.75 -5.7 -9.55 -7.3 -11.2 -9.4 -11.5 L-9.65 -11.5 -10.2 -11.3 -11.4 -11.0 -12.3 -10.55" fill="#63381d" fill-rule="evenodd" stroke="none"/>
    <path d="M7.25 -13.95 L7.55 -13.6 Q7.95 -13.6 8.15 -14.85 9.1 -14.5 9.9 -13.8 11.1 -12.65 11.1 -11.8 11.1 -11.2 8.0 -10.6 L3.75 -9.95 3.75 -10.3 Q3.75 -11.15 2.95 -11.7 3.35 -12.0 3.35 -12.9 3.3 -13.65 2.65 -13.6 2.2 -13.65 1.75 -13.15 L1.0 -12.75 Q0.85 -13.05 0.0 -13.05 L0.05 -13.4 Q0.05 -14.15 -0.45 -14.45 L4.15 -15.15 3.75 -14.6 Q3.75 -14.3 4.05 -14.3 L4.35 -14.6 4.35 -14.45 Q4.65 -13.35 5.85 -13.3 6.9 -13.35 7.25 -13.95 M-7.5 -12.9 L-6.15 -12.25 -5.25 -12.95 -5.0 -12.75 -5.15 -12.35 Q-5.15 -11.7 -3.95 -11.7 -3.15 -11.7 -3.15 -12.05 L-2.8 -12.3 -2.7 -11.55 -2.9 -11.05 -2.95 -10.7 -2.95 -10.65 -2.95 -10.55 Q-2.95 -10.15 -2.0 -10.15 L-0.4 -10.5 Q0.15 -10.5 0.35 -9.7 0.5 -9.25 0.8 -9.1 L0.15 -8.9 -3.3 -7.9 Q-3.9 -9.15 -4.9 -10.15 -6.9 -12.2 -9.7 -12.4 L-7.5 -12.9 M-4.85 -13.2 L-4.9 -13.2 -4.85 -13.2 M-2.15 -13.0 L-2.35 -12.7 -2.6 -12.85 -2.6 -13.1 -2.8 -13.8 -2.2 -14.0 -2.15 -13.95 -2.25 -13.4 -2.15 -13.0 M6.9 -6.8 L10.4 -7.7 10.65 -7.4 Q10.65 -7.1 -2.5 -4.55 L-2.6 -4.55 -2.6 -4.6 -2.6 -4.85 3.75 -6.2 6.9 -6.8 M11.25 -10.1 Q11.25 -9.4 4.5 -7.5 -0.6 -6.1 -2.7 -5.95 L-2.9 -6.85 -1.1 -7.4 Q0.1 -7.4 10.8 -10.55 L11.25 -10.1" fill="#a36121" fill-rule="evenodd" stroke="none"/>
    <path d="M3.25 -16.05 L3.2 -16.1 3.3 -16.1 3.25 -16.05 M4.95 -15.7 L4.6 -15.9 5.5 -15.7 6.0 -15.5 7.25 -15.7 7.75 -15.55 7.5 -15.45 7.45 -15.35 7.4 -15.35 7.4 -15.3 7.35 -15.2 6.85 -15.2 6.7 -15.2 5.35 -15.25 5.15 -15.45 5.0 -15.6 4.95 -15.65 4.95 -15.7 M7.2 -14.45 L7.15 -14.15 6.25 -14.0 Q4.85 -14.0 4.4 -14.6 L4.7 -14.95 5.65 -14.4 7.2 -14.45" fill="#f3d661" fill-rule="evenodd" stroke="none"/>
    <path d="M3.55 -15.85 L3.6 -15.85 3.5 -15.7 3.35 -15.45 3.55 -15.85" fill="#fefdab" fill-rule="evenodd" stroke="none"/>
    <path d="M4.95 -15.7 L4.6 -15.8 4.5 -15.85 4.6 -15.9 4.95 -15.7 M7.35 -15.2 Q7.2 -14.9 7.2 -14.45 L5.65 -14.4 4.7 -14.95 5.05 -15.45 5.0 -15.6 5.15 -15.45 5.35 -15.25 6.7 -15.2 6.85 -15.2 7.35 -15.2" fill="#efc418" fill-rule="evenodd" stroke="none"/>
    <path d="M4.6 -15.9 L4.55 -15.9 4.5 -15.9 Q3.8 -16.4 3.8 -16.8 3.8 -18.25 5.6 -18.25 6.95 -18.25 7.85 -17.6 8.55 -17.1 8.55 -16.65 L8.45 -16.05 7.75 -15.55 7.25 -15.7 6.0 -15.5 5.5 -15.7 4.6 -15.9 M7.15 -14.15 L7.15 -14.1 7.25 -13.95 Q6.9 -13.35 5.85 -13.3 4.65 -13.35 4.35 -14.45 L4.35 -14.6 4.4 -14.6 Q4.85 -14.0 6.25 -14.0 L7.15 -14.15" fill="#fef189" fill-rule="evenodd" stroke="none"/>
    <path d="M-4.9 -13.2 L-5.15 -13.5 Q-5.65 -13.5 -6.2 -12.95 L-6.5 -13.1 -7.25 -13.5 -8.0 -14.3 -8.1 -14.3 -8.7 -14.7 Q-9.3 -14.9 -9.3 -15.4 -9.35 -16.2 -6.95 -15.75 -6.95 -16.85 -6.45 -16.85 -5.75 -16.85 -4.5 -16.25 L-4.75 -16.05 Q-5.15 -16.05 -5.25 -16.3 L-5.85 -16.6 Q-6.1 -16.6 -6.95 -15.2 L-6.9 -14.95 -7.6 -15.2 -7.95 -14.85 -6.9 -13.55 -6.5 -13.1 -5.2 -13.85 -4.7 -13.7 -4.85 -13.4 -4.85 -13.2 -4.9 -13.2 M-4.2 -16.3 Q-3.95 -17.05 -3.5 -17.05 L-3.1 -16.45 -3.4 -15.05 -3.3 -14.25 -3.25 -14.05 -3.5 -14.1 -3.9 -14.05 -3.9 -14.1 -4.3 -14.75 Q-3.8 -15.25 -3.75 -15.8 L-4.2 -16.3 M1.0 -12.75 L1.75 -13.15 Q2.2 -13.65 2.65 -13.6 3.3 -13.65 3.35 -12.9 3.35 -12.0 2.95 -11.7 3.75 -11.15 3.75 -10.3 L3.75 -9.95 Q3.65 -9.4 3.3 -9.4 3.15 -9.95 2.1 -9.95 L1.35 -9.7 1.1 -9.7 0.9 -10.05 1.05 -10.05 Q3.05 -10.05 3.1 -10.95 L2.6 -11.55 2.45 -12.95 0.65 -11.65 Q0.35 -11.95 -1.15 -12.45 -1.95 -12.45 -1.95 -11.45 L-1.55 -11.05 Q-1.2 -11.55 -0.4 -11.55 0.15 -11.55 0.35 -10.8 L-0.2 -11.05 -2.0 -10.6 -2.55 -10.6 -2.15 -11.8 Q-2.1 -12.25 -2.6 -12.25 L-2.7 -12.25 -2.75 -12.05 -2.55 -11.8 -2.7 -11.55 -2.8 -12.3 -2.6 -12.85 -2.35 -12.7 -2.15 -13.0 Q-2.0 -12.5 -1.35 -12.45 -0.85 -12.5 -0.6 -12.7 L-0.5 -12.7 -0.15 -12.8 Q0.05 -12.5 0.65 -12.5 1.0 -12.5 1.0 -12.65 L1.0 -12.75 M-2.95 -10.65 L-2.95 -10.7 -2.9 -11.05 -2.95 -10.65 M-6.55 -14.0 L-6.6 -14.45 -6.2 -14.2 -6.55 -14.0" fill="#009900" fill-rule="evenodd" stroke="none"/>
    <path d="M-4.5 -16.25 L-4.25 -16.15 -4.2 -16.3 -3.75 -15.8 Q-3.8 -15.25 -4.3 -14.75 L-3.9 -14.1 -3.9 -14.05 -4.7 -13.7 -5.2 -13.85 -6.5 -13.1 -6.9 -13.55 -7.95 -14.85 -7.6 -15.2 -6.9 -14.95 -6.95 -15.2 Q-6.1 -16.6 -5.85 -16.6 L-5.25 -16.3 Q-5.15 -16.05 -4.75 -16.05 L-4.5 -16.25 M0.35 -10.8 Q0.15 -11.55 -0.4 -11.55 -1.2 -11.55 -1.55 -11.05 L-1.95 -11.45 Q-1.95 -12.45 -1.15 -12.45 0.35 -11.95 0.65 -11.65 L2.45 -12.95 2.6 -11.55 3.1 -10.95 Q3.05 -10.05 1.05 -10.05 L0.9 -10.05 0.35 -10.8 M-6.55 -14.0 L-6.2 -14.2 -6.6 -14.45 -6.55 -14.0" fill="#03ca02" fill-rule="evenodd" stroke="none"/>
    <path d="M-3.15 -12.05 L-3.15 -12.1 -3.25 -12.25 Q-4.65 -12.05 -4.65 -12.5 L-4.55 -12.85 -4.7 -13.0 -4.85 -13.2 -4.85 -13.4 -4.7 -13.7 -3.9 -14.05 -3.5 -14.1 -3.25 -14.05 -2.8 -13.8 Q-3.0 -14.0 -3.4 -14.0 -4.15 -14.0 -4.25 -13.5 L-4.3 -13.25 Q-4.25 -12.35 -3.5 -12.35 -2.65 -12.35 -2.6 -13.25 L-2.8 -13.8 -2.6 -13.1 -2.6 -12.85 -2.8 -12.3 -3.15 -12.05 M-0.6 -12.7 Q-0.85 -12.5 -1.35 -12.45 -2.0 -12.5 -2.15 -13.0 L-2.25 -13.4 -2.15 -13.95 -2.1 -13.9 -1.75 -14.05 -1.95 -13.55 Q-1.95 -12.8 -1.15 -12.8 L-0.75 -12.9 -0.6 -12.7" fill="#a90101" fill-rule="evenodd" stroke="none"/>
    <path d="M-4.25 -13.5 Q-4.15 -14.0 -3.4 -14.0 -3.0 -14.0 -2.8 -13.8 L-2.6 -13.25 Q-2.65 -12.35 -3.5 -12.35 -4.25 -12.35 -4.3 -13.25 L-4.25 -13.5 M-1.75 -14.05 L-1.3 -14.1 Q-0.45 -14.1 -0.45 -13.4 L-0.75 -12.9 -1.15 -12.8 Q-1.95 -12.8 -1.95 -13.55 L-1.75 -14.05" fill="#fd0202" fill-rule="evenodd" stroke="none"/>
    <path d="M11.35 -14.5 L13.0 -11.7 Q13.7 -10.05 13.65 -8.4 L13.65 -8.35 Q13.5 -6.65 12.65 -5.2 L12.65 -5.15 Q11.7 -3.75 10.15 -2.8 L10.15 -2.75 7.05 -1.35 Q5.55 -0.7 4.05 -0.15 L4.0 -0.15 1.45 0.75 1.4 0.75 -0.4 1.3 -1.75 1.9 -1.8 1.9 -4.2 3.05 Q-5.75 3.8 -7.4 4.05 L-7.45 4.05 -7.75 4.05 -10.35 4.4 Q-14.0 4.4 -16.55 1.8 -19.15 -0.75 -19.15 -4.4 -19.15 -8.1 -16.55 -10.65 -14.9 -12.4 -12.7 -12.95 L-12.6 -12.95 -10.3 -13.6 -9.5 -13.8 Q-10.3 -14.3 -10.2 -15.15 L-10.2 -15.2 Q-10.4 -16.45 -8.8 -16.65 L-7.75 -16.7 Q-7.4 -17.8 -6.35 -17.65 L-4.65 -17.25 Q-4.15 -18.0 -3.4 -17.85 L-2.95 -17.75 -2.65 -17.45 Q-1.8 -16.4 -2.0 -16.2 L-2.0 -16.0 -2.2 -15.25 -1.0 -15.5 1.7 -16.0 Q2.1 -16.65 2.9 -16.9 3.0 -17.95 3.7 -18.45 4.35 -19.05 5.7 -19.05 7.4 -19.05 8.5 -18.25 L8.55 -18.2 Q9.75 -17.35 9.65 -16.45 L9.65 -16.0 Q10.7 -15.45 11.4 -14.45 L11.35 -14.5 M3.55 -15.85 L3.35 -15.45 3.5 -15.7 3.6 -15.85 3.55 -15.85 M3.25 -16.05 L3.3 -16.1 3.2 -16.1 3.25 -16.05 M4.6 -15.9 L4.5 -15.85 4.6 -15.8 4.95 -15.7 4.95 -15.65 5.0 -15.6 5.05 -15.45 4.7 -14.95 4.4 -14.6 4.35 -14.6 4.05 -14.3 Q3.75 -14.3 3.75 -14.6 L4.15 -15.15 4.35 -15.4 4.15 -15.55 3.35 -15.45 1.75 -15.2 -0.9 -14.75 -3.3 -14.25 -3.4 -15.05 -3.1 -16.45 -3.5 -17.05 Q-3.95 -17.05 -4.2 -16.3 L-4.25 -16.15 -4.5 -16.25 Q-5.75 -16.85 -6.45 -16.85 -6.95 -16.85 -6.95 -15.75 -9.35 -16.2 -9.3 -15.4 -9.3 -14.9 -8.7 -14.7 L-8.1 -14.3 -8.0 -14.3 -7.25 -13.5 -6.5 -13.1 -6.2 -12.95 Q-5.65 -13.5 -5.15 -13.5 L-4.9 -13.2 -4.85 -13.2 -4.7 -13.0 -4.55 -12.85 -4.65 -12.5 Q-4.65 -12.05 -3.25 -12.25 L-3.15 -12.1 -3.15 -12.05 Q-3.15 -11.7 -3.95 -11.7 -5.15 -11.7 -5.15 -12.35 L-5.0 -12.75 -5.25 -12.95 -6.15 -12.25 -7.5 -12.9 -7.75 -13.05 -8.0 -13.35 -10.15 -12.85 -12.45 -12.2 Q-14.45 -11.7 -15.95 -10.15 -18.25 -7.9 -18.25 -4.6 -18.25 -1.35 -15.95 0.9 -13.7 3.2 -10.45 3.2 L-7.95 2.85 -7.65 2.85 -4.75 1.95 -2.3 0.8 -0.85 0.15 1.05 -0.4 3.6 -1.3 6.55 -2.45 Q8.15 -3.05 9.55 -3.85 10.9 -4.7 11.7 -5.9 12.4 -7.15 12.55 -8.65 12.6 -10.05 12.0 -11.5 L10.45 -14.1 Q9.85 -15.05 8.75 -15.4 L8.15 -14.9 8.15 -14.85 Q7.95 -13.6 7.55 -13.6 L7.25 -13.95 7.15 -14.1 7.15 -14.15 7.2 -14.45 Q7.2 -14.9 7.35 -15.2 L7.4 -15.3 7.45 -15.35 7.5 -15.45 7.75 -15.55 8.45 -16.05 8.55 -16.65 Q8.55 -17.1 7.85 -17.6 6.95 -18.25 5.6 -18.25 3.8 -18.25 3.8 -16.8 3.8 -16.4 4.5 -15.9 L4.55 -15.9 4.6 -15.9 M1.7 -16.0 L1.65 -15.95 1.7 -15.95 1.7 -16.0 M-0.45 -14.45 Q0.05 -14.15 0.05 -13.4 L0.0 -13.05 Q0.85 -13.05 1.0 -12.75 L1.0 -12.65 Q1.0 -12.5 0.65 -12.5 0.05 -12.5 -0.15 -12.8 L-0.5 -12.7 -0.6 -12.7 -0.75 -12.9 -0.45 -13.4 Q-0.45 -14.1 -1.3 -14.1 L-1.75 -14.05 -2.1 -13.9 -2.15 -13.95 -2.2 -14.0 -2.2 -14.05 Q-2.2 -14.6 -1.15 -14.6 L-0.45 -14.45 M-2.7 -11.55 L-2.55 -11.8 -2.75 -12.05 -2.7 -12.25 -2.6 -12.25 Q-2.1 -12.25 -2.15 -11.8 L-2.55 -10.6 -2.0 -10.6 -0.2 -11.05 0.35 -10.8 0.9 -10.05 1.1 -9.7 1.35 -9.7 2.1 -9.95 Q3.15 -9.95 3.3 -9.4 L3.3 -9.25 3.0 -9.05 2.1 -9.4 1.05 -9.1 1.15 -9.1 0.8 -9.1 Q0.5 -9.25 0.35 -9.7 0.15 -10.5 -0.4 -10.5 L-2.0 -10.15 Q-2.95 -10.15 -2.95 -10.55 L-2.95 -10.65 -2.9 -11.05 -2.7 -11.55" fill="#000000" fill-rule="evenodd" stroke="none"/>
  </g>
</svg>
