<?xml version="1.0" encoding="UTF-8" standalone="no"?>
<svg xmlns:xlink="http://www.w3.org/1999/xlink" height="25.85px" width="27.95px" xmlns="http://www.w3.org/2000/svg">
  <g transform="matrix(1.0, 0.0, 0.0, 1.0, 14.4, 22.05)">
    <path d="M5.4 -20.8 L10.9 -10.5 10.95 -10.5 11.15 -9.8 13.5 1.0 13.5 1.1 13.55 1.5 Q13.65 2.05 13.2 2.7 L13.2 2.65 Q12.7 3.4 11.65 3.7 L11.6 3.7 9.6 3.75 -12.1 -0.35 Q-13.1 -0.6 -13.7 -1.1 -14.55 -1.9 -14.35 -2.85 L-14.4 -2.8 -14.3 -3.1 -11.6 -13.35 -11.6 -13.3 Q-11.55 -14.05 -10.7 -14.55 L-10.65 -14.55 1.2 -21.6 Q1.8 -22.0 2.65 -22.0 L2.7 -22.0 4.2 -21.85 4.25 -21.8 5.4 -20.8 M10.25 -9.7 L10.15 -10.1 4.6 -20.4 Q4.45 -20.75 3.9 -20.95 L2.7 -21.1 1.65 -20.85 -10.2 -13.75 -10.75 -13.15 -11.25 -11.25 -13.4 -2.9 -13.5 -2.65 Q-13.55 -2.2 -13.1 -1.8 -12.65 -1.4 -11.9 -1.25 L9.75 2.85 11.35 2.8 12.5 2.1 12.65 1.55 12.6 1.2 12.6 1.15 10.5 -8.45 10.25 -9.7" fill="#000000" fill-rule="evenodd" stroke="none"/>
    <path d="M-10.75 -13.15 L-10.2 -13.75 1.65 -20.85 2.7 -21.1 3.9 -20.95 Q4.45 -20.75 4.6 -20.4 L10.15 -10.1 10.25 -9.7 10.05 -9.3 Q9.8 -8.95 9.15 -8.8 L7.85 -8.75 -9.5 -12.0 Q-10.1 -12.1 -10.4 -12.4 L-10.75 -13.15 M2.25 -16.9 L2.6 -16.9 5.8 -10.95 7.8 -10.6 3.15 -19.3 2.8 -19.3 2.55 -19.25 -7.25 -13.4 -4.55 -12.9 2.0 -16.85 2.25 -16.9" fill="#8d4f25" fill-rule="evenodd" stroke="none"/>
    <path d="M10.5 -8.45 L12.6 1.15 12.6 1.2 12.65 1.55 12.5 2.1 11.35 2.8 9.75 2.85 -11.9 -1.25 Q-12.65 -1.4 -13.1 -1.8 -13.55 -2.2 -13.5 -2.65 L-13.4 -2.9 -11.25 -11.25 -11.15 -11.15 Q-10.8 -10.85 -10.15 -10.75 L7.95 -7.45 9.35 -7.5 10.25 -8.05 10.5 -8.45 M2.25 -16.9 L2.0 -16.85 -4.55 -12.9 -7.25 -13.4 2.55 -19.25 2.8 -19.3 3.15 -19.3 7.8 -10.6 5.8 -10.95 2.6 -16.9 2.25 -16.9" fill="#5f3418" fill-rule="evenodd" stroke="none"/>
    <path d="M10.25 -9.7 L10.5 -8.45 10.25 -8.05 9.35 -7.5 7.95 -7.45 -10.15 -10.75 Q-10.8 -10.85 -11.15 -11.15 L-11.25 -11.25 -10.75 -13.15 -10.4 -12.4 Q-10.1 -12.1 -9.5 -12.0 L7.85 -8.75 9.15 -8.8 Q9.8 -8.95 10.05 -9.3 L10.25 -9.7" fill="#cc753c" fill-rule="evenodd" stroke="none"/>
  </g>
</svg>
