<?xml version="1.0" encoding="UTF-8" standalone="no"?>
<svg xmlns:xlink="http://www.w3.org/1999/xlink" height="21.9px" width="39.0px" xmlns="http://www.w3.org/2000/svg">
  <g transform="matrix(1.0, 0.0, 0.0, 1.0, 19.05, 17.35)">
    <path d="M7.2 -7.45 L8.8 -6.8 10.5 -6.4 13.15 -6.05 13.2 -6.05 13.3 -6.05 13.45 -6.0 13.85 -6.0 13.9 -6.0 Q14.4 -6.85 16.0 -6.7 L16.35 -6.55 16.35 -6.6 16.6 -6.35 Q17.25 -5.45 17.0 -5.15 16.95 -4.65 16.15 -4.1 L16.5 -4.25 16.45 -4.25 16.55 -4.25 18.4 -4.3 18.7 -4.15 18.7 -4.1 18.95 -3.8 Q19.35 -2.9 19.15 -2.6 19.05 -2.1 18.2 -1.75 L18.15 -1.7 18.5 -1.8 18.95 -1.7 19.75 -1.05 19.75 -1.0 Q20.1 -0.45 19.85 0.25 L19.75 0.5 19.7 0.55 19.65 0.6 19.7 0.6 19.2 1.0 18.55 0.95 18.35 0.85 18.05 0.95 18.1 1.45 18.1 1.85 18.05 1.85 Q17.8 2.5 17.4 2.65 17.0 2.9 16.4 2.65 L16.1 2.4 15.75 2.6 15.8 2.6 14.75 2.7 14.35 2.5 14.15 2.3 Q14.6 3.0 14.5 3.45 14.6 3.85 13.7 4.45 L13.35 4.55 13.0 4.5 Q11.45 3.85 11.35 2.9 L11.25 2.85 10.95 2.7 10.8 2.65 10.65 2.6 Q9.15 1.9 8.1 1.7 L2.15 0.2 0.2 -0.3 -1.15 -0.6 -1.2 -0.6 -2.9 -0.9 Q-5.15 -0.35 -15.1 -1.9 -16.9 -1.85 -17.65 -3.0 -18.45 -4.0 -18.2 -6.05 L-18.2 -6.2 Q-19.3 -7.05 -19.0 -7.85 L-18.9 -8.2 -17.75 -9.7 -17.75 -10.05 Q-17.7 -10.95 -16.4 -11.25 L-16.4 -11.3 Q-15.85 -13.35 -14.7 -13.9 L-14.75 -13.85 -14.45 -14.05 Q-14.25 -14.85 -12.95 -14.9 -12.1 -16.9 -10.9 -17.2 -9.7 -17.7 -8.25 -16.5 0.75 -11.7 2.4 -9.75 L3.95 -8.95 4.05 -8.9 Q4.65 -8.6 5.35 -8.25 L7.2 -7.45 M1.95 -8.8 L2.0 -8.9 Q2.25 -9.7 -8.65 -15.55 -10.8 -17.35 -12.1 -14.35 L-12.1 -13.7 -12.7 -13.75 -12.1 -13.5 -9.85 -12.75 Q-2.2 -10.2 -0.65 -8.8 L-0.25 -8.7 1.1 -8.3 1.15 -8.3 1.6 -8.15 2.5 -7.9 3.4 -7.7 4.45 -7.5 4.6 -7.45 Q4.15 -7.7 3.75 -7.9 2.7 -8.4 1.95 -8.8 M2.4 -7.15 L1.0 -7.5 -0.9 -8.1 -0.85 -8.2 Q-0.7 -9.0 -12.3 -12.7 -14.7 -14.1 -15.55 -10.9 L-15.45 -10.25 Q-16.8 -10.2 -16.85 -9.7 L-16.65 -7.6 Q-16.7 -7.3 -10.35 -6.35 L-2.05 -5.4 -1.0 -5.0 -0.8 -4.95 -0.65 -4.95 -0.6 -4.9 -0.55 -4.9 -0.4 -4.85 0.1 -4.75 1.75 -4.45 1.9 -4.45 4.0 -4.1 6.85 -3.4 12.45 -1.8 Q12.7 -1.4 13.2 -1.25 13.9 -1.1 14.45 -1.5 L15.3 -0.3 Q15.7 -0.2 15.8 -0.65 L15.05 -2.2 15.35 -2.1 Q15.9 -2.0 16.6 -2.55 L17.25 -2.4 17.3 -2.55 Q17.4 -3.1 16.75 -3.25 L15.7 -2.85 15.2 -3.35 15.1 -4.05 15.3 -4.4 15.75 -4.85 16.15 -5.25 15.95 -5.65 Q14.7 -5.75 14.6 -5.05 L14.6 -4.9 13.9 -4.95 13.35 -4.85 13.15 -5.0 10.35 -5.35 4.35 -6.65 2.4 -7.15 M2.95 -3.4 L0.9 -4.0 0.75 -4.05 -0.05 -4.2 -0.55 -4.3 -0.7 -4.35 -0.75 -4.35 -0.8 -4.35 -0.95 -4.4 -1.15 -4.45 -1.5 -4.55 -2.25 -4.85 -2.55 -4.9 -3.45 -4.85 -3.05 -4.95 -3.55 -5.1 -7.05 -5.75 -16.4 -7.3 Q-17.0 -7.3 -17.35 -8.9 L-18.1 -7.8 Q-18.2 -7.35 -17.0 -6.65 L-17.3 -6.1 -17.35 -5.95 Q-17.65 -2.85 -15.0 -2.95 -3.1 -1.05 -2.95 -1.85 L-2.9 -1.95 -1.0 -1.65 0.45 -1.35 2.4 -0.85 8.35 0.65 11.05 1.65 11.25 1.6 11.75 1.95 12.35 2.2 12.3 2.35 Q12.15 3.0 13.35 3.5 L13.65 3.25 13.45 2.65 Q13.15 2.25 13.2 2.1 L13.15 1.65 13.5 1.05 14.1 0.85 14.95 1.7 Q15.6 1.8 15.7 1.3 L15.7 1.1 15.05 1.0 Q14.6 0.1 14.05 0.0 L13.8 -0.05 14.45 -0.5 14.25 -0.75 13.6 -0.65 13.05 -0.7 12.05 -1.3 11.4 -1.55 11.05 -1.65 Q9.05 -1.9 5.85 -2.7 L2.95 -3.4 M18.2 -3.2 L17.85 -3.3 17.9 -2.55 17.85 -2.45 17.9 -2.45 18.4 -2.8 18.2 -3.2 M15.95 -4.05 L15.9 -4.05 15.9 -4.0 15.95 -4.0 15.9 -4.0 15.85 -4.0 15.85 -4.05 15.8 -4.05 15.85 -4.0 15.9 -3.8 15.95 -3.85 16.05 -4.05 15.95 -4.05 16.05 -4.05 15.9 -4.0 15.95 -4.05 M17.15 -1.1 L17.15 -1.8 17.05 -1.85 16.7 -1.95 16.15 -1.6 16.35 -0.95 16.35 -0.65 15.9 0.15 15.25 0.3 15.35 0.45 15.75 0.5 16.0 0.65 16.15 0.6 16.8 1.95 Q17.15 2.1 17.35 1.65 17.25 0.55 16.85 0.05 L17.1 0.15 18.4 -0.05 19.0 0.25 19.15 0.1 Q19.3 -0.4 18.7 -0.7 L17.6 -0.5 17.15 -1.1 M13.9 2.0 L13.9 2.05 14.0 2.1 14.0 1.95 13.95 2.0 13.9 2.0 M17.85 -1.7 L17.85 -1.65 17.9 -1.65 17.85 -1.7" fill="#000000" fill-rule="evenodd" stroke="none"/>
    <path d="M-0.1 -8.85 L0.55 -8.55 -0.2 -8.75 -0.15 -8.85 -0.1 -8.85 M2.4 -7.15 L4.35 -6.65 10.35 -5.35 13.15 -5.0 13.35 -4.85 Q13.0 -4.75 12.75 -4.45 L12.15 -3.45 12.2 -2.45 Q12.25 -2.05 12.45 -1.8 L6.85 -3.4 4.0 -4.1 Q4.2 -4.8 1.35 -5.3 L1.45 -5.9 2.5 -5.95 Q3.05 -5.95 3.15 -6.45 L2.4 -7.15 M0.45 -1.35 Q1.3 -1.4 1.35 -1.65 1.45 -2.15 0.95 -2.4 L0.0 -2.9 0.15 -3.5 2.95 -3.4 5.85 -2.7 Q9.05 -1.9 11.05 -1.65 L11.4 -1.55 11.05 -1.1 10.65 -0.25 Q10.55 0.25 10.85 0.95 L11.25 1.6 11.05 1.65 8.35 0.65 2.4 -0.85 0.45 -1.35 M-2.9 -7.7 L-2.25 -7.55 -3.0 -7.6 -3.0 -7.75 -2.9 -7.7 M-4.25 -3.15 L-4.55 -3.3 -4.5 -3.3 -4.0 -3.05 -4.25 -3.15" fill="#fffbdd" fill-rule="evenodd" stroke="none"/>
    <path d="M13.35 -4.85 L13.9 -4.95 14.2 -4.9 14.25 -4.9 14.85 -4.5 15.1 -4.05 15.2 -3.35 15.15 -2.65 15.1 -2.55 15.0 -2.2 14.45 -1.5 Q13.9 -1.1 13.2 -1.25 12.7 -1.4 12.45 -1.8 12.25 -2.05 12.2 -2.45 L12.15 -3.45 12.75 -4.45 Q13.0 -4.75 13.35 -4.85 M11.4 -1.55 L12.05 -1.3 13.05 -0.7 13.6 -0.65 13.7 -0.1 13.7 0.3 13.7 0.4 13.5 1.05 13.15 1.65 12.75 1.95 12.05 2.05 12.0 2.0 11.75 1.95 11.25 1.6 10.85 0.95 Q10.55 0.25 10.65 -0.25 L11.05 -1.1 11.4 -1.55 M16.15 0.6 L16.0 0.65 15.75 0.5 15.35 0.45 15.25 0.3 15.9 0.15 16.35 -0.65 16.35 -0.95 16.15 -1.6 16.7 -1.95 17.05 -1.85 17.15 -1.8 17.15 -1.1 17.0 -0.4 16.95 -0.3 16.75 0.0 16.15 0.6" fill="#fff9c4" fill-rule="evenodd" stroke="none"/>
    <path d="M3.4 -7.7 L3.75 -7.9 Q4.15 -7.7 4.6 -7.45 L4.45 -7.5 3.4 -7.7 M1.0 -7.5 L2.4 -7.15 3.15 -6.45 Q3.05 -5.95 2.5 -5.95 L1.45 -5.9 1.35 -5.3 Q4.2 -4.8 4.0 -4.1 L1.9 -4.45 1.75 -4.45 0.75 -5.5 Q-0.55 -6.75 -0.6 -7.15 0.65 -7.05 1.0 -7.5 M0.75 -4.05 L0.9 -4.0 2.95 -3.4 0.15 -3.5 0.0 -2.9 0.95 -2.4 Q1.45 -2.15 1.35 -1.65 1.3 -1.4 0.45 -1.35 L-1.0 -1.65 Q-1.1 -2.2 -2.3 -2.65 -2.1 -3.05 -0.5 -3.55 L0.75 -4.05" fill="#ecfede" fill-rule="evenodd" stroke="none"/>
    <path d="M1.7 -8.95 L1.95 -8.8 Q2.7 -8.4 3.75 -7.9 L3.4 -7.7 2.5 -7.9 1.6 -8.15 1.7 -8.5 1.7 -8.95 M1.75 -4.45 L0.1 -4.75 -0.4 -4.85 -0.55 -4.9 -0.6 -4.9 -0.55 -5.05 Q-0.5 -5.45 -0.9 -5.85 -1.4 -6.3 -1.25 -6.85 L-1.1 -7.7 -1.15 -8.15 -0.9 -8.1 1.0 -7.5 Q0.65 -7.05 -0.6 -7.15 -0.55 -6.75 0.75 -5.5 L1.75 -4.45 M0.75 -4.05 L-0.5 -3.55 Q-2.1 -3.05 -2.3 -2.65 -1.1 -2.2 -1.0 -1.65 L-2.9 -1.95 -3.2 -2.0 -3.0 -2.4 -2.8 -3.25 Q-2.75 -3.8 -2.15 -4.0 -1.6 -4.2 -1.5 -4.55 L-1.15 -4.45 -0.95 -4.4 -0.8 -4.35 -0.75 -4.35 -0.7 -4.35 -0.55 -4.3 -0.05 -4.2 0.75 -4.05" fill="#9ff9a8" fill-rule="evenodd" stroke="none"/>
    <path d="M0.4 -9.8 L0.5 -9.75 0.6 -9.65 1.15 -9.3 Q1.4 -9.15 1.7 -8.95 L1.7 -8.5 1.6 -8.15 1.15 -8.3 1.1 -8.3 -0.25 -8.7 -0.2 -8.75 0.55 -8.55 -0.1 -8.85 0.0 -8.95 0.35 -9.55 0.4 -9.8 M-0.6 -4.9 L-0.65 -4.95 -0.8 -4.95 -1.0 -5.0 -2.05 -5.4 -2.4 -5.65 -3.0 -6.65 -3.0 -6.7 -3.05 -6.8 -3.35 -6.9 -3.7 -6.95 -3.55 -7.3 Q-3.25 -7.3 -3.0 -7.6 L-2.25 -7.55 -2.9 -7.7 -2.85 -7.85 -2.6 -8.5 -2.55 -8.75 -2.5 -8.75 -2.35 -8.65 -1.8 -8.4 -1.15 -8.2 -1.15 -8.15 -1.1 -7.7 -1.25 -6.85 Q-1.4 -6.3 -0.9 -5.85 -0.5 -5.45 -0.55 -5.05 L-0.6 -4.9 M-3.45 -4.85 L-2.55 -4.9 -2.25 -4.85 -1.5 -4.55 Q-1.6 -4.2 -2.15 -4.0 -2.75 -3.8 -2.8 -3.25 L-3.0 -2.4 -3.2 -2.0 -3.75 -2.05 Q-3.6 -2.25 -3.6 -2.55 L-3.7 -2.7 -4.25 -3.15 -4.0 -3.05 -4.5 -3.3 -4.15 -3.55 Q-4.15 -4.0 -5.1 -4.2 L-5.1 -4.3 -4.75 -4.2 -4.4 -4.1 -4.35 -4.2 -4.35 -4.25 -3.45 -4.85" fill="#52e97e" fill-rule="evenodd" stroke="none"/>
    <path d="M-9.85 -13.2 L-9.7 -13.55 Q-9.5 -14.2 -9.05 -14.25 -8.25 -14.35 -6.0 -13.2 L-4.5 -12.55 0.35 -9.8 0.4 -9.8 0.35 -9.55 0.0 -8.95 -0.1 -8.85 -0.15 -8.85 -0.2 -8.75 -0.25 -8.7 -0.65 -8.8 Q-2.2 -10.2 -9.85 -12.75 L-9.85 -13.2 M-13.2 -10.2 L-13.1 -10.55 Q-13.0 -11.2 -12.55 -11.35 -11.8 -11.6 -9.4 -10.9 L-7.8 -10.55 -2.65 -8.75 -2.55 -8.75 -2.6 -8.5 -2.85 -7.85 -2.9 -7.7 -3.0 -7.75 -3.0 -7.6 Q-3.25 -7.3 -3.55 -7.3 L-3.7 -6.95 -5.15 -7.5 Q-5.85 -7.9 -8.25 -8.5 L-12.3 -9.25 Q-13.3 -9.5 -13.2 -10.2" fill="#1cd252" fill-rule="evenodd" stroke="none"/>
    <path d="M-12.1 -13.7 L-10.0 -13.25 -9.85 -13.2 -9.85 -12.75 -12.1 -13.5 -12.7 -13.75 -12.1 -13.7 M-2.05 -5.4 L-10.35 -6.35 Q-16.7 -7.3 -16.65 -7.6 L-16.85 -9.7 Q-16.8 -10.2 -15.45 -10.25 L-13.35 -10.2 -13.2 -10.2 Q-13.3 -9.5 -12.3 -9.25 L-8.25 -8.5 Q-5.85 -7.9 -5.15 -7.5 L-3.7 -6.95 -3.35 -6.9 -3.05 -6.8 -3.0 -6.7 -3.0 -6.65 -2.4 -5.65 -2.05 -5.4 M-3.75 -2.05 L-4.45 -1.9 -6.25 -2.15 Q-7.7 -2.25 -7.2 -2.7 -7.95 -2.65 -7.95 -3.0 L-7.8 -3.3 -9.55 -3.8 Q-9.55 -4.1 -9.2 -4.1 L-8.35 -4.0 -8.4 -4.15 Q-8.4 -4.45 -7.9 -4.45 L-5.1 -4.2 Q-4.15 -4.0 -4.15 -3.55 L-4.5 -3.3 -4.55 -3.3 -4.25 -3.15 -3.7 -2.7 -3.6 -2.55 Q-3.6 -2.25 -3.75 -2.05" fill="#16a541" fill-rule="evenodd" stroke="none"/>
    <path d="M1.7 -8.95 Q1.4 -9.15 1.15 -9.3 L0.6 -9.65 0.5 -9.75 0.4 -9.8 0.35 -9.8 -4.5 -12.55 -6.0 -13.2 Q-8.25 -14.35 -9.05 -14.25 -9.5 -14.2 -9.7 -13.55 L-9.85 -13.2 -10.0 -13.25 -12.1 -13.7 -12.1 -14.35 Q-10.8 -17.35 -8.65 -15.55 2.25 -9.7 2.0 -8.9 L1.95 -8.8 1.7 -8.95 M-15.45 -10.25 L-15.55 -10.9 Q-14.7 -14.1 -12.3 -12.7 -0.7 -9.0 -0.85 -8.2 L-0.9 -8.1 -1.15 -8.15 -1.15 -8.2 -1.8 -8.4 -2.35 -8.65 -2.5 -8.75 -2.55 -8.75 -2.65 -8.75 -7.8 -10.55 -9.4 -10.9 Q-11.8 -11.6 -12.55 -11.35 -13.0 -11.2 -13.1 -10.55 L-13.2 -10.2 -13.35 -10.2 -15.45 -10.25 M-17.35 -5.95 L-14.95 -5.4 -14.9 -5.65 Q-14.75 -6.35 -13.75 -6.1 L-9.8 -4.95 -6.6 -4.45 -5.1 -4.3 -5.1 -4.2 -7.9 -4.45 Q-8.4 -4.45 -8.4 -4.15 L-8.35 -4.0 -9.2 -4.1 Q-9.55 -4.1 -9.55 -3.8 L-7.8 -3.3 -7.95 -3.0 Q-7.95 -2.65 -7.2 -2.7 -7.7 -2.25 -6.25 -2.15 L-4.45 -1.9 -3.75 -2.05 -3.2 -2.0 -2.9 -1.95 -2.95 -1.85 Q-3.1 -1.05 -15.0 -2.95 -17.65 -2.85 -17.35 -5.95" fill="#138e37" fill-rule="evenodd" stroke="none"/>
    <path d="M13.9 -4.95 L14.6 -4.9 14.6 -5.05 Q14.7 -5.75 15.95 -5.65 L16.15 -5.25 15.75 -4.85 15.3 -4.4 15.1 -4.05 14.85 -4.5 14.25 -4.9 14.2 -4.9 13.9 -4.95 M15.2 -3.35 L15.7 -2.85 16.75 -3.25 Q17.4 -3.1 17.3 -2.55 L17.25 -2.4 16.6 -2.55 Q15.9 -2.0 15.35 -2.1 L15.05 -2.2 15.8 -0.65 Q15.7 -0.2 15.3 -0.3 L14.45 -1.5 15.0 -2.2 15.1 -2.55 15.15 -2.65 15.2 -3.35 M13.6 -0.65 L14.25 -0.75 14.45 -0.5 13.8 -0.05 14.05 0.0 Q14.6 0.1 15.05 1.0 L15.7 1.1 15.7 1.3 Q15.6 1.8 14.95 1.7 L14.1 0.85 13.5 1.05 13.7 0.4 13.7 0.3 13.7 -0.1 13.6 -0.65 M13.15 1.65 L13.2 2.1 Q13.15 2.25 13.45 2.65 L13.65 3.25 13.35 3.5 Q12.15 3.0 12.3 2.35 L12.35 2.2 11.75 1.95 12.0 2.0 12.05 2.05 12.75 1.95 13.15 1.65 M18.2 -3.2 L18.4 -2.8 17.9 -2.45 17.85 -2.45 17.9 -2.55 17.85 -3.3 18.2 -3.2 M16.15 0.6 L16.75 0.0 16.95 -0.3 17.0 -0.4 17.15 -1.1 17.6 -0.5 18.7 -0.7 Q19.3 -0.4 19.15 0.1 L19.0 0.25 18.4 -0.05 17.1 0.15 16.85 0.05 Q17.25 0.55 17.35 1.65 17.15 2.1 16.8 1.95 L16.15 0.6" fill="#f7da99" fill-rule="evenodd" stroke="none"/>
    <path d="M-17.35 -5.95 L-17.3 -6.1 -17.0 -6.65 Q-18.2 -7.35 -18.1 -7.8 L-17.35 -8.9 Q-17.0 -7.3 -16.4 -7.3 L-7.05 -5.75 -3.55 -5.1 -3.05 -4.95 -3.45 -4.85 -4.35 -4.25 -4.35 -4.2 -4.4 -4.1 -4.75 -4.2 -5.1 -4.3 -6.6 -4.45 -9.8 -4.95 -13.75 -6.1 Q-14.75 -6.35 -14.9 -5.65 L-14.95 -5.4 -17.35 -5.95" fill="#11772f" fill-rule="evenodd" stroke="none"/>
  </g>
</svg>
