<?xml version="1.0" encoding="UTF-8" standalone="no"?>
<svg xmlns:xlink="http://www.w3.org/1999/xlink" height="30.15px" width="24.0px" xmlns="http://www.w3.org/2000/svg">
  <g transform="matrix(1.0, 0.0, 0.0, 1.0, 15.3, 28.9)">
    <path d="M8.6 -15.55 Q7.1 -9.1 7.1 -8.25 7.1 -7.65 7.65 -6.8 L7.65 -6.75 Q8.35 -5.55 8.35 -4.6 L8.25 -3.9 7.8 -2.7 7.7 -2.45 7.65 -2.4 7.2 -1.75 7.1 -1.7 6.35 -1.2 6.25 -1.2 5.9 -1.1 5.6 -1.05 5.5 -0.85 5.5 -0.8 5.45 -0.7 5.25 -0.5 5.2 -0.45 4.45 0.2 4.4 0.25 Q2.95 1.25 0.8 1.25 L0.75 1.25 0.7 1.25 -1.45 1.0 -1.4 1.0 -2.25 0.5 -3.15 0.95 -3.15 0.9 -3.4 0.95 -3.45 0.95 Q-7.05 0.95 -7.5 -0.5 L-8.6 -3.65 -12.9 -9.0 Q-15.7 -12.65 -15.25 -14.85 -14.8 -17.4 -13.2 -17.75 L-12.15 -18.0 -12.2 -18.6 Q-12.2 -20.2 -10.75 -22.15 -9.95 -23.35 -8.8 -24.0 L-8.9 -24.1 -9.1 -24.3 -9.15 -24.6 Q-9.15 -28.8 -7.05 -28.65 L-6.8 -28.6 -6.45 -28.45 Q-6.05 -28.9 -5.15 -28.9 -4.2 -29.1 -4.0 -27.25 L-3.85 -25.5 -3.75 -25.0 Q-2.85 -24.85 -2.35 -24.25 L0.3 -24.05 1.8 -24.2 2.25 -24.25 Q4.35 -23.85 5.05 -21.8 L5.1 -21.7 5.55 -19.7 5.75 -19.7 Q7.4 -19.75 8.1 -18.6 8.8 -17.6 8.65 -15.65 L8.6 -15.55 M7.65 -4.25 L7.7 -4.8 Q7.7 -5.6 7.1 -6.65 6.45 -7.7 6.5 -8.45 6.5 -9.35 8.0 -15.9 8.25 -19.3 5.75 -19.3 L5.15 -19.25 Q4.8 -19.75 4.45 -21.8 3.85 -23.5 2.15 -23.85 L0.35 -23.6 Q-2.15 -23.35 -2.8 -24.0 L-3.6 -24.5 -2.9 -22.9 -2.9 -22.85 -2.2 -21.05 -2.1 -20.8 -1.8 -19.7 -1.8 -19.65 -1.75 -19.65 -1.5 -18.65 -1.4 -18.5 -1.2 -18.0 -1.15 -18.0 -0.95 -17.75 -0.95 -17.7 -0.5 -17.25 0.0 -17.1 Q1.15 -18.65 3.15 -18.65 L3.25 -18.65 3.85 -18.25 3.85 -18.2 2.45 -17.85 2.4 -17.85 1.1 -17.45 Q0.6 -17.2 0.2 -16.1 0.25 -13.8 -0.6 -13.6 L-0.75 -13.6 -4.35 -14.15 -4.5 -14.15 Q-5.4 -14.1 -5.7 -13.3 L-6.3 -12.45 -6.7 -12.6 -8.2 -13.4 -8.6 -13.3 -8.95 -13.55 Q-8.95 -14.0 -8.15 -14.0 L-7.4 -13.85 -6.6 -13.45 -6.55 -13.5 -6.9 -13.85 -6.8 -14.1 Q-6.6 -13.95 -6.25 -13.95 -5.75 -13.95 -5.0 -14.65 -4.25 -15.4 -4.25 -15.8 L-4.5 -16.8 -4.45 -16.8 -5.15 -18.8 -5.65 -20.45 -6.4 -21.75 -6.9 -22.35 -7.2 -22.7 -7.5 -23.0 -8.4 -23.7 Q-9.5 -23.1 -10.25 -22.0 -11.55 -20.2 -11.55 -18.8 L-11.5 -17.65 -13.05 -17.35 Q-14.3 -17.0 -14.65 -14.95 -15.0 -12.95 -12.4 -9.55 L-8.05 -4.2 -6.95 -0.95 Q-6.5 0.15 -3.4 0.15 L-3.3 0.15 -2.1 -0.45 -2.05 -0.5 -2.05 -0.45 -2.0 -0.35 -1.95 -0.35 -1.2 0.2 0.7 0.45 0.75 0.45 Q2.7 0.4 4.05 -0.5 L4.8 -1.1 4.9 -1.3 4.95 -1.3 5.05 -1.55 5.1 -1.8 5.1 -1.85 5.1 -2.1 Q5.25 -1.9 5.6 -1.9 L5.8 -1.9 6.1 -2.0 6.15 -2.0 6.7 -2.35 7.15 -3.0 7.25 -3.15 7.65 -4.25 M-0.5 -16.2 L-0.4 -16.4 -0.55 -16.35 -0.5 -16.2 M-4.45 -25.3 L-4.6 -27.1 Q-4.7 -28.2 -5.1 -28.2 -5.9 -28.2 -6.15 -27.65 L-7.05 -27.95 Q-8.5 -27.95 -8.5 -24.5 -5.9 -22.65 -5.05 -20.6 -4.15 -17.45 -3.7 -16.8 L-4.1 -18.5 Q-3.8 -19.75 -3.35 -19.85 L-3.6 -20.7 -3.6 -20.95 -3.25 -21.05 -2.8 -20.85 -3.45 -22.5 Q-4.35 -24.4 -4.45 -25.3 M-2.3 -18.8 L-2.05 -18.35 -2.3 -19.3 -2.3 -18.8 M-3.8 -15.0 L-4.1 -14.85 -3.4 -14.8 -3.8 -15.0 M-2.55 -14.7 L-1.6 -14.5 -2.5 -14.9 -2.55 -14.7" fill="#000000" fill-rule="evenodd" stroke="none"/>
    <path d="M7.65 -4.25 L7.25 -3.15 7.15 -3.0 6.7 -2.35 6.15 -2.0 6.1 -2.0 5.8 -1.95 5.8 -1.9 5.6 -1.9 Q5.25 -1.9 5.1 -2.1 L5.1 -1.85 5.1 -1.8 5.05 -1.55 4.95 -1.35 4.95 -1.3 4.9 -1.3 4.8 -1.1 4.05 -0.5 Q2.7 0.4 0.75 0.45 L0.7 0.45 -1.2 0.2 -1.95 -0.35 -2.0 -0.35 -2.05 -0.45 -2.05 -0.5 -2.1 -0.45 -3.3 0.15 -3.35 -1.4 Q-3.35 -2.1 -4.5 -4.55 L-5.6 -7.15 -5.6 -7.05 Q-6.15 -7.65 -6.5 -8.85 -6.9 -10.2 -6.9 -11.35 L-6.6 -12.45 -6.7 -12.6 -6.3 -12.45 -5.7 -13.3 Q-5.4 -14.1 -4.5 -14.15 -5.45 -13.85 -5.95 -12.75 L-6.35 -9.75 Q-6.4 -8.85 -5.65 -8.0 L-4.95 -7.05 -4.95 -6.95 -3.45 -3.95 -2.4 -1.3 Q-1.6 -0.45 -0.2 -0.45 4.05 -0.45 4.15 -1.85 L3.95 -2.8 Q3.9 -3.15 4.15 -3.2 3.6 -5.0 3.0 -8.0 L4.1 -5.75 Q4.7 -3.2 6.4 -3.2 7.15 -3.2 7.65 -4.25 M-5.15 -18.8 L-4.45 -16.8 -4.5 -16.8 -4.25 -15.8 Q-4.25 -15.4 -5.0 -14.65 -5.75 -13.95 -6.25 -13.95 -6.6 -13.95 -6.8 -14.1 L-6.9 -13.85 -6.55 -13.5 -6.6 -13.45 -7.4 -13.85 -7.95 -14.9 -7.65 -15.75 -6.85 -16.9 Q-7.15 -17.25 -7.1 -17.55 -7.15 -18.35 -5.35 -18.75 L-5.15 -18.8 M-0.6 -13.6 Q0.25 -13.8 0.2 -16.1 0.6 -17.2 1.1 -17.45 L2.4 -17.85 2.4 -17.8 2.55 -17.85 2.45 -17.85 3.85 -18.2 3.85 -18.25 4.0 -18.1 Q0.4 -16.9 0.6 -14.9 L-0.35 -12.6 -0.45 -13.4 -0.6 -13.6 M3.25 -18.65 L3.15 -18.65 Q1.15 -18.65 0.0 -17.1 L-0.5 -17.25 -0.95 -17.7 -0.95 -17.75 -1.15 -18.0 -1.2 -18.0 -1.4 -18.5 Q-0.5 -19.15 0.2 -19.3 L2.35 -19.05 3.25 -18.65 M-1.8 -19.7 L-2.1 -20.8 -2.0 -20.95 Q-1.35 -21.65 -1.3 -22.1 L-1.3 -21.75 -1.8 -19.7 M-0.5 -16.2 L-0.55 -16.35 -0.4 -16.4 -0.5 -16.2 M-4.45 -25.3 Q-4.35 -24.4 -3.45 -22.5 L-2.8 -20.85 -3.25 -21.05 -3.6 -20.95 -3.6 -20.7 -3.35 -19.85 Q-3.8 -19.75 -4.1 -18.5 L-3.7 -16.8 Q-4.15 -17.45 -5.05 -20.6 -5.9 -22.65 -8.5 -24.5 -8.5 -27.95 -7.05 -27.95 L-6.15 -27.65 Q-5.9 -28.2 -5.1 -28.2 -4.7 -28.2 -4.6 -27.1 L-4.45 -25.3 M-2.3 -18.8 L-2.3 -19.3 -2.05 -18.35 -2.3 -18.8 M-2.55 -14.7 L-2.5 -14.9 -1.6 -14.5 -2.55 -14.7 M-3.8 -15.0 L-3.4 -14.8 -4.1 -14.85 -3.8 -15.0" fill="#244a13" fill-rule="evenodd" stroke="none"/>
    <path d="M-2.1 -20.8 L-2.2 -21.05 -2.9 -22.85 -2.9 -22.9 -3.6 -24.5 -2.8 -24.0 Q-2.15 -23.35 0.35 -23.6 L2.15 -23.85 Q3.85 -23.5 4.45 -21.8 4.8 -19.75 5.15 -19.25 L5.75 -19.3 Q8.25 -19.3 8.0 -15.9 6.5 -9.35 6.5 -8.45 6.45 -7.7 7.1 -6.65 7.7 -5.6 7.7 -4.8 L7.65 -4.25 Q7.15 -3.2 6.4 -3.2 4.7 -3.2 4.1 -5.75 L3.0 -8.0 Q3.6 -5.0 4.15 -3.2 3.9 -3.15 3.95 -2.8 L4.15 -1.85 Q4.05 -0.45 -0.2 -0.45 -1.6 -0.45 -2.4 -1.3 L-3.45 -3.95 -4.95 -6.95 -4.95 -7.05 -5.65 -8.0 Q-6.4 -8.85 -6.35 -9.75 L-5.95 -12.75 Q-5.45 -13.85 -4.5 -14.15 L-4.35 -14.15 -0.75 -13.6 -0.6 -13.6 -0.45 -13.4 -0.35 -12.6 0.6 -14.9 Q0.4 -16.9 4.0 -18.1 L3.85 -18.25 3.25 -18.65 2.35 -19.05 0.2 -19.3 Q-0.5 -19.15 -1.4 -18.5 L-1.5 -18.65 -1.75 -19.65 -1.8 -19.65 -1.8 -19.7 -1.3 -21.75 -1.3 -22.1 Q-1.35 -21.65 -2.0 -20.95 L-2.1 -20.8 M6.1 -2.0 L5.8 -1.9 5.8 -1.95 6.1 -2.0 M5.05 -1.55 L4.95 -1.3 4.95 -1.35 5.05 -1.55 M-3.3 0.15 L-3.4 0.15 Q-6.5 0.15 -6.95 -0.95 L-8.05 -4.2 -12.4 -9.55 Q-15.0 -12.95 -14.65 -14.95 -14.3 -17.0 -13.05 -17.35 L-11.5 -17.65 -11.55 -18.8 Q-11.55 -20.2 -10.25 -22.0 -9.5 -23.1 -8.4 -23.7 L-7.5 -23.0 -7.7 -22.85 Q-9.45 -21.7 -9.45 -20.75 -9.6 -20.05 -8.95 -20.05 L-6.65 -21.65 -6.4 -21.75 -5.65 -20.45 -5.15 -18.8 -5.35 -18.75 Q-7.15 -18.35 -7.1 -17.55 -7.15 -17.25 -6.85 -16.9 L-7.65 -15.75 -7.95 -14.9 -7.4 -13.85 -8.15 -14.0 Q-8.95 -14.0 -8.95 -13.55 L-8.6 -13.3 -8.2 -13.4 -6.7 -12.6 -6.6 -12.45 -6.9 -11.35 Q-6.9 -10.2 -6.5 -8.85 -6.15 -7.65 -5.6 -7.05 L-5.6 -7.15 -4.5 -4.55 Q-3.35 -2.1 -3.35 -1.4 L-3.3 0.15 M2.4 -17.85 L2.45 -17.85 2.55 -17.85 2.4 -17.8 2.4 -17.85 M1.45 -21.0 Q2.15 -21.0 2.7 -21.4 L3.15 -22.1 Q3.15 -22.75 2.6 -22.75 0.35 -22.75 0.35 -21.6 0.2 -21.0 1.45 -21.0 M2.2 -14.35 L2.3 -13.9 Q2.5 -13.5 3.1 -13.5 3.75 -13.5 5.0 -14.8 6.15 -16.0 6.15 -16.35 6.1 -17.35 5.25 -17.35 2.65 -17.35 2.2 -14.35 M-9.2 -13.1 Q-10.0 -13.4 -10.1 -14.4 -10.1 -16.4 -12.15 -16.4 -12.95 -16.4 -12.95 -14.75 -12.95 -12.45 -9.65 -12.15 L-9.15 -11.65 Q-8.5 -11.65 -8.5 -12.3 -8.5 -12.85 -9.2 -13.1 M-4.9 -11.85 Q-4.95 -11.2 -3.65 -11.2 -1.45 -11.25 -1.45 -12.2 -1.55 -13.2 -2.45 -13.2 -4.9 -13.2 -4.9 -11.85" fill="#346d1b" fill-rule="evenodd" stroke="none"/>
    <path d="M-7.5 -23.0 L-7.2 -22.7 -7.4 -22.3 -7.4 -22.1 -6.9 -22.35 -6.4 -21.75 -6.65 -21.65 -8.95 -20.05 Q-9.6 -20.05 -9.45 -20.75 -9.45 -21.7 -7.7 -22.85 L-7.5 -23.0 M1.7 -22.25 Q1.35 -22.25 1.35 -21.9 L1.85 -21.45 Q2.25 -21.45 2.25 -21.8 L1.7 -22.25 M1.45 -21.0 Q0.2 -21.0 0.35 -21.6 0.35 -22.75 2.6 -22.75 3.15 -22.75 3.15 -22.1 L2.7 -21.4 Q2.15 -21.0 1.45 -21.0 M2.2 -14.35 Q2.65 -17.35 5.25 -17.35 6.1 -17.35 6.15 -16.35 6.15 -16.0 5.0 -14.8 3.75 -13.5 3.1 -13.5 2.5 -13.5 2.3 -13.9 L2.2 -14.35 M4.35 -16.55 Q3.75 -16.55 3.3 -15.9 L2.9 -15.3 Q2.9 -14.8 3.4 -14.8 4.35 -14.8 4.85 -16.0 4.8 -16.55 4.35 -16.55 M-11.6 -15.85 L-12.0 -15.55 -12.25 -15.1 Q-11.95 -13.7 -11.1 -13.7 -10.65 -13.75 -10.6 -14.2 L-11.6 -15.85 M-9.2 -13.1 Q-8.5 -12.85 -8.5 -12.3 -8.5 -11.65 -9.15 -11.65 L-9.65 -12.15 Q-12.95 -12.45 -12.95 -14.75 -12.95 -16.4 -12.15 -16.4 -10.1 -16.4 -10.1 -14.4 -10.0 -13.4 -9.2 -13.1 M-4.9 -11.85 Q-4.9 -13.2 -2.45 -13.2 -1.55 -13.2 -1.45 -12.2 -1.45 -11.25 -3.65 -11.2 -4.95 -11.2 -4.9 -11.85" fill="#7bbd17" fill-rule="evenodd" stroke="none"/>
    <path d="M-7.2 -22.7 L-6.9 -22.35 -7.4 -22.1 -7.4 -22.3 -7.2 -22.7 M1.7 -22.25 L2.25 -21.8 Q2.25 -21.45 1.85 -21.45 L1.35 -21.9 Q1.35 -22.25 1.7 -22.25 M4.35 -16.55 Q4.8 -16.55 4.85 -16.0 4.35 -14.8 3.4 -14.8 2.9 -14.8 2.9 -15.3 L3.3 -15.9 Q3.75 -16.55 4.35 -16.55 M-11.6 -15.85 L-10.6 -14.2 Q-10.65 -13.75 -11.1 -13.7 -11.95 -13.7 -12.25 -15.1 L-12.0 -15.55 -11.6 -15.85" fill="#c4f44f" fill-rule="evenodd" stroke="none"/>
  </g>
</svg>
