<?xml version="1.0" encoding="UTF-8" standalone="no"?>
<svg xmlns:xlink="http://www.w3.org/1999/xlink" height="17.75px" width="43.6px" xmlns="http://www.w3.org/2000/svg">
  <g transform="matrix(1.0, 0.0, 0.0, 1.0, 20.65, 15.05)">
    <path d="M3.15 -10.4 L6.35 -7.9 7.5 -6.9 7.75 -6.15 6.5 -6.75 5.8 -7.25 Q5.1 -8.55 3.4 -9.6 L2.65 -10.1 3.15 -10.4 M2.35 -10.0 L2.45 -9.55 2.4 -9.2 1.95 -9.3 1.75 -9.25 1.75 -9.05 2.3 -8.65 Q1.9 -7.55 0.35 -7.45 L0.35 -7.6 Q1.4 -7.6 1.4 -8.5 1.35 -9.6 0.15 -9.6 -0.65 -9.65 -0.65 -8.6 L-0.55 -8.0 -1.0 -7.95 -1.75 -9.4 -1.5 -10.1 -0.95 -10.15 1.3 -9.9 2.35 -10.0 M-3.65 -9.95 L-3.8 -9.85 -3.7 -9.85 Q-4.7 -8.95 -5.4 -7.25 L-6.0 -6.55 -6.2 -6.3 -7.7 -6.8 -7.3 -7.9 Q-6.05 -8.4 -6.0 -8.75 L-6.05 -9.05 -6.35 -9.1 -6.8 -9.0 -6.35 -9.85 -5.85 -10.0 Q-1.2 -11.9 -0.75 -11.85 L-0.25 -11.8 -1.6 -11.05 Q-2.75 -10.8 -3.65 -9.95 M2.3 -6.45 L3.15 -6.5 Q3.35 -6.2 4.0 -6.2 4.3 -6.2 4.5 -6.35 L4.8 -6.25 4.7 -5.85 Q4.65 -5.45 5.25 -5.35 L5.25 -5.2 5.75 -5.05 5.75 -4.9 Q5.7 -2.8 3.9 -2.15 5.4 -2.5 6.0 -3.35 6.25 -3.8 6.3 -4.9 L8.15 -4.45 7.95 -3.3 Q6.15 -3.05 5.05 -2.35 L5.35 -2.2 5.6 -2.0 7.25 -2.45 7.6 -2.5 7.6 -2.45 5.05 -1.8 0.5 -1.25 Q-1.9 -1.25 -4.4 -2.45 L-6.95 -3.85 -7.7 -4.3 -7.4 -4.55 -7.95 -5.1 -7.9 -5.85 -6.6 -5.6 -6.85 -4.75 Q-6.9 -4.3 -6.35 -4.3 L-6.1 -4.5 Q-6.0 -3.4 -5.4 -3.0 -3.95 -1.95 1.1 -1.9 1.4 -1.5 2.05 -1.5 2.95 -1.5 3.6 -2.3 L4.15 -3.3 Q4.1 -4.8 2.75 -4.8 0.8 -4.8 0.8 -3.2 0.75 -2.45 1.05 -2.05 -0.25 -2.5 -0.25 -4.35 L0.0 -5.35 -0.05 -4.8 Q-0.15 -4.1 0.55 -4.1 1.05 -4.15 2.55 -5.95 L2.3 -6.45 M6.55 -5.75 L7.5 -5.15 6.3 -5.4 6.55 -5.75 M-5.45 -5.3 L-4.95 -5.85 -3.55 -6.75 Q-3.0 -6.95 -2.95 -7.35 -1.5 -7.25 -1.5 -5.8 -1.5 -3.9 -3.55 -3.9 -5.35 -3.95 -5.45 -5.3 M-3.65 -4.55 Q-2.8 -4.55 -2.75 -5.45 L-2.9 -5.9 Q-3.1 -6.3 -3.55 -6.3 -4.45 -6.3 -4.45 -5.45 -4.45 -4.55 -3.65 -4.55" fill="#008a06" fill-rule="evenodd" stroke="none"/>
    <path d="M2.65 -10.1 L3.4 -9.6 Q5.1 -8.55 5.8 -7.25 L2.4 -9.2 2.45 -9.55 2.35 -10.0 2.65 -10.1 M-1.5 -10.1 L-1.75 -9.4 -1.0 -7.95 Q-2.1 -7.85 -2.1 -7.2 -2.1 -6.85 -0.8 -6.85 0.35 -6.85 0.35 -7.45 1.9 -7.55 2.3 -8.65 L3.7 -7.65 Q3.0 -7.55 3.05 -6.9 L3.15 -6.5 2.3 -6.45 1.55 -6.6 Q0.35 -6.6 0.0 -5.35 L-0.25 -4.35 Q-0.25 -2.5 1.05 -2.05 0.75 -2.45 0.8 -3.2 0.8 -4.8 2.75 -4.8 4.1 -4.8 4.15 -3.3 L3.6 -2.3 Q2.95 -1.5 2.05 -1.5 1.4 -1.5 1.1 -1.9 -3.95 -1.95 -5.4 -3.0 -6.0 -3.4 -6.1 -4.5 L-5.45 -5.3 Q-5.35 -3.95 -3.55 -3.9 -1.5 -3.9 -1.5 -5.8 -1.5 -7.25 -2.95 -7.35 L-2.95 -7.4 Q-2.95 -8.1 -3.55 -8.1 -4.55 -8.1 -5.4 -7.25 -4.7 -8.95 -3.7 -9.85 L-3.1 -9.85 -3.25 -9.25 Q-3.3 -8.55 -2.6 -8.5 -1.9 -8.55 -1.9 -9.45 L-2.1 -10.0 -1.5 -10.1 M-0.55 -8.0 L-0.65 -8.6 Q-0.65 -9.65 0.15 -9.6 1.35 -9.6 1.4 -8.5 1.4 -7.6 0.35 -7.6 0.3 -8.0 -0.35 -8.0 L-0.55 -8.0 M-1.55 -10.5 L-3.65 -9.95 Q-2.75 -10.8 -1.6 -11.05 L-1.65 -10.85 -1.55 -10.5 M4.8 -6.25 L4.5 -6.35 4.7 -6.9 4.7 -7.0 5.35 -6.5 Q4.95 -6.45 4.8 -6.25 M6.3 -4.9 Q6.25 -3.8 6.0 -3.35 5.4 -2.5 3.9 -2.15 5.7 -2.8 5.75 -4.9 L5.75 -5.05 6.3 -4.9 M6.3 -5.4 L6.25 -5.4 6.3 -5.4 M-1.65 -2.8 Q-0.8 -2.8 -0.8 -3.7 -0.85 -4.2 -1.35 -4.2 -2.25 -4.2 -2.2 -3.35 -2.2 -2.8 -1.65 -2.8 M-3.65 -4.55 Q-4.45 -4.55 -4.45 -5.45 -4.45 -6.3 -3.55 -6.3 -3.1 -6.3 -2.9 -5.9 L-2.75 -5.45 Q-2.8 -4.55 -3.65 -4.55" fill="#024301" fill-rule="evenodd" stroke="none"/>
    <path d="M3.15 -10.4 L2.65 -10.1 2.35 -10.0 1.3 -9.9 -0.95 -10.15 0.7 -10.4 0.75 -10.55 0.55 -10.75 -1.55 -10.5 -1.65 -10.85 -1.6 -11.05 -0.25 -11.8 Q1.15 -11.65 3.15 -10.4 M-1.0 -7.95 L-0.55 -8.0 -0.35 -8.0 Q0.3 -8.0 0.35 -7.6 L0.35 -7.45 Q0.35 -6.85 -0.8 -6.85 -2.1 -6.85 -2.1 -7.2 -2.1 -7.85 -1.0 -7.95 M-3.1 -9.85 L-2.1 -10.0 -1.9 -9.45 Q-1.9 -8.55 -2.6 -8.5 -3.3 -8.55 -3.25 -9.25 L-3.1 -9.85 M0.0 -5.35 Q0.35 -6.6 1.55 -6.6 L2.3 -6.45 2.55 -5.95 Q1.05 -4.15 0.55 -4.1 -0.15 -4.1 -0.05 -4.8 L0.0 -5.35 M3.15 -6.5 L3.05 -6.9 Q3.0 -7.55 3.7 -7.65 L4.7 -7.0 4.7 -6.9 4.5 -6.35 Q4.3 -6.2 4.0 -6.2 3.35 -6.2 3.15 -6.5 M4.8 -6.25 Q4.95 -6.45 5.35 -6.5 L6.55 -5.75 6.3 -5.4 6.25 -5.4 6.05 -5.45 5.25 -5.35 Q4.65 -5.45 4.7 -5.85 L4.8 -6.25 M-6.1 -4.5 L-6.35 -4.3 Q-6.9 -4.3 -6.85 -4.75 L-6.6 -5.6 -6.55 -5.6 Q-6.0 -5.6 -6.0 -6.05 L-6.2 -6.3 -6.0 -6.55 -5.4 -7.25 Q-4.55 -8.1 -3.55 -8.1 -2.95 -8.1 -2.95 -7.4 L-2.95 -7.35 Q-3.0 -6.95 -3.55 -6.75 L-4.95 -5.85 -5.45 -5.3 -6.1 -4.5 M-1.65 -2.8 Q-2.2 -2.8 -2.2 -3.35 -2.25 -4.2 -1.35 -4.2 -0.85 -4.2 -0.8 -3.7 -0.8 -2.8 -1.65 -2.8" fill="#70fe70" fill-rule="evenodd" stroke="none"/>
    <path d="M10.05 -6.95 L12.75 -7.3 13.75 -7.4 21.8 -7.75 22.25 -7.4 Q19.2 -4.15 19.85 -0.25 20.0 0.55 19.75 1.4 L19.5 1.65 19.15 1.8 17.15 1.4 Q15.3 0.9 13.75 -0.15 L13.4 -0.35 10.6 -1.95 6.85 -0.95 5.0 -0.65 3.15 -0.55 0.45 -0.65 -2.85 -1.0 -5.15 -1.5 -7.3 -2.65 -7.95 -3.0 -9.3 -4.0 -10.0 -4.9 -10.35 -5.15 Q-10.35 -4.5 -13.15 -4.0 L-15.0 -3.2 Q-16.65 -2.5 -17.5 -2.45 -19.75 -2.45 -19.75 -3.15 -19.75 -3.85 -18.9 -5.4 L-18.3 -7.45 Q-18.3 -7.75 -18.65 -8.1 L-17.65 -11.6 -18.2 -12.5 Q-18.8 -13.1 -18.8 -13.55 -18.8 -14.25 -18.2 -14.25 L-16.45 -13.55 Q-13.85 -12.9 -10.95 -9.8 L-10.7 -9.4 -5.45 -11.6 Q-1.45 -13.1 -0.05 -12.85 L3.45 -11.65 Q5.55 -10.75 7.25 -9.05 L10.05 -6.95 M7.5 -6.9 L6.35 -7.9 3.15 -10.4 Q1.15 -11.65 -0.25 -11.8 L-0.75 -11.85 Q-1.2 -11.9 -5.85 -10.0 L-6.35 -9.85 -9.4 -8.65 -8.6 -8.85 -8.45 -8.7 -8.5 -8.4 -6.8 -9.0 -6.35 -9.1 -6.05 -9.05 -6.0 -8.75 Q-6.05 -8.4 -7.3 -7.9 L-7.7 -7.75 -7.65 -7.5 Q-7.65 -7.1 -8.15 -6.95 L-8.1 -6.9 -7.7 -6.8 -6.2 -6.3 -6.0 -6.05 Q-6.0 -5.6 -6.55 -5.6 L-6.6 -5.6 -7.9 -5.85 -9.05 -6.15 -9.1 -6.15 -7.95 -5.1 -7.4 -4.55 -7.7 -4.3 -6.95 -3.85 -4.4 -2.45 Q-1.9 -1.25 0.5 -1.25 L5.05 -1.8 7.6 -2.45 8.05 -2.6 7.6 -2.5 7.25 -2.45 5.4 -2.2 5.35 -2.2 5.05 -2.35 Q6.15 -3.05 7.95 -3.3 L8.55 -3.4 Q8.25 -3.6 8.25 -3.75 8.25 -4.2 8.7 -4.3 L8.15 -4.45 6.3 -4.9 5.75 -5.05 5.25 -5.2 5.25 -5.35 6.05 -5.45 6.25 -5.4 6.3 -5.4 7.5 -5.15 6.55 -5.75 5.35 -6.5 4.7 -7.0 3.7 -7.65 2.3 -8.65 1.75 -9.05 1.75 -9.25 1.95 -9.3 2.4 -9.2 5.8 -7.25 6.5 -6.75 7.75 -6.15 9.1 -5.55 7.5 -6.9 M-0.95 -10.15 L-1.5 -10.1 -2.1 -10.0 -3.1 -9.85 -3.7 -9.85 -3.8 -9.85 -3.65 -9.95 -1.55 -10.5 0.55 -10.75 0.75 -10.55 0.7 -10.4 -0.95 -10.15 M11.35 -6.15 Q11.45 -6.9 10.75 -6.85 10.15 -6.9 10.2 -6.4 L10.8 -5.45 Q11.2 -5.5 11.3 -5.85 L11.85 -5.25 16.65 -6.0 17.25 -6.0 17.3 -5.85 Q16.0 -4.85 12.65 -4.6 L13.75 -4.45 17.05 -3.6 18.65 -3.2 19.0 -4.35 Q19.25 -5.5 20.05 -6.45 16.85 -6.9 13.75 -6.55 L11.35 -6.15 M11.7 -3.7 L11.75 -3.65 11.75 -3.6 11.8 -3.4 Q13.7 -3.3 13.7 -2.75 L13.65 -2.6 Q13.65 -2.5 13.45 -2.5 L11.8 -2.9 11.8 -2.75 11.75 -2.65 13.75 -1.55 18.45 0.6 18.15 -1.9 16.7 -2.45 16.25 -2.45 15.85 -2.45 14.8 -2.2 13.9 -2.65 13.75 -3.3 Q11.95 -3.55 11.6 -3.95 L11.7 -3.7 M11.45 -3.3 L11.1 -3.55 10.45 -2.85 10.8 -2.45 Q11.45 -2.85 11.45 -3.3 M-13.65 -10.4 L-12.15 -9.55 -12.8 -10.4 Q-14.5 -12.1 -16.85 -12.5 L-16.6 -11.6 -17.25 -10.1 -17.35 -8.55 Q-16.1 -7.3 -14.2 -7.4 L-12.6 -7.4 -12.95 -7.9 -12.9 -8.1 -12.65 -8.2 -11.65 -7.45 -11.55 -7.55 -11.85 -8.0 -11.75 -8.35 -13.8 -10.15 -13.75 -10.4 -13.65 -10.4 M-11.0 -7.45 Q-11.05 -6.75 -10.5 -6.75 L-10.05 -6.85 -10.0 -7.2 -10.55 -7.9 -11.0 -7.45 M-10.75 -8.9 L-10.25 -8.35 -10.0 -8.5 -10.0 -8.8 Q-10.0 -9.25 -10.25 -9.25 L-10.65 -9.1 -10.75 -8.9 M-14.0 -6.75 L-17.5 -6.65 -18.4 -3.8 -18.35 -3.55 -17.9 -3.55 Q-17.25 -3.55 -14.5 -4.55 L-12.95 -5.1 -15.95 -4.65 -16.15 -4.85 Q-16.15 -5.25 -13.25 -5.85 L-12.4 -6.0 -12.6 -6.35 Q-13.25 -6.3 -14.0 -6.75 M-10.9 -5.2 Q-10.4 -5.2 -10.4 -5.65 L-10.7 -6.0 -11.25 -5.5 -10.9 -5.2" fill="#ffffff" fill-rule="evenodd" stroke="none"/>
    <path d="M7.75 -6.15 L7.5 -6.9 9.1 -5.55 7.75 -6.15 M-7.9 -5.85 L-7.95 -5.1 -9.1 -6.15 -9.05 -6.15 -7.9 -5.85 M7.6 -2.45 L7.6 -2.5 8.05 -2.6 7.6 -2.45 M7.25 -2.45 L5.6 -2.0 5.35 -2.2 5.4 -2.2 7.25 -2.45 M7.95 -3.3 L8.15 -4.45 8.7 -4.3 Q8.25 -4.2 8.25 -3.75 8.25 -3.6 8.55 -3.4 L7.95 -3.3 M11.35 -6.15 L13.75 -6.55 Q16.85 -6.9 20.05 -6.45 19.25 -5.5 19.0 -4.35 L18.65 -3.2 17.05 -3.6 13.75 -4.45 12.65 -4.6 Q16.0 -4.85 17.3 -5.85 L17.25 -6.0 16.65 -6.0 11.85 -5.25 11.3 -5.85 11.35 -6.15 M11.7 -3.7 L11.6 -3.95 Q11.95 -3.55 13.75 -3.3 L13.9 -2.65 14.8 -2.2 15.85 -2.45 16.25 -2.45 16.7 -2.45 18.15 -1.9 18.45 0.6 13.75 -1.55 11.75 -2.65 11.8 -2.75 11.8 -2.9 13.45 -2.5 Q13.65 -2.5 13.65 -2.6 L13.7 -2.75 Q13.7 -3.3 11.8 -3.4 L11.75 -3.6 11.75 -3.65 11.7 -3.7 M-13.65 -10.4 L-13.75 -10.4 -13.8 -10.15 -11.75 -8.35 -11.85 -8.0 -11.55 -7.55 -11.65 -7.45 -12.65 -8.2 -12.9 -8.1 -12.95 -7.9 -12.6 -7.4 -14.2 -7.4 Q-16.1 -7.3 -17.35 -8.55 L-17.25 -10.1 -16.6 -11.6 -16.85 -12.5 Q-14.5 -12.1 -12.8 -10.4 L-12.15 -9.55 -13.65 -10.4 M-14.0 -6.75 Q-13.25 -6.3 -12.6 -6.35 L-12.4 -6.0 -13.25 -5.85 Q-16.15 -5.25 -16.15 -4.85 L-15.95 -4.65 -12.95 -5.1 -14.5 -4.55 Q-17.25 -3.55 -17.9 -3.55 L-18.35 -3.55 -18.4 -3.8 -17.5 -6.65 -14.0 -6.75 M-6.35 -9.85 L-6.8 -9.0 -8.5 -8.4 -8.45 -8.7 -8.6 -8.85 -9.4 -8.65 -6.35 -9.85 M-7.3 -7.9 L-7.7 -6.8 -8.1 -6.9 -8.15 -6.95 Q-7.65 -7.1 -7.65 -7.5 L-7.7 -7.75 -7.3 -7.9" fill="#ffffff" fill-opacity="0.3019608" fill-rule="evenodd" stroke="none"/>
    <path d="M3.75 -12.4 Q5.9 -11.45 7.65 -9.7 L10.2 -7.8 12.6 -8.1 13.6 -8.2 21.7 -8.55 22.25 -8.35 22.65 -8.05 22.95 -7.65 22.95 -7.2 22.75 -6.8 Q20.0 -3.85 20.6 -0.35 L20.6 -0.3 20.45 1.7 20.25 2.05 19.85 2.35 19.8 2.45 19.45 2.6 18.8 2.65 16.95 2.25 16.85 2.25 Q14.9 1.7 13.2 0.6 L13.25 0.65 12.9 0.45 10.4 -0.95 6.9 -0.1 5.05 0.25 3.05 0.35 0.35 0.25 0.3 0.25 -3.05 -0.1 Q-4.95 -0.4 -5.55 -0.65 L-5.6 -0.7 -7.8 -1.9 -8.45 -2.25 Q-9.45 -2.65 -10.05 -3.4 L-10.45 -3.9 Q-11.3 -3.45 -12.95 -3.15 L-14.75 -2.35 Q-16.6 -1.55 -17.55 -1.6 -20.9 -1.6 -20.65 -3.1 -20.7 -3.9 -19.8 -5.65 L-19.75 -5.7 -19.25 -7.4 -19.35 -7.4 -19.5 -7.7 -19.6 -8.05 -18.6 -11.6 -18.9 -11.85 -18.9 -11.9 Q-19.8 -12.8 -19.75 -13.5 -19.75 -15.1 -18.3 -15.05 L-17.95 -14.95 -16.3 -14.3 Q-13.65 -13.7 -10.75 -10.65 L-10.55 -10.4 -10.5 -10.45 -5.8 -12.35 Q-1.55 -13.95 0.0 -13.6 L3.75 -12.4 M10.05 -6.95 L7.25 -9.05 Q5.55 -10.75 3.45 -11.65 L-0.05 -12.85 Q-1.45 -13.1 -5.45 -11.6 L-10.7 -9.4 -10.95 -9.8 Q-13.85 -12.9 -16.45 -13.55 L-18.2 -14.25 Q-18.8 -14.25 -18.8 -13.55 -18.8 -13.1 -18.2 -12.5 L-17.65 -11.6 -18.65 -8.1 Q-18.3 -7.75 -18.3 -7.45 L-18.9 -5.4 Q-19.75 -3.85 -19.75 -3.15 -19.75 -2.45 -17.5 -2.45 -16.65 -2.5 -15.0 -3.2 L-13.15 -4.0 Q-10.35 -4.5 -10.35 -5.15 L-10.0 -4.9 -9.3 -4.0 -7.95 -3.0 -7.3 -2.65 -5.15 -1.5 -2.85 -1.0 0.45 -0.65 3.15 -0.55 5.0 -0.65 6.85 -0.95 10.6 -1.95 13.4 -0.35 13.75 -0.15 Q15.3 0.9 17.15 1.4 L19.15 1.8 19.5 1.65 19.75 1.4 Q20.0 0.55 19.85 -0.25 19.2 -4.15 22.25 -7.4 L21.8 -7.75 13.75 -7.4 12.75 -7.3 10.05 -6.95 M11.3 -5.85 Q11.2 -5.5 10.8 -5.45 L10.2 -6.4 Q10.15 -6.9 10.75 -6.85 11.45 -6.9 11.35 -6.15 L11.3 -5.85 M11.45 -3.3 Q11.45 -2.85 10.8 -2.45 L10.45 -2.85 11.1 -3.55 11.45 -3.3 M-10.75 -8.9 L-10.65 -9.1 -10.25 -9.25 Q-10.0 -9.25 -10.0 -8.8 L-10.0 -8.5 -10.25 -8.35 -10.75 -8.9 M-11.0 -7.45 L-10.55 -7.9 -10.0 -7.2 -10.05 -6.85 -10.5 -6.75 Q-11.05 -6.75 -11.0 -7.45 M-10.9 -5.2 L-11.25 -5.5 -10.7 -6.0 -10.4 -5.65 Q-10.4 -5.2 -10.9 -5.2" fill="#000000" fill-rule="evenodd" stroke="none"/>
  </g>
</svg>
