<?xml version="1.0" encoding="UTF-8" standalone="no"?>
<svg xmlns:xlink="http://www.w3.org/1999/xlink" height="22.5px" width="27.9px" xmlns="http://www.w3.org/2000/svg">
  <g transform="matrix(1.0, 0.0, 0.0, 1.0, 13.95, 20.2)">
    <path d="M12.55 -14.8 L12.6 -14.75 12.6 -14.85 13.25 -14.15 Q13.9 -13.25 13.95 -12.25 L13.95 -12.2 13.95 -12.1 13.95 -3.65 Q14.05 -1.05 9.6 0.75 5.6 2.3 0.0 2.3 -5.6 2.3 -9.5 0.75 -14.1 -1.05 -13.95 -3.65 L-13.9 -11.65 -13.95 -12.1 Q-13.95 -13.2 -13.25 -14.15 L-12.6 -14.8 -12.5 -14.85 -12.4 -14.9 Q-12.4 -17.2 -8.45 -18.8 -4.95 -20.2 0.05 -20.2 5.05 -20.2 8.6 -18.8 12.35 -17.3 12.55 -15.05 L12.55 -14.9 12.55 -14.8" fill="#000000" fill-rule="evenodd" stroke="none"/>
    <path d="M-10.4 -14.0 L-10.5 -14.35 -10.55 -14.8 -10.55 -15.0 Q-10.4 -16.6 -7.5 -17.7 -4.45 -18.95 -0.05 -18.95 4.35 -18.95 7.45 -17.7 10.45 -16.5 10.45 -14.8 L10.3 -13.95 9.3 -15.15 Q9.15 -15.25 9.05 -15.3 L7.45 -16.1 6.7 -16.4 Q6.25 -16.8 5.7 -16.8 L5.5 -16.75 -0.05 -17.35 Q-4.45 -17.35 -7.5 -16.1 -9.8 -15.2 -10.4 -14.0" fill="#f1eae2" fill-rule="evenodd" stroke="none"/>
    <path d="M11.55 -14.5 L12.45 -13.65 Q12.95 -13.05 12.95 -12.3 L12.95 -12.2 12.95 -12.15 Q12.9 -10.15 9.2 -8.65 L7.25 -8.0 0.0 -7.2 Q-4.05 -7.2 -7.15 -8.0 L-9.15 -8.65 Q-12.6 -10.05 -12.9 -11.85 L-12.95 -12.2 Q-12.95 -13.0 -12.45 -13.65 L-12.0 -14.1 -11.45 -14.4 -11.5 -14.1 -11.5 -12.05 Q-11.4 -10.3 -8.15 -9.0 L-5.7 -8.3 -0.05 -7.7 6.1 -8.35 8.1 -9.0 Q11.45 -10.35 11.45 -12.2 L11.45 -12.3 11.55 -14.5 M-11.4 -14.8 L-11.4 -14.85 Q-11.35 -16.65 -8.05 -17.95 -4.7 -19.3 0.05 -19.3 4.85 -19.3 8.2 -17.95 11.45 -16.65 11.55 -14.8 L11.5 -14.55 11.1 -13.5 11.05 -13.45 10.45 -12.8 10.4 -12.8 Q9.55 -12.15 8.2 -11.6 4.85 -10.25 0.05 -10.25 -4.7 -10.25 -8.05 -11.6 -9.65 -12.2 -10.45 -12.95 L-10.55 -13.05 -10.95 -13.5 -11.0 -13.55 -11.3 -14.25 -11.35 -14.3 -11.4 -14.45 -11.4 -14.8 M10.3 -13.95 L10.45 -14.8 Q10.45 -16.5 7.45 -17.7 4.35 -18.95 -0.05 -18.95 -4.45 -18.95 -7.5 -17.7 -10.4 -16.6 -10.55 -15.0 L-10.55 -14.8 -10.5 -14.35 -10.4 -14.0 -10.2 -13.65 -10.15 -13.6 -10.1 -13.55 -9.25 -12.75 Q-8.6 -12.3 -7.6 -11.9 L-7.5 -11.85 -6.4 -11.5 -6.0 -11.35 -3.4 -10.85 -0.05 -10.65 Q4.35 -10.65 7.45 -11.85 L7.55 -11.9 7.7 -11.95 9.05 -12.7 10.0 -13.55 10.05 -13.6 10.3 -13.95 M6.95 -0.9 Q0.0 0.9 -6.85 -0.9 L-6.85 -5.9 Q-0.15 -4.4 6.95 -5.9 L6.95 -0.9" fill="#ffffff" fill-rule="evenodd" stroke="none"/>
    <path d="M9.05 -12.7 L7.7 -11.95 7.55 -11.9 7.45 -11.85 Q4.35 -10.65 -0.05 -10.65 L-3.4 -10.85 Q-0.25 -12.05 5.65 -13.5 L6.7 -13.5 Q8.35 -13.85 9.35 -12.95 L9.05 -12.7 M-6.0 -11.35 L-6.4 -11.5 -7.5 -11.85 -7.6 -11.9 Q-8.6 -12.3 -9.25 -12.75 -8.95 -13.25 -7.95 -13.65 -7.8 -13.25 -7.5 -13.25 -6.9 -13.25 -3.9 -14.5 L-3.1 -14.8 -1.85 -15.0 -0.05 -14.75 -1.2 -13.7 Q-1.2 -13.35 -0.85 -13.35 L1.5 -14.4 3.65 -14.85 Q4.4 -14.9 4.4 -15.2 4.4 -15.55 3.65 -15.6 L5.9 -16.1 Q6.65 -16.1 6.7 -15.55 6.7 -14.55 3.15 -13.65 L-0.85 -12.95 -1.05 -13.0 -2.35 -12.45 Q-4.4 -11.6 -6.0 -11.35 M4.3 -13.05 Q2.1 -12.25 2.1 -11.95 2.1 -11.55 2.5 -11.55 L6.35 -12.85 6.65 -12.9 6.05 -13.45 4.3 -13.05" fill="#ffcc00" fill-rule="evenodd" stroke="none"/>
    <path d="M-0.05 -14.75 L0.05 -14.8 Q1.55 -15.65 3.2 -15.65 L3.65 -15.6 Q4.4 -15.55 4.4 -15.2 4.4 -14.9 3.65 -14.85 L1.5 -14.4 -0.85 -13.35 Q-1.2 -13.35 -1.2 -13.7 L-0.05 -14.75 M4.3 -13.05 L6.05 -13.45 6.65 -12.9 6.35 -12.85 2.5 -11.55 Q2.1 -11.55 2.1 -11.95 2.1 -12.25 4.3 -13.05 M-3.1 -14.8 L-3.9 -14.5 Q-6.9 -13.25 -7.5 -13.25 -7.8 -13.25 -7.95 -13.65 L-7.8 -13.75 -1.3 -16.35 Q-0.9 -16.35 -0.9 -15.95 -0.9 -15.75 -3.1 -14.8" fill="#ffff00" fill-rule="evenodd" stroke="none"/>
    <path d="M10.0 -13.55 L9.05 -12.7 9.35 -12.95 Q8.35 -13.85 6.7 -13.5 L5.65 -13.5 Q-0.25 -12.05 -3.4 -10.85 L-6.0 -11.35 Q-4.4 -11.6 -2.35 -12.45 L-1.05 -13.0 -0.85 -12.95 3.15 -13.65 Q6.7 -14.55 6.7 -15.55 6.65 -16.1 5.9 -16.1 L3.65 -15.6 3.2 -15.65 Q1.55 -15.65 0.05 -14.8 L-0.05 -14.75 -1.85 -15.0 -3.1 -14.8 Q-0.9 -15.75 -0.9 -15.95 -0.9 -16.35 -1.3 -16.35 L-7.8 -13.75 -7.95 -13.65 Q-8.95 -13.25 -9.25 -12.75 L-10.1 -13.55 -8.85 -14.55 Q-8.7 -15.45 -5.95 -16.3 -3.2 -17.15 -1.0 -17.15 -0.1 -17.15 0.7 -16.65 L1.15 -16.4 3.15 -16.25 5.5 -16.75 5.7 -16.8 Q6.25 -16.8 6.7 -16.4 L6.9 -16.15 Q7.35 -15.5 8.2 -15.5 L9.05 -15.3 Q9.15 -15.25 9.3 -15.15 9.65 -14.8 9.65 -14.1 L9.65 -13.9 10.0 -13.55" fill="#fd9802" fill-rule="evenodd" stroke="none"/>
    <path d="M11.55 -14.8 L11.6 -14.8 11.55 -14.5 11.45 -12.3 11.45 -12.2 Q11.45 -10.35 8.1 -9.0 L6.1 -8.35 -0.05 -7.7 -5.7 -8.3 -8.15 -9.0 Q-11.4 -10.3 -11.5 -12.05 L-11.5 -14.1 -11.45 -14.4 -11.4 -14.8 -11.4 -14.45 -11.35 -14.3 -11.3 -14.25 -11.0 -13.55 -10.95 -13.5 -10.55 -13.05 -10.45 -12.95 Q-9.65 -12.2 -8.05 -11.6 -4.7 -10.25 0.05 -10.25 4.85 -10.25 8.2 -11.6 9.55 -12.15 10.4 -12.8 L10.45 -12.8 11.05 -13.45 11.1 -13.5 11.5 -14.55 11.55 -14.8 M12.95 -12.15 L12.95 -3.75 Q12.9 -1.75 9.2 -0.3 5.4 1.2 0.0 1.2 -5.4 1.2 -9.15 -0.3 -12.9 -1.75 -12.95 -3.8 L-12.9 -11.85 Q-12.6 -10.05 -9.15 -8.65 L-7.15 -8.0 Q-4.05 -7.2 0.0 -7.2 L7.25 -8.0 9.2 -8.65 Q12.9 -10.15 12.95 -12.15 M6.95 -0.9 L6.95 -5.9 Q-0.15 -4.4 -6.85 -5.9 L-6.85 -0.9 Q0.0 0.9 6.95 -0.9" fill="#e7d9cb" fill-rule="evenodd" stroke="none"/>
    <path d="M10.3 -13.95 L10.05 -13.6 10.0 -13.55 9.65 -13.9 9.65 -14.1 Q9.65 -14.8 9.3 -15.15 L10.3 -13.95 M-10.1 -13.55 L-10.15 -13.6 -10.2 -13.65 -10.4 -14.0 Q-9.8 -15.2 -7.5 -16.1 -4.45 -17.35 -0.05 -17.35 L5.5 -16.75 3.15 -16.25 1.15 -16.4 0.7 -16.65 Q-0.1 -17.15 -1.0 -17.15 -3.2 -17.15 -5.95 -16.3 -8.7 -15.45 -8.85 -14.55 L-10.1 -13.55 M6.7 -16.4 L7.45 -16.1 9.05 -15.3 8.2 -15.5 Q7.35 -15.5 6.9 -16.15 L6.7 -16.4" fill="#d9c2ae" fill-rule="evenodd" stroke="none"/>
    <path d="M6.95 -0.9 Q0.0 0.9 -6.85 -0.9 L-6.85 -5.9 Q-0.15 -4.4 6.95 -5.9 L6.95 -0.9 Z" fill="none" stroke="#bcd0fe" stroke-linecap="round" stroke-linejoin="round" stroke-width="1.0"/>
  </g>
</svg>
