<?xml version="1.0" encoding="UTF-8" standalone="no"?>
<svg xmlns:xlink="http://www.w3.org/1999/xlink" height="24.3px" width="24.3px" xmlns="http://www.w3.org/2000/svg">
  <g transform="matrix(1.0, 0.0, 0.0, 1.0, 12.0, 24.3)">
    <path d="M11.35 -21.55 L9.7 -21.0 0.1 -18.65 -9.95 -22.65 -5.95 -12.15 -8.4 -2.75 -9.0 -1.05 -12.0 0.0 -7.6 -12.15 -12.0 -24.3 0.1 -19.95 12.3 -24.3 11.35 -21.55" fill="#ffffff" fill-rule="evenodd" stroke="none"/>
    <path d="M9.7 -21.0 L11.35 -21.55 7.95 -12.15 12.3 0.0 0.1 -4.4 -9.0 -1.05 -8.4 -2.75 0.15 -5.5 10.65 -1.7 6.75 -12.2 9.7 -21.0" fill="#666666" fill-rule="evenodd" stroke="none"/>
    <path d="M-8.4 -2.75 L-5.95 -12.15 -9.95 -22.65 0.1 -18.65 9.7 -21.0 6.75 -12.2 10.65 -1.7 0.15 -5.5 -8.4 -2.75 M2.8 -13.75 L2.2 -14.55 Q1.1 -15.6 -0.4 -15.6 -1.9 -15.6 -2.95 -14.55 -4.0 -13.45 -4.0 -11.95 -4.0 -10.45 -2.95 -9.4 -2.35 -8.8 -1.55 -8.5 L-0.4 -8.3 Q1.1 -8.3 2.2 -9.4 3.3 -10.45 3.3 -11.95 3.25 -13.0 2.8 -13.75" fill="#999999" fill-rule="evenodd" stroke="none"/>
    <path d="M2.8 -13.75 Q3.25 -13.0 3.3 -11.95 3.3 -10.45 2.2 -9.4 1.1 -8.3 -0.4 -8.3 L-1.55 -8.5 Q-2.35 -8.8 -2.95 -9.4 -4.0 -10.45 -4.0 -11.95 -4.0 -13.45 -2.95 -14.55 -1.9 -15.6 -0.4 -15.6 1.1 -15.6 2.2 -14.55 L2.8 -13.75 Z" fill="none" stroke="#666666" stroke-linecap="round" stroke-linejoin="round" stroke-width="0.5"/>
  </g>
</svg>
