<?xml version="1.0" encoding="UTF-8" standalone="no"?>
<svg xmlns:xlink="http://www.w3.org/1999/xlink" height="40.1px" width="32.45px" xmlns="http://www.w3.org/2000/svg">
  <g transform="matrix(1.0, 0.0, 0.0, 1.0, 16.8, 38.9)">
    <path d="M15.55 -37.75 L15.5 -36.6 15.45 -36.5 15.15 -34.6 15.15 -34.65 14.3 -25.2 Q13.9 -20.4 14.05 -15.65 14.25 -10.9 14.75 -6.1 L15.2 -2.65 15.25 -2.65 15.4 -1.6 15.65 0.0 15.6 0.6 15.25 1.0 14.7 1.2 -8.1 1.2 -9.05 1.2 -9.6 1.05 -9.8 0.85 -16.1 0.85 -16.6 0.6 -16.8 0.0 -16.8 -37.7 -16.6 -38.3 -16.1 -38.55 -9.6 -38.7 -9.45 -38.8 -8.85 -38.85 -7.45 -38.5 Q-1.95 -37.5 3.45 -37.45 L3.5 -37.45 Q9.0 -37.35 14.3 -38.8 L14.9 -38.75 15.4 -38.4 15.55 -37.75" fill="#000000" fill-rule="evenodd" stroke="none"/>
    <path d="M-8.55 -37.85 L-3.45 0.05 -16.15 0.05 -16.15 -37.65 -8.55 -37.85" fill="#676767" fill-rule="evenodd" stroke="none"/>
    <path d="M14.1 -34.7 L10.1 -29.3 Q11.4 -25.4 11.9 -21.3 12.5 -16.6 12.0 -11.75 11.7 -9.4 11.0 -7.35 L14.2 -2.45 14.35 -1.35 9.65 -6.7 8.5 -6.2 Q4.6 -4.5 0.55 -5.05 L-1.75 -5.55 -6.5 0.25 -8.15 0.25 Q-5.6 -2.25 -4.45 -5.9 L-4.15 -6.9 Q-6.45 -14.25 -4.75 -21.75 -4.0 -25.25 -2.65 -28.5 L-8.05 -34.2 Q-6.9 -28.3 -6.6 -22.1 -6.45 -19.45 -6.45 -16.65 -6.5 -12.5 -6.95 -8.3 -7.35 -4.55 -8.65 -1.15 L-9.05 -0.05 Q-7.65 -8.9 -7.55 -17.9 L-7.55 -18.0 -7.6 -21.45 -7.6 -21.55 Q-7.75 -27.45 -8.5 -33.4 L-8.65 -34.6 -8.9 -36.7 -8.05 -35.65 Q-5.55 -32.75 -2.15 -31.35 2.9 -29.25 8.25 -29.45 L10.1 -31.1 Q12.85 -33.55 14.45 -36.65 L14.1 -34.7 M13.65 0.25 L13.6 0.25 13.6 0.2 13.65 0.25" fill="#666666" fill-rule="evenodd" stroke="none"/>
    <path d="M-8.15 0.25 L-9.1 0.25 -9.05 -0.05 -8.65 -1.15 Q-7.35 -4.55 -6.95 -8.3 -6.5 -12.5 -6.45 -16.65 -6.45 -19.45 -6.6 -22.1 -6.9 -28.3 -8.05 -34.2 L-2.65 -28.5 Q-4.0 -25.25 -4.75 -21.75 -6.45 -14.25 -4.15 -6.9 L-4.45 -5.9 Q-5.6 -2.25 -8.15 0.25 M-8.9 -36.7 L-9.1 -37.85 -7.7 -37.5 3.4 -36.4 Q9.1 -36.3 14.5 -37.8 L14.45 -36.65 Q12.85 -33.55 10.1 -31.1 L8.25 -29.45 Q2.9 -29.25 -2.15 -31.35 -5.55 -32.75 -8.05 -35.65 L-8.9 -36.7" fill="#333333" fill-rule="evenodd" stroke="none"/>
    <path d="M14.1 -34.7 L13.25 -25.2 Q12.85 -20.4 13.0 -15.55 13.2 -10.75 13.7 -5.95 L14.2 -2.45 11.0 -7.35 Q11.7 -9.4 12.0 -11.75 12.5 -16.6 11.9 -21.3 11.4 -25.4 10.1 -29.3 L14.1 -34.7" fill="#575757" fill-rule="evenodd" stroke="none"/>
    <path d="M14.35 -1.35 L14.65 0.25 13.65 0.25 13.6 0.2 13.6 0.25 -6.5 0.25 -1.75 -5.55 0.55 -5.05 Q4.6 -4.5 8.5 -6.2 L9.65 -6.7 14.35 -1.35" fill="#8a8a8a" fill-rule="evenodd" stroke="none"/>
    <path d="M6.75 -26.2 L7.65 -26.3 6.4 -26.85 5.5 -27.0 Q4.35 -27.55 3.1 -27.55 1.3 -27.55 -0.15 -26.55 L-2.3 -25.5 -1.0 -25.85 -2.1 -24.6 -3.5 -23.85 -2.5 -24.0 Q-4.3 -21.2 -4.3 -17.3 -4.3 -14.9 -3.6 -12.9 L-4.15 -12.55 -3.45 -12.5 -2.15 -10.1 Q0.0 -7.15 3.1 -7.1 6.15 -7.15 8.3 -10.1 10.45 -13.1 10.5 -17.3 10.45 -21.55 8.3 -24.55 L7.5 -25.5 8.05 -25.6 7.35 -25.7 6.75 -26.2 M4.8 -14.35 L5.0 -16.55 6.55 -16.65 5.95 -15.2 Q5.45 -14.5 4.8 -14.35 M9.25 -25.95 Q11.85 -22.45 11.85 -17.45 11.85 -12.45 9.25 -8.9 6.7 -5.35 3.1 -5.35 -0.55 -5.35 -3.1 -8.9 -5.65 -12.45 -5.65 -17.45 -5.65 -22.45 -3.1 -25.95 -0.55 -29.5 3.1 -29.5 6.7 -29.5 9.25 -25.95 M5.45 -20.15 L5.95 -19.65 Q6.6 -18.75 6.65 -17.45 L6.65 -17.2 5.05 -17.25 5.45 -20.15 M3.15 -20.1 L4.6 -20.15 4.6 -17.3 2.1 -17.25 2.1 -17.45 Q2.1 -18.75 2.75 -19.65 L3.15 -20.1 M2.2 -16.5 L4.55 -16.5 4.3 -14.3 Q3.4 -14.35 2.75 -15.2 2.35 -15.8 2.2 -16.5" fill="#000000" fill-rule="evenodd" stroke="none"/>
    <path d="M7.35 -25.7 L0.8 -25.25 0.5 -26.15 6.75 -26.2 7.35 -25.7 M5.5 -27.0 L-0.15 -26.55 Q1.3 -27.55 3.1 -27.55 4.35 -27.55 5.5 -27.0 M-1.0 -25.85 L0.35 -26.15 0.55 -25.2 -2.1 -24.6 -1.0 -25.85 M-2.5 -24.0 L0.7 -24.6 -0.8 -23.1 -1.0 -22.75 -1.15 -23.5 -1.2 -22.9 Q-1.9 -22.4 -2.65 -21.95 L-1.45 -22.0 -2.15 -20.2 -3.5 -19.55 -2.3 -19.6 -2.45 -17.4 -2.45 -16.55 -3.2 -16.0 -2.4 -16.3 -2.15 -14.6 -2.4 -13.25 -3.6 -12.9 Q-4.3 -14.9 -4.3 -17.3 -4.3 -21.2 -2.5 -24.0 M-3.45 -12.5 L-1.45 -12.8 -0.8 -11.75 -0.4 -11.2 -1.45 -10.9 -0.05 -10.9 Q1.35 -9.45 3.15 -9.35 L3.05 -8.65 3.3 -9.35 3.35 -9.35 Q5.0 -9.4 6.35 -10.5 L6.1 -10.05 6.85 -10.95 7.45 -11.75 8.35 -13.2 8.35 -13.25 Q9.15 -15.1 9.2 -17.4 L8.8 -20.3 9.25 -20.25 8.8 -20.35 Q8.4 -21.7 7.6 -22.85 L8.85 -22.85 7.4 -23.15 Q6.3 -24.7 4.9 -25.2 L7.5 -25.5 8.3 -24.55 Q10.45 -21.55 10.5 -17.3 10.45 -13.1 8.3 -10.1 6.15 -7.15 3.1 -7.1 0.0 -7.15 -2.15 -10.1 L-3.45 -12.5 M-1.7 -13.35 L-2.2 -13.25 -1.95 -14.05 -1.7 -13.35" fill="#999999" fill-rule="evenodd" stroke="none"/>
    <path d="M0.7 -24.6 L0.8 -23.15 -1.0 -22.75 -0.8 -23.1 0.7 -24.6 M-1.45 -22.0 L-1.35 -20.45 -2.15 -20.2 -1.45 -22.0 M-2.3 -19.6 L-1.55 -19.65 -1.7 -16.75 -2.45 -16.55 -2.45 -17.4 -2.3 -19.6 M-2.4 -16.3 L-1.75 -16.4 -2.15 -14.6 -2.4 -16.3 M-1.45 -12.8 L-0.05 -12.95 -0.35 -11.5 0.2 -12.95 4.1 -13.2 3.9 -11.6 -0.4 -11.2 -0.8 -11.75 -1.45 -12.8 M-0.05 -10.9 L3.65 -10.85 3.15 -9.35 Q1.35 -9.45 -0.05 -10.9 M3.3 -9.35 L3.85 -10.85 6.55 -10.9 6.35 -10.5 Q5.0 -9.4 3.35 -9.35 L3.3 -9.35 M6.85 -10.95 L8.35 -13.2 7.45 -11.75 6.85 -10.95 M8.35 -13.25 L7.85 -14.65 6.85 -11.15 4.1 -11.55 4.65 -13.2 6.85 -13.4 6.3 -13.65 4.7 -13.75 4.8 -14.35 Q5.45 -14.5 5.95 -15.2 L6.55 -16.65 8.0 -16.75 8.0 -15.35 8.5 -16.75 8.95 -16.7 8.5 -16.8 8.15 -20.35 8.8 -20.3 9.2 -17.4 Q9.15 -15.1 8.35 -13.25 M8.8 -20.35 L8.15 -20.45 7.6 -22.85 Q8.4 -21.7 8.8 -20.35 M7.4 -23.15 L4.7 -23.5 4.35 -25.1 4.55 -23.5 1.2 -23.25 0.9 -24.7 4.9 -25.2 Q6.3 -24.7 7.4 -23.15 M6.65 -17.2 L6.65 -17.45 Q6.6 -18.75 5.95 -19.65 L5.45 -20.15 7.7 -20.3 8.0 -16.9 6.65 -17.2 M5.1 -20.8 L4.85 -22.45 7.35 -22.9 7.65 -20.7 5.1 -20.8 M2.1 -17.25 L1.3 -17.2 1.45 -20.0 3.15 -20.1 2.75 -19.65 Q2.1 -18.75 2.1 -17.45 L2.1 -17.25 M0.95 -20.65 L-1.0 -20.5 -1.0 -22.15 0.85 -22.45 0.95 -20.65 M4.6 -20.8 L1.45 -20.65 1.3 -22.5 4.6 -22.3 4.6 -20.8 M4.3 -14.3 L4.1 -13.6 2.25 -13.1 0.4 -13.65 1.2 -16.45 2.2 -16.5 Q2.35 -15.8 2.75 -15.2 3.4 -14.35 4.3 -14.3 M-1.95 -14.05 L-1.35 -16.45 0.8 -16.45 0.15 -13.6 -1.7 -13.35 -1.95 -14.05 M0.9 -17.2 L-1.3 -16.9 -1.0 -19.75 1.0 -19.95 0.9 -17.2" fill="#666666" fill-rule="evenodd" stroke="none"/>
    <path d="M6.75 -26.2 L0.5 -26.15 0.8 -25.25 7.35 -25.7 8.05 -25.6 7.5 -25.5 4.9 -25.2 0.9 -24.7 1.2 -23.25 4.55 -23.5 4.35 -25.1 4.7 -23.5 7.4 -23.15 8.85 -22.85 7.6 -22.85 8.15 -20.45 8.8 -20.35 9.25 -20.25 8.8 -20.3 8.15 -20.35 8.5 -16.8 8.95 -16.7 8.5 -16.75 8.0 -15.35 8.0 -16.75 6.55 -16.65 5.0 -16.55 4.8 -14.35 4.7 -13.75 6.3 -13.65 6.85 -13.4 4.65 -13.2 4.1 -11.55 6.85 -11.15 7.85 -14.65 8.35 -13.25 8.35 -13.2 6.85 -10.95 6.1 -10.05 6.35 -10.5 6.55 -10.9 3.85 -10.85 3.3 -9.35 3.05 -8.65 3.15 -9.35 3.65 -10.85 -0.05 -10.9 -1.45 -10.9 -0.4 -11.2 3.9 -11.6 4.1 -13.2 0.2 -12.95 -0.35 -11.5 -0.05 -12.95 -1.45 -12.8 -3.45 -12.5 -4.15 -12.55 -3.6 -12.9 -2.4 -13.25 -2.15 -14.6 -1.75 -16.4 -2.4 -16.3 -3.2 -16.0 -2.45 -16.55 -1.7 -16.75 -1.55 -19.65 -2.3 -19.6 -3.5 -19.55 -2.15 -20.2 -1.35 -20.45 -1.45 -22.0 -2.65 -21.95 Q-1.9 -22.4 -1.2 -22.9 L-1.15 -23.5 -1.0 -22.75 0.8 -23.15 0.7 -24.6 -2.5 -24.0 -3.5 -23.85 -2.1 -24.6 0.55 -25.2 0.35 -26.15 -1.0 -25.85 -2.3 -25.5 -0.15 -26.55 5.5 -27.0 6.4 -26.85 7.65 -26.3 6.75 -26.2 M6.65 -17.2 L8.0 -16.9 7.7 -20.3 5.45 -20.15 5.05 -17.25 6.65 -17.2 M5.1 -20.8 L7.65 -20.7 7.35 -22.9 4.85 -22.45 5.1 -20.8 M2.1 -17.25 L4.6 -17.3 4.6 -20.15 3.15 -20.1 1.45 -20.0 1.3 -17.2 2.1 -17.25 M2.2 -16.5 L1.2 -16.45 0.4 -13.65 2.25 -13.1 4.1 -13.6 4.3 -14.3 4.55 -16.5 2.2 -16.5 M4.6 -20.8 L4.6 -22.3 1.3 -22.5 1.45 -20.65 4.6 -20.8 M0.95 -20.65 L0.85 -22.45 -1.0 -22.15 -1.0 -20.5 0.95 -20.65 M-1.7 -13.35 L0.15 -13.6 0.8 -16.45 -1.35 -16.45 -1.95 -14.05 -2.2 -13.25 -1.7 -13.35 M0.9 -17.2 L1.0 -19.95 -1.0 -19.75 -1.3 -16.9 0.9 -17.2" fill="#333333" fill-rule="evenodd" stroke="none"/>
  </g>
</svg>
