<?xml version="1.0" encoding="UTF-8" standalone="no"?>
<svg xmlns:xlink="http://www.w3.org/1999/xlink" height="43.65px" width="39.4px" xmlns="http://www.w3.org/2000/svg">
  <g transform="matrix(1.0, 0.0, 0.0, 1.0, 19.35, 43.0)">
    <path d="M3.35 -23.85 L2.85 -23.5 3.45 -23.1 3.7 -23.65 3.35 -23.85 M3.3 -42.2 L5.7 -42.2 Q4.0 -39.0 4.85 -34.6 10.9 -33.45 18.95 -35.95 20.85 -33.65 19.45 -30.8 L19.05 -30.1 Q16.65 -26.65 12.4 -26.35 L8.95 -26.1 5.15 -25.5 5.95 -22.75 5.25 -21.75 6.5 -13.75 4.55 -12.0 4.9 -11.4 7.6 -13.95 9.1 -13.15 Q10.1 -9.35 6.9 -7.35 L5.75 -6.75 6.25 -3.05 5.5 -2.7 Q5.1 -0.2 2.5 0.4 L-0.6 0.5 -2.0 0.05 -2.6 -0.4 -3.85 -1.4 -4.5 -3.65 -5.45 -4.55 -4.75 -5.8 -4.9 -7.0 -5.85 -7.65 -7.3 -13.9 -4.1 -12.35 -6.15 -14.8 -4.35 -21.9 -4.9 -22.45 -4.75 -25.45 Q-11.1 -25.15 -14.7 -27.05 -18.3 -28.95 -18.8 -30.15 -19.9 -32.75 -18.85 -35.35 -10.0 -33.0 -4.4 -34.15 L-5.0 -40.05 -6.15 -41.55 Q-1.55 -44.05 3.3 -42.2" fill="#000000" fill-rule="evenodd" stroke="none"/>
    <path d="M4.2 -41.6 L5.05 -41.7 4.0 -40.7 3.95 -33.8 3.9 -33.8 0.95 -34.9 1.0 -35.0 1.55 -35.35 Q2.9 -36.25 2.4 -37.85 L2.75 -39.8 1.8 -39.15 0.75 -38.35 0.35 -38.05 -0.5 -37.9 -0.95 -38.05 -2.05 -39.05 -2.95 -39.7 -4.0 -40.4 -5.3 -41.4 -0.65 -38.7 4.2 -41.6 M15.95 -34.5 L18.6 -35.1 19.05 -34.5 Q19.15 -32.75 18.55 -31.15 17.45 -28.5 14.55 -27.75 9.55 -26.45 4.45 -26.9 L4.15 -25.0 3.3 -23.6 3.0 -23.35 Q2.75 -23.15 3.25 -23.05 L3.35 -22.45 3.5 -22.3 Q3.95 -21.85 4.3 -22.0 L4.5 -20.8 2.2 -21.8 2.0 -22.2 2.9 -23.55 2.35 -24.7 1.15 -24.45 1.15 -22.85 -0.2 -23.3 -0.25 -24.3 2.05 -25.15 3.05 -27.45 4.3 -27.95 4.5 -31.9 5.45 -32.1 5.85 -28.25 Q7.75 -28.35 8.2 -30.25 8.7 -32.2 10.2 -32.5 L9.75 -30.3 9.2 -28.15 11.0 -29.25 11.3 -29.6 13.05 -32.45 12.85 -30.15 12.5 -27.95 13.65 -28.2 15.95 -33.05 16.15 -31.75 15.5 -29.4 16.4 -30.55 16.45 -30.7 16.75 -34.45 15.95 -34.5 M4.5 -20.6 L4.7 -17.2 4.35 -17.0 3.65 -16.3 3.65 -15.2 2.55 -16.65 2.5 -16.7 2.65 -17.65 3.35 -20.15 4.5 -20.6 M4.15 -13.05 L3.5 -12.05 4.7 -9.9 4.55 -9.6 3.4 -10.7 3.7 -11.5 2.6 -11.5 -2.65 -12.0 -3.1 -12.5 1.3 -13.25 3.55 -14.8 4.1 -14.45 3.65 -13.35 4.15 -13.05 M4.9 -7.5 L4.8 -5.05 3.55 -5.75 3.7 -6.6 4.5 -8.0 4.6 -7.6 Q4.7 -7.45 4.9 -7.5 M4.7 -3.65 Q4.55 -1.15 2.45 -0.55 -0.85 0.25 -3.15 -1.85 L0.0 -1.9 Q2.3 -2.35 3.1 -4.45 L4.7 -3.65 M-3.95 -26.3 L-6.45 -26.55 -12.15 -26.75 Q-13.5 -26.8 -14.9 -27.45 -17.75 -28.8 -18.5 -31.85 L-15.4 -29.35 -13.65 -32.6 -13.6 -28.15 -12.45 -28.15 -10.05 -32.1 -9.85 -31.2 -10.3 -29.45 -10.35 -27.9 -8.8 -29.6 -8.35 -31.15 -7.3 -31.45 -7.1 -30.65 Q-7.2 -28.5 -5.85 -27.1 L-5.2 -29.75 -4.7 -31.8 -3.6 -32.95 Q-2.9 -31.6 -2.7 -30.1 L-2.85 -27.25 Q-3.2 -26.35 -3.95 -26.3 M-0.55 -42.15 Q1.6 -42.15 3.25 -41.25 L1.2 -40.55 -0.55 -42.15 M2.25 -36.5 L2.15 -36.45 0.1 -35.25 -1.2 -35.7 -2.25 -36.3 0.2 -35.85 2.25 -36.5 M-1.85 -23.4 L-2.25 -23.5 -2.15 -24.1 -1.8 -24.2 -1.85 -23.4" fill="#993300" fill-rule="evenodd" stroke="none"/>
    <path d="M3.95 -33.8 L7.8 -33.45 6.15 -30.3 5.8 -32.15 3.9 -33.8 3.95 -33.8 M9.25 -33.5 L10.4 -33.55 11.25 -32.9 10.1 -29.35 9.75 -30.3 10.2 -32.5 8.75 -32.5 9.25 -33.5 M12.95 -33.85 L14.35 -34.1 13.55 -29.25 Q12.8 -29.4 12.85 -30.15 L13.05 -32.45 12.95 -32.75 12.95 -33.85 M15.5 -34.35 L15.95 -34.5 16.75 -34.45 16.1 -31.0 16.15 -31.75 15.95 -33.05 15.9 -33.15 15.65 -33.1 15.5 -34.35 M-18.35 -34.7 L-15.2 -34.05 -17.1 -31.3 -18.35 -34.7 M-13.65 -33.7 L-11.75 -33.4 -13.0 -30.0 -12.8 -32.85 -13.75 -33.5 -13.65 -33.7 M-10.0 -33.2 L-8.7 -33.1 -10.0 -29.1 -10.3 -29.45 -9.85 -31.2 -10.1 -32.9 -10.0 -33.2 M-7.8 -33.1 L-5.2 -33.1 -6.4 -29.5 -5.55 -28.55 -6.55 -28.8 -7.1 -30.65 -7.3 -31.45 -7.65 -32.7 -7.8 -33.1 M2.4 -37.85 L1.55 -37.45 0.35 -38.05 0.75 -38.35 1.8 -37.95 1.8 -39.15 2.75 -39.8 2.4 -37.85 M-0.5 -37.9 L-1.2 -37.45 -1.9 -37.35 Q-2.5 -37.4 -2.85 -38.05 -3.4 -39.05 -2.95 -39.7 L-2.05 -39.05 -1.95 -37.75 -0.95 -38.05 -0.5 -37.9 M1.15 -32.25 L2.55 -31.0 3.45 -32.3 1.9 -29.55 1.75 -29.55 Q1.5 -29.5 1.65 -29.35 1.65 -28.4 0.35 -27.7 -1.0 -27.05 -2.85 -27.05 L-2.85 -27.25 -2.7 -30.1 -2.6 -32.9 -1.4 -30.7 0.1 -32.9 -0.75 -29.0 0.55 -29.6 1.15 -32.25 M-1.8 -24.8 L-1.55 -24.8 -1.6 -24.75 -1.8 -24.8 M16.45 -30.7 L16.4 -30.55 16.3 -30.6 16.45 -30.7 M0.8 -20.3 L1.95 -18.55 3.35 -20.15 2.65 -17.65 Q1.85 -17.65 1.35 -18.4 0.8 -19.2 0.8 -20.3 M-0.3 -20.15 Q-0.35 -18.5 -0.8 -17.6 -1.35 -16.7 -1.95 -16.8 -2.6 -17.0 -2.95 -18.1 -3.4 -19.3 -3.3 -20.5 L-2.1 -20.45 -2.15 -18.35 -0.3 -20.15 M3.4 -10.7 L4.55 -9.6 4.45 -8.35 4.5 -8.0 3.7 -6.6 0.15 -7.0 -1.75 -6.2 -3.75 -8.2 -3.55 -9.9 -2.95 -10.75 -2.1 -9.7 -2.35 -8.5 -1.65 -7.75 -0.65 -8.5 1.25 -8.75 1.95 -7.9 2.9 -8.2 2.7 -9.95 3.4 -10.7" fill="#ffffff" fill-rule="evenodd" stroke="none"/>
    <path d="M7.8 -33.45 L9.25 -33.5 8.75 -32.5 7.15 -29.85 6.15 -30.3 7.8 -33.45 M10.4 -33.55 L12.95 -33.85 12.95 -32.75 11.3 -29.6 11.0 -29.25 10.1 -29.35 11.25 -32.9 10.4 -33.55 M14.35 -34.1 L15.5 -34.35 15.65 -33.1 13.55 -29.25 14.35 -34.1 M-15.2 -34.05 L-13.65 -33.7 -13.75 -33.5 -15.2 -31.35 -17.1 -31.3 -15.2 -34.05 M-11.75 -33.4 L-10.0 -33.2 -10.1 -32.9 -13.0 -30.0 -11.75 -33.4 M-8.7 -33.1 L-7.8 -33.1 -7.65 -32.7 -8.35 -31.15 -8.8 -29.6 -10.0 -29.1 -8.7 -33.1 M-5.2 -33.1 L-4.15 -33.15 -4.7 -31.8 -5.2 -29.75 -5.55 -28.55 -6.4 -29.5 -5.2 -33.1 M3.45 -32.3 L4.15 -30.55 -0.6 -24.85 -1.55 -24.8 -1.8 -24.8 -2.85 -27.05 Q-1.0 -27.05 0.35 -27.7 1.65 -28.4 1.65 -29.35 L1.75 -29.0 Q2.95 -29.25 1.9 -29.55 L3.45 -32.3 M0.1 -32.9 L0.75 -30.55 1.15 -32.25 0.55 -29.6 -0.75 -29.0 0.1 -32.9 M16.75 -34.45 L16.45 -30.7 16.3 -30.6 16.1 -31.0 16.75 -34.45" fill="#cccccc" fill-rule="evenodd" stroke="none"/>
    <path d="M3.25 -41.25 L4.2 -41.6 -0.65 -38.7 -5.3 -41.4 -0.55 -42.15 1.2 -40.55 3.25 -41.25 M-3.15 -1.85 L-3.7 -4.15 3.1 -4.45 Q2.3 -2.35 0.0 -1.9 L-3.15 -1.85 M-3.8 -5.2 L-4.1 -7.75 -3.75 -8.2 -1.75 -6.2 0.15 -7.0 3.7 -6.6 3.55 -5.75 2.05 -5.65 -2.3 -5.3 -3.8 -5.2 M-3.55 -10.65 L-3.25 -11.15 -2.95 -10.75 -3.55 -9.9 -3.55 -10.65 M-2.8 -11.8 L-2.65 -12.0 2.6 -11.5 0.2 -9.4 -2.8 -11.8 M-3.8 -25.05 L-3.95 -26.3 Q-3.2 -26.35 -2.85 -27.25 L-2.85 -27.05 -1.8 -24.8 -1.6 -24.75 -1.8 -24.2 -2.15 -24.1 -2.45 -25.0 Q-2.7 -25.4 -3.1 -25.35 L-3.8 -25.05 M-18.5 -31.85 L-18.35 -34.7 -17.1 -31.3 -15.2 -31.35 -13.75 -33.5 -12.8 -32.85 -13.0 -30.0 -10.1 -32.9 -9.85 -31.2 -10.05 -32.1 -12.45 -28.15 -13.6 -28.15 -13.65 -32.6 -15.4 -29.35 -18.5 -31.85 M-4.15 -33.15 L-3.2 -34.1 Q-5.05 -36.25 -4.35 -39.15 L-4.0 -40.4 -2.95 -39.7 Q-3.4 -39.05 -2.85 -38.05 -2.5 -37.4 -1.9 -37.35 L-2.4 -36.15 -1.2 -35.7 0.1 -35.25 0.95 -34.9 3.9 -33.8 5.8 -32.15 6.15 -30.3 7.15 -29.85 8.75 -32.5 10.2 -32.5 Q8.7 -32.2 8.2 -30.25 7.75 -28.35 5.85 -28.25 L5.45 -32.1 4.5 -31.9 4.3 -27.95 3.05 -27.45 2.05 -25.15 -0.25 -24.3 -0.6 -24.85 4.15 -30.55 3.45 -32.3 2.55 -31.0 1.15 -32.25 0.75 -30.55 0.1 -32.9 -1.4 -30.7 -2.6 -32.9 -2.7 -30.1 Q-2.9 -31.6 -3.6 -32.95 L-4.7 -31.8 -4.15 -33.15 M2.25 -36.5 L1.6 -37.45 0.15 -37.3 -1.2 -37.45 -0.5 -37.9 0.35 -38.05 1.55 -37.45 2.4 -37.85 Q2.9 -36.25 1.55 -35.35 L1.0 -35.0 2.15 -36.45 2.25 -36.5 M9.75 -30.3 L10.1 -29.35 11.0 -29.25 9.2 -28.15 9.75 -30.3 M1.9 -29.55 Q2.95 -29.25 1.75 -29.0 L1.65 -29.35 Q1.5 -29.5 1.75 -29.55 L1.9 -29.55 M16.4 -30.55 L15.5 -29.4 16.15 -31.75 16.1 -31.0 16.3 -30.6 16.4 -30.55 M15.95 -33.05 L13.65 -28.2 12.5 -27.95 12.85 -30.15 Q12.8 -29.4 13.55 -29.25 L15.65 -33.1 15.9 -33.15 15.95 -33.05 M13.05 -32.45 L11.3 -29.6 12.95 -32.75 13.05 -32.45 M-8.8 -29.6 L-10.35 -27.9 -10.3 -29.45 -10.0 -29.1 -8.8 -29.6 M-5.2 -29.75 L-5.85 -27.1 Q-7.2 -28.5 -7.1 -30.65 L-6.55 -28.8 -5.55 -28.55 -5.2 -29.75 M-7.3 -31.45 L-8.35 -31.15 -7.65 -32.7 -7.3 -31.45" fill="#999966" fill-rule="evenodd" stroke="none"/>
    <path d="M4.5 -20.8 L4.5 -20.6 3.35 -20.15 1.95 -18.55 0.8 -20.3 0.15 -20.75 -0.3 -20.15 -2.15 -18.35 -2.1 -20.45 -3.3 -20.5 -3.7 -20.7 -3.6 -21.25 -2.55 -22.15 2.2 -21.8 4.5 -20.8 M-3.25 -11.15 Q-3.75 -11.7 -3.05 -11.9 L-2.8 -11.8 0.2 -9.4 2.6 -11.5 3.7 -11.5 3.4 -10.7 2.7 -9.95 1.25 -8.75 -0.65 -8.5 -2.1 -9.7 -2.95 -10.75 -3.25 -11.15 M0.75 -38.35 L1.8 -39.15 1.8 -37.95 0.75 -38.35 M-0.95 -38.05 L-1.95 -37.75 -2.05 -39.05 -0.95 -38.05" fill="#000000" fill-rule="evenodd" stroke="none"/>
    <path d="M4.4 -25.0 L5.2 -23.3 4.3 -22.0 Q3.95 -21.85 3.5 -22.3 L3.35 -22.45 4.4 -25.0 M-3.4 -22.2 L-4.1 -22.8 -3.1 -25.35 Q-2.7 -25.4 -2.45 -25.0 L-2.15 -24.1 -2.25 -23.5 Q-2.25 -22.95 -2.6 -22.6 -2.95 -22.25 -3.4 -22.2 M0.15 -37.3 L1.6 -37.45 2.25 -36.5 0.2 -35.85 0.15 -37.3 M2.15 -36.45 L1.0 -35.0 0.95 -34.9 0.1 -35.25 2.15 -36.45 M-1.2 -35.7 L-2.4 -36.15 -2.25 -36.3 -1.2 -35.7 M-0.6 -24.85 L-0.25 -24.3 -0.2 -23.3 -0.25 -23.1 Q-0.55 -22.15 -1.35 -22.25 L-0.6 -24.85 M2.0 -22.2 Q1.75 -22.1 1.5 -22.35 L1.35 -22.5 2.35 -24.7 2.9 -23.55 2.0 -22.2" fill="#ffcc00" fill-rule="evenodd" stroke="none"/>
    <path d="M4.15 -25.0 L4.4 -25.0 3.35 -22.45 3.25 -23.05 3.3 -23.6 4.15 -25.0 M-4.1 -22.8 L-3.8 -25.05 -3.1 -25.35 -4.1 -22.8 M-1.2 -37.45 L0.15 -37.3 0.2 -35.85 -2.25 -36.3 -2.4 -36.15 -1.9 -37.35 -1.2 -37.45 M-1.55 -24.8 L-0.6 -24.85 -1.35 -22.25 -1.85 -23.4 -1.8 -24.2 -1.6 -24.75 -1.55 -24.8 M1.35 -22.5 L1.15 -22.85 1.15 -24.45 2.35 -24.7 1.35 -22.5" fill="#ffff00" fill-rule="evenodd" stroke="none"/>
    <path d="M-3.1 -12.5 L-3.65 -13.5 -3.1 -14.25 -3.3 -17.4 -4.2 -17.75 -3.7 -20.7 -3.3 -20.5 Q-3.4 -19.3 -2.95 -18.1 -2.6 -17.0 -1.95 -16.8 -1.35 -16.7 -0.8 -17.6 -0.35 -18.5 -0.3 -20.15 L0.15 -20.75 0.8 -20.3 Q0.8 -19.2 1.35 -18.4 1.85 -17.65 2.65 -17.65 L2.5 -16.7 Q-0.25 -17.95 -2.45 -16.1 L-1.7 -13.7 1.3 -13.25 -3.1 -12.5 M-3.6 -21.25 L-3.4 -22.2 Q-2.95 -22.25 -2.6 -22.6 -2.25 -22.95 -2.25 -23.5 L-1.85 -23.4 -1.35 -22.25 Q-0.55 -22.15 -0.25 -23.1 L-0.2 -23.3 1.15 -22.85 1.35 -22.5 1.5 -22.35 Q1.75 -22.1 2.0 -22.2 L2.2 -21.8 -2.55 -22.15 -3.6 -21.25 M1.35 -15.75 L-1.0 -14.75 -0.5 -15.95 1.35 -15.75" fill="#ffcccc" fill-rule="evenodd" stroke="none"/>
    <path d="M4.8 -5.05 L5.45 -3.6 Q4.05 -5.25 2.05 -5.65 L3.55 -5.75 4.8 -5.05 M-4.2 -4.55 L-4.4 -4.55 Q-4.85 -5.0 -3.8 -5.2 L-2.3 -5.3 -4.2 -4.55" fill="#5b5a3e" fill-rule="evenodd" stroke="none"/>
    <path d="M4.7 -17.2 L5.75 -14.3 4.15 -13.05 3.65 -13.35 5.05 -14.4 4.15 -14.45 5.1 -15.65 4.15 -15.8 4.85 -16.4 4.35 -17.0 4.7 -17.2 M-3.65 -13.5 L-4.25 -13.65 -3.7 -16.85 -4.2 -17.75 -3.3 -17.4 -3.1 -14.25 -3.65 -13.5" fill="#0033cc" fill-rule="evenodd" stroke="none"/>
    <path d="M1.35 -15.75 L1.9 -15.5 Q0.4 -17.0 -1.6 -15.9 L-1.0 -14.75 1.35 -15.75 M2.5 -16.7 L2.55 -16.65 3.0 -14.6 -1.7 -13.7 -2.45 -16.1 Q-0.25 -17.95 2.5 -16.7 M2.7 -9.95 L2.9 -8.2 1.95 -7.9 1.25 -8.75 2.7 -9.95 M-0.65 -8.5 L-1.65 -7.75 -2.35 -8.5 -2.1 -9.7 -0.65 -8.5" fill="#cc0000" fill-rule="evenodd" stroke="none"/>
    <path d="M3.65 -15.2 L3.55 -14.8 1.3 -13.25 -1.7 -13.7 3.0 -14.6 2.55 -16.65 3.65 -15.2 M-1.0 -14.75 L-1.6 -15.9 Q0.4 -17.0 1.9 -15.5 L1.35 -15.75 -0.5 -15.95 -1.0 -14.75" fill="#990000" fill-rule="evenodd" stroke="none"/>
    <path d="M-4.25 -13.65 L-5.3 -14.9 -4.2 -17.75 -3.7 -16.85 -4.25 -13.65 M4.35 -17.0 L4.85 -16.4 4.15 -15.8 5.1 -15.65 4.15 -14.45 5.05 -14.4 3.65 -13.35 4.1 -14.45 3.55 -14.8 3.65 -15.2 3.65 -16.3 4.35 -17.0" fill="#0099ff" fill-rule="evenodd" stroke="none"/>
    <path d="M7.45 -13.05 Q8.65 -12.95 8.4 -11.25 7.9 -8.0 4.9 -7.5 4.7 -7.45 4.6 -7.6 L4.5 -8.0 4.45 -8.35 Q5.65 -8.35 6.55 -9.7 7.45 -11.15 7.45 -13.05 M-4.1 -7.75 L-4.4 -7.75 -4.4 -7.8 -4.45 -7.8 -5.2 -8.2 -4.45 -9.05 -5.55 -10.1 -4.3 -10.05 -6.8 -13.15 -3.55 -10.65 -3.55 -9.9 -3.75 -8.2 -4.1 -7.75" fill="#009900" fill-rule="evenodd" stroke="none"/>
    <path d="M4.7 -9.9 L7.45 -13.05 Q7.45 -11.15 6.55 -9.7 5.65 -8.35 4.45 -8.35 L4.55 -9.6 4.7 -9.9 M-4.4 -7.75 L-4.45 -7.8 -4.4 -7.8 -4.4 -7.75 M-5.2 -8.2 L-6.8 -13.15 -4.3 -10.05 -5.55 -10.1 -4.45 -9.05 -5.2 -8.2" fill="#00cc66" fill-rule="evenodd" stroke="none"/>
    <path d="M5.45 -3.6 L4.7 -3.65 3.1 -4.45 -3.7 -4.15 -4.5 -3.95 -4.2 -4.55 -2.3 -5.3 2.05 -5.65 Q4.05 -5.25 5.45 -3.6" fill="#d0d0b9" fill-rule="evenodd" stroke="none"/>
  </g>
</svg>
