<?xml version="1.0" encoding="UTF-8" standalone="no"?>
<svg
   xmlns:dc="http://purl.org/dc/elements/1.1/"
   xmlns:cc="http://creativecommons.org/ns#"
   xmlns:rdf="http://www.w3.org/1999/02/22-rdf-syntax-ns#"
   xmlns:svg="http://www.w3.org/2000/svg"
   xmlns="http://www.w3.org/2000/svg"
   xmlns:xlink="http://www.w3.org/1999/xlink"
   xmlns:sodipodi="http://sodipodi.sourceforge.net/DTD/sodipodi-0.dtd"
   xmlns:inkscape="http://www.inkscape.org/namespaces/inkscape"
   height="47.057144"
   width="41.467911"
   version="1.1"
   id="svg111"
   sodipodi:docname="43.svg"
   inkscape:version="0.92.1 r15371">
  <metadata
     id="metadata115">
    <rdf:RDF>
      <cc:Work
         rdf:about="">
        <dc:format>image/svg+xml</dc:format>
        <dc:type
           rdf:resource="http://purl.org/dc/dcmitype/StillImage" />
        <dc:title></dc:title>
      </cc:Work>
    </rdf:RDF>
  </metadata>
  <sodipodi:namedview
     pagecolor="#ffffff"
     bordercolor="#666666"
     borderopacity="1"
     objecttolerance="10"
     gridtolerance="10"
     guidetolerance="10"
     inkscape:pageopacity="0"
     inkscape:pageshadow="2"
     inkscape:window-width="818"
     inkscape:window-height="480"
     id="namedview113"
     showgrid="false"
     fit-margin-top="0"
     fit-margin-left="0"
     fit-margin-right="0"
     fit-margin-bottom="0"
     inkscape:zoom="3.4528165"
     inkscape:cx="22.217911"
     inkscape:cy="20.175001"
     inkscape:window-x="0"
     inkscape:window-y="27"
     inkscape:window-maximized="0"
     inkscape:current-layer="svg111" />
  <g
     transform="translate(21.46791,46.457143)"
     id="g6">
    <use
       height="47.049999"
       transform="translate(-21.45,-46.45)"
       width="41.450001"
       xlink:href="#shape0"
       id="use2"
       x="0"
       y="0" />
    <use
       height="72.599998"
       transform="matrix(0.6386,0.0335,-0.0335,0.6386,-18.0945,-46.9332)"
       width="60.5"
       xlink:href="#sprite0"
       id="use4"
       x="0"
       y="0" />
  </g>
  <defs
     id="defs109">
    <g
       id="shape0"
       transform="translate(21.45,46.45)">
      <path
         d="m 10.9,-45.5 v 0.2 l 0.05,0.2 0.05,0.05 q 1.15,3.15 -0.9,5.9 l -0.55,0.4 -0.9,0.2 -0.05,0.05 0.05,0.05 2.1,2.45 v 0.05 q 1.8,1.95 2.1,4.35 v 0.05 q 0.4,3.65 -2.3,5.65 l 1.95,2.5 0.4,0.35 0.3,0.15 0.3,0.4 1.4,1.2 -0.1,-0.05 0.55,0.35 0.3,0.35 1.6,1.45 0.25,0.4 0.05,0.5 -0.15,1.05 0.25,0.4 1.55,0.2 0.65,0.4 0.15,0.75 q -0.1,0.4 -0.4,0.65 l -2.45,1.7 -0.2,11.5 -0.3,0.7 -0.7,0.25 -0.2,0.05 -2.9,0.05 -0.65,-0.2 -0.35,-0.55 -0.05,-0.2 -0.15,0.2 q -0.2,0.2 -0.5,0.25 L 10.65,-1 10.3,-0.65 Q 9.95,-0.4 9.2,-0.35 H 9.15 Q 8.05,-0.45 7.2,-0.85 L 6.45,-0.9 5.9,-1.1 5.6,-1.55 5.05,-2.9 5.1,-2.75 4.9,-3.15 Q 4.2,-3.6 3.7,-4.1 l -4.85,3.35 -0.65,0.15 -0.6,-0.25 -0.5,-0.4 -0.8,-0.5 Q -4,-1.9 -4.1,-2.2 l -0.05,-0.65 0.45,-1.5 0.45,-0.6 2.15,-1.1 0.2,-0.35 -0.3,-0.05 q -0.35,0 -0.6,-0.25 L -2.15,-7.25 -2.05,-7.9 -2,-8 l -1.7,0.3 -1.2,1.5 0.6,1.2 0.05,0.65 -0.4,0.55 q -2.15,1.6 -5.05,0.35 l -0.55,-0.5 -0.5,-1.2 -0.1,-0.45 0.15,-0.45 2.2,-3.7 -0.45,0.7 q -1.95,2.95 -4.25,5.8 -1.05,1.35 -2.45,2.05 l -0.15,0.5 -0.4,0.8 -0.45,0.4 -0.6,0.1 -3.2,-0.55 Q -20.8,0 -21,-0.2 l -0.3,-0.5 q -0.75,-3.1 1.85,-4.9 2.4,-1.8 4.15,-4.25 1.65,-2.35 2.15,-5.15 0.55,-3.1 1.95,-5.9 1.2,-2.45 3.55,-3.95 l 9.8,-6.1 0.55,-0.15 h 0.75 l 0.7,0.3 2.6,2.65 Q 6.9,-28.4 7.2,-28.45 8.7,-29 9.25,-29.85 9.6,-30.7 9.1,-31.9 l -0.85,-1.2 q -2.65,-2.55 -3,-6.15 L 4.95,-41.8 Q 4.9,-42.05 5,-42.3 l 0.25,-0.4 3.95,-3.5 q 0.3,-0.3 0.7,-0.25 l 0.7,0.3 0.3,0.65 M 11.45,-8 11,-7.05 l 0.65,1.95 0.2,0.1 q 0.45,0.35 0.5,1 L 13,-4.55 12.7,-8.3 11.45,-8"
         id="path8"
         inkscape:connector-curvature="0"
         style="fill:#002b55;fill-rule:evenodd;stroke:none" />
    </g>
    <g
       id="sprite0"
       transform="translate(26.9,69.65)">
      <use
         height="72.599998"
         transform="translate(-26.9,-69.65)"
         width="60.5"
         xlink:href="#shape1"
         id="use11"
         x="0"
         y="0" />
    </g>
    <g
       id="shape1"
       transform="translate(26.9,69.65)">
      <path
         d="m 14.7,-41.4 q 6,-2.55 3.5,-7.7 -0.65,-1.35 -1.8,-2.35 -3.9,-3.35 -4.7,-8.4 l -0.7,-4 5.9,-5.8 -0.15,0.35 0.2,0.2 0.25,0.5 q 1.8,4.15 -0.7,7.95 l -2.15,0.05 1.85,-8.2 -0.85,1 q -3.05,3.55 -1.4,7.9 v 1.85 q 0.35,3.95 4,6.05 1.7,0.9 2.05,2.65 1.2,5.9 -4.45,8.2 L 14.7,-41.4 m -6.6,-3.7 q -0.2,0.45 -0.8,0.95 l 0.8,7.7 q 2.55,4.15 2.3,9.05 -0.15,1.25 -1.15,1.9 l -4.1,-15.5 -13.7,7.75 -0.25,1.5 1.8,1.5 0.1,1.5 q -4.55,2.15 -5.2,7.2 -0.2,1.75 -0.55,3.5 -0.35,2 -1.2,3.9 -3.25,7.1 -8.6,12.7 l 1.55,1.25 -4.1,1.35 -0.45,1.05 -1.15,0.2 q -1.15,-3.8 1.9,-6.2 3.9,-3.15 6.55,-7.4 2.55,-4.05 3.1,-8.8 0.6,-4.7 2.45,-8.95 1.55,-3.5 4.75,-5.8 L 6.9,-45.1 h 1.2 m 1.3,20.95 6.15,-1.2 q 0.95,0.2 0.35,0.85 -3,-0.3 -5.55,1.05 -4.35,2.25 -4.2,6.65 l 1.75,0.75 Q 6.8,-16.7 7.35,-18.3 9.1,-23.55 14.8,-24 l -5,3.5 -0.8,0.65 q -0.35,0.65 -0.35,1.6 0.1,0.7 0.7,1.2 l -0.1,-1.1 0.75,-0.5 0.75,0.8 v 0.05 l 0.05,-0.05 7.95,-1.55 0.9,1.3 -8.4,2.4 1.65,1.6 -1.05,-0.05 0.25,0.85 -1.55,-0.2 -1.05,-1.1 0.05,0.55 q 0,1.9 -1.9,2.2 l -0.55,0.05 0.9,0.2 1.15,1.4 -2.5,-0.05 -0.9,0.85 h -3 L 5.7,-11 3.1,-12.1 Q 1.8,-13 1.6,-14.35 0.8,-18.8 4.2,-21.7 l 5.2,-2.45 M 3.05,-23.3 -3,-20.55 q -0.55,7.35 -4,14.2 l -0.95,2.55 -1.75,-0.1 -0.95,-1.85 3.35,-6.25 2.55,-9.65 q 3.2,-3.8 7.7,-2.35 l 0.1,0.7 m 0.05,8.55 q 0.45,0.85 -0.2,-0.5 l 0.2,0.5 M 4.2,-6.15 6.1,-7.1 1.55,-0.8 0,-1.65 0.55,-4 4.2,-6.15 M 10.55,-6.5 8.6,-9.2 10.05,-10.6 11,-9 l 4,2.2 -1.6,1.55 -2.85,-1.25 m 10.4,-5.55 -6.65,1.15 -0.85,-0.5 0.95,-0.3 -0.8,-0.5 7.5,-0.75 0.15,0.15 -0.3,0.75 m 4.95,0.75 0.6,-1.85 1.9,8.25 1.6,0.9 -0.05,1.9 -0.35,0.35 -4.55,0.3 L 24.9,-2 q -0.25,-2.25 1.9,-3.2 l -0.9,-6.1 m -4.45,-3.45 -0.4,0.55 -0.55,0.2 0.95,-0.75"
         id="path14"
         inkscape:connector-curvature="0"
         style="fill:#ffffff;fill-rule:evenodd;stroke:none" />
      <path
         d="m 10.75,-17.85 h 0.05 l -0.05,0.05 v -0.05"
         id="path16"
         inkscape:connector-curvature="0"
         style="fill:#00ccff;fill-rule:evenodd;stroke:none" />
      <path
         d="m 15.9,-24.5 -1.1,0.5 q -5.7,0.45 -7.45,5.7 -0.55,1.6 0.55,2.25 L 6.15,-16.8 q -0.15,-4.4 4.2,-6.65 2.55,-1.35 5.55,-1.05 m -2.55,-5.9 1.9,-2.15 -1.65,4.1 0.85,-2.95 -1.1,1"
         id="path18"
         inkscape:connector-curvature="0"
         style="fill:#002b55;fill-rule:evenodd;stroke:none" />
      <path
         d="m 14.7,-41.4 0.85,0.25 q 5.65,-2.3 4.45,-8.2 -0.35,-1.75 -2.05,-2.65 -3.65,-2.1 -4,-6.05 l 4,4.25 q 2.6,2.55 3.15,5.85 1,5.65 -3.9,8.5 l 4.6,5.25 -0.05,5.05 2.4,3.6 -0.8,1 -0.1,0.1 0.2,0.05 0.75,0.65 -3.5,2.9 -1.95,1.45 -7.95,1.55 h -0.05 l -0.75,-0.8 -0.2,-1.85 5,-3.5 1.1,-0.5 q 0.6,-0.65 -0.35,-0.85 l -6.15,1.2 -0.15,-1.35 q 1,-0.65 1.15,-1.9 0.25,-4.9 -2.3,-9.05 l -0.8,-7.7 q 0.6,-0.5 0.8,-0.95 l 5.8,5.2 0.8,-1.5 m -0.75,-18.5 q -1.65,-4.35 1.4,-7.9 l 0.85,-1 -1.85,8.2 2.15,-0.05 -2.55,0.75 m 3,-9.2 -0.2,-0.2 0.15,-0.35 0.05,0.55 m -3.6,38.7 1.1,-1 -0.85,2.95 1.65,-4.1 -1.9,2.15 m 10.9,13 0.9,0.15 q 0.9,0.45 0.3,1.5 0,1.2 -1.2,2.1 -1.25,0.85 -3,0.85 l -0.15,-0.15 q -0.55,-0.6 -0.05,-1.25 l 0.4,-0.55 q -0.4,-0.65 -0.35,-1.3 l 3.15,-1.35"
         id="path20"
         inkscape:connector-curvature="0"
         style="fill:url(#gradient0);fill-rule:evenodd;stroke:none" />
      <path
         d="m 24.15,-25.55 -2.4,-3.6 0.05,-5.05 7.75,6.15 -0.2,2.15 -4.45,1.75 -0.75,-1.4 m 1.3,9.8 q 0.6,-1.05 -0.3,-1.5 l -0.9,-0.15 4.95,-5.05 0.8,18.45 -1.6,-0.9 -1.9,-8.25 -0.6,1.85 -0.45,-4.45 m 4.15,14 0.35,-0.35 v 0.3 l -0.35,0.05"
         id="path22"
         inkscape:connector-curvature="0"
         style="fill:url(#gradient1);fill-rule:evenodd;stroke:none" />
      <path
         d="m 9.25,-25.5 0.15,1.35 -5.2,2.45 -1.15,-1.6 -0.1,-0.7 q -4.5,-1.45 -7.7,2.35 l -2.55,9.65 -2.95,-1.15 q -3,5.3 -6.7,10.4 -1.75,2.45 -4.3,3.45 l 0.3,0.95 -0.6,1.3 -5.05,-0.55 1.15,-0.2 0.45,-1.05 4.1,-1.35 -1.55,-1.25 q 5.35,-5.6 8.6,-12.7 0.85,-1.9 1.2,-3.9 0.35,-1.75 0.55,-3.5 0.65,-5.05 5.2,-7.2 l -0.1,-1.5 -1.8,-1.5 0.25,-1.5 13.7,-7.75 4.1,15.5 m 0.55,5 0.2,1.85 -0.75,0.5 -0.6,-0.1 q 0,-0.95 0.35,-1.6 l 0.8,-0.65"
         id="path24"
         inkscape:connector-curvature="0"
         style="fill:url(#gradient2);fill-rule:evenodd;stroke:none" />
      <path
         d="m 18.75,-19.4 1.95,-1.45 0.4,4.8 q -0.05,0.65 0.35,1.3 l -0.95,0.75 0.55,-0.2 q -0.5,0.65 0.05,1.25 l -7.5,0.75 0.8,0.5 -0.95,0.3 -2.65,0.3 -0.25,-2.4 1.55,0.2 -0.25,-0.85 1.05,0.05 -1.65,-1.6 8.4,-2.4 -0.9,-1.3 m 4.7,-5 -0.2,-0.05 0.1,-0.1 0.1,0.15"
         id="path26"
         inkscape:connector-curvature="0"
         style="fill:url(#gradient3);fill-rule:evenodd;stroke:none" />
      <path
         d="m 3.05,-23.3 1.15,1.6 q -3.4,2.9 -2.6,7.35 0.2,1.35 1.5,2.25 l -5.2,1.05 -2.7,3.8 1.45,2.65 q -2.6,2.1 -6.35,0.7 l 1.75,0.1 0.95,-2.55 q 3.45,-6.85 4,-14.2 l 6.05,-2.75"
         id="path28"
         inkscape:connector-curvature="0"
         style="fill:url(#gradient4);fill-rule:evenodd;stroke:none" />
      <path
         d="m 8.65,-18.25 0.6,0.1 0.1,1.1 q -0.6,-0.5 -0.7,-1.2 m -5.55,3.5 -0.2,-0.5 q 0.65,1.35 0.2,0.5 m 2.65,5.35 0.9,-0.85 2.5,0.05 -1.15,-1.4 -0.9,-0.2 0.55,-0.05 q 1.9,-0.3 1.9,-2.2 l -0.05,-0.55 1.05,1.1 0.25,2.4 0.2,2.1 -0.95,-1.6 -1.45,1.4 1.95,2.7 -8.2,6.3 -0.8,-0.6 4.55,-6.3 -1.9,0.95 1.55,-3.25"
         id="path30"
         inkscape:connector-curvature="0"
         style="fill:url(#gradient5);fill-rule:evenodd;stroke:none" />
      <path
         d="m 11,-9 -0.2,-2.1 2.65,-0.3 0.85,0.5 6.65,-1.15 -0.85,2.3 2.45,5.95 -0.3,0.45 -0.15,1.35 -1.6,0.45 q 0.05,0.75 -1.05,0.8 -4.5,0 -6.05,-4.5 L 15,-6.8 11,-9"
         id="path32"
         inkscape:connector-curvature="0"
         style="fill:url(#gradient6);fill-rule:evenodd;stroke:none" />
      <path
         d="m 24.15,-25.55 0.75,1.4 4.45,-1.75 0.7,1.2 -1,0.9 0.15,1.35 -4.95,5.05 -3.15,1.35 -0.4,-4.8 3.5,-2.9 -0.75,-0.65 -0.1,-0.15 0.8,-1"
         id="path34"
         inkscape:connector-curvature="0"
         style="fill:url(#gradient7);fill-rule:evenodd;stroke:none" />
      <path
         d="m 27.9,-23.75 5.7,-0.15 -12.65,9.65 -0.9,-4.75 q 2.9,-3.75 7.85,-4.75 m -4.75,6.3 v 0.05 h 0.05 l -0.05,-0.05"
         id="path36"
         inkscape:connector-curvature="0"
         style="fill:#ffffff;fill-rule:evenodd;stroke:none" />
      <path
         d="m 1.4,-37.25 1.4,-0.8 q 4.5,4.1 3,10.9 l -2.25,0.05 q -5.2,-4.35 -2.15,-10.15"
         id="path38"
         inkscape:connector-curvature="0"
         style="fill:url(#gradient8);fill-rule:evenodd;stroke:none" />
      <path
         d="m 19.2,-31.75 -0.2,0.5 q -0.95,1.6 -2.75,1.85 -1.1,0.15 -1.8,-0.65 -0.5,-0.5 -0.5,-1.15 -1.35,-3.15 2.05,-4.35 l 1.4,-0.3 q 3.1,1.2 1.8,4.1"
         id="path40"
         inkscape:connector-curvature="0"
         style="fill:url(#gradient9);fill-rule:evenodd;stroke:none" />
      <path
         d="m 16.35,-5.95 q -0.75,-2.85 1.7,-3.85 3.25,1.7 2.7,5.25 -0.2,0.85 -1.1,1 -2.6,0.35 -3.3,-2.4"
         id="path42"
         inkscape:connector-curvature="0"
         style="fill:url(#gradient10);fill-rule:evenodd;stroke:none" />
      <path
         d="m -8.55,-26.7 2.95,1 q 1.35,5.5 -4.1,8.35 l -2.85,-1.6 -0.1,-0.55 q 0.15,-4.95 4.1,-7.2"
         id="path44"
         inkscape:connector-curvature="0"
         style="fill:url(#gradient11);fill-rule:evenodd;stroke:none" />
      <path
         d="m 21.5,-33.4 h 1.55 l 0.35,0.9 3.2,1.95 0.45,1.9 0.95,0.1 0.25,2.35 -1.75,0.55 -0.5,-1.85 -8.25,-9.7 3.75,3.8 m 3.4,8.5 -1.3,0.85 -3.15,-4 4.45,3.15 M 12.55,-25 10,-42.05 l 1.7,4 q 2.45,5.9 2.75,12.4 L 12.55,-25 M 1.8,-38.2 l 0.8,1 0.1,1.55 -3.35,2.8 -0.05,2.1 3.65,2.7 0.45,2.05 -1.35,-2.05 -6.25,-2.65 -0.45,-3.45 -1.6,-0.15 8.05,-3.9 m 8.9,25.6 -0.15,1.4 -1.75,-3.6 1.7,1.5 9,-1.55 -1.05,-4.25 0.85,-0.25 2.05,2.15 5.8,-3.45 -5.2,3.75 -0.95,2.15 1.9,-1.95 -0.55,1.2 -1.65,1.5 -1.1,-0.45 -8.9,1.85 m -7.2,-5.35 q -0.15,5.9 5.7,6.6 -6.1,0.4 -6.4,-5.8 l 0.7,-0.8 m 1.2,-5.75 -0.9,1.15 -0.4,-3.4 1.3,2.25 m 4.8,13.4 q 5,2.75 6.65,8.2 l 2.1,0.85 -3.05,-0.1 -1.3,-2.85 Q 10.6,-5.9 9.7,-9.4 l -0.2,-0.9 m 18.25,-10.7 0.3,-0.2 1.55,14.4 Q 25.8,-12.65 27,-20.2 l 0.75,-0.8 m -5.2,16.15 -0.25,0.6 q -0.3,0.2 -0.7,0.2 l -0.65,-0.2 q -0.3,-0.25 -0.3,-0.6 0,-0.35 0.3,-0.55 l 0.65,-0.25 0.7,0.25 0.25,0.55 m -25.7,-18.45 0.8,0.6 q -0.2,5.7 -5.5,7.05 -0.75,0.3 -1.55,0.4 l 6.25,-8.05"
         id="path46"
         inkscape:connector-curvature="0"
         style="fill:#002b55;fill-rule:evenodd;stroke:none" />
    </g>
    <radialGradient
       cx="0"
       cy="0"
       gradientTransform="matrix(0.032,0,0,0.032,14.75,-43.8)"
       gradientUnits="userSpaceOnUse"
       id="gradient0"
       r="819.20001"
       spreadMethod="pad">
      <stop
         offset="0.22745098039215686"
         stop-color="#ffffff"
         id="stop49" />
      <stop
         offset="0.8627450980392157"
         stop-color="#4969ab"
         id="stop51" />
    </radialGradient>
    <radialGradient
       cx="0"
       cy="0"
       gradientTransform="matrix(0.0239,0,0,0.0239,25.7,-15.15)"
       gradientUnits="userSpaceOnUse"
       id="gradient1"
       r="819.20001"
       spreadMethod="pad">
      <stop
         offset="0.22745098039215686"
         stop-color="#ffffff"
         id="stop54" />
      <stop
         offset="0.8627450980392157"
         stop-color="#4969ab"
         id="stop56" />
    </radialGradient>
    <radialGradient
       cx="0"
       cy="0"
       gradientTransform="matrix(0.0342,0,0,0.0342,-8.3,-18.9)"
       gradientUnits="userSpaceOnUse"
       id="gradient2"
       r="819.20001"
       spreadMethod="pad">
      <stop
         offset="0.22745098039215686"
         stop-color="#ffffff"
         id="stop59" />
      <stop
         offset="0.8627450980392157"
         stop-color="#4969ab"
         id="stop61" />
    </radialGradient>
    <radialGradient
       cx="0"
       cy="0"
       gradientTransform="matrix(0.013,0,0,0.013,17.4,-19.5)"
       gradientUnits="userSpaceOnUse"
       id="gradient3"
       r="819.20001"
       spreadMethod="pad">
      <stop
         offset="0.22745098039215686"
         stop-color="#ffffff"
         id="stop64" />
      <stop
         offset="0.8627450980392157"
         stop-color="#4969ab"
         id="stop66" />
    </radialGradient>
    <radialGradient
       cx="0"
       cy="0"
       gradientTransform="matrix(0.0148,0,0,0.0148,-2.75,-13.25)"
       gradientUnits="userSpaceOnUse"
       id="gradient4"
       r="819.20001"
       spreadMethod="pad">
      <stop
         offset="0.22745098039215686"
         stop-color="#ffffff"
         id="stop69" />
      <stop
         offset="0.8627450980392157"
         stop-color="#4969ab"
         id="stop71" />
    </radialGradient>
    <radialGradient
       cx="0"
       cy="0"
       gradientTransform="matrix(0.014,0,0,0.014,6.25,-10.6)"
       gradientUnits="userSpaceOnUse"
       id="gradient5"
       r="819.20001"
       spreadMethod="pad">
      <stop
         offset="0.22745098039215686"
         stop-color="#ffffff"
         id="stop74" />
      <stop
         offset="0.8627450980392157"
         stop-color="#4969ab"
         id="stop76" />
    </radialGradient>
    <radialGradient
       cx="0"
       cy="0"
       gradientTransform="matrix(0.0092,0,0,0.0092,16.7,-6.4)"
       gradientUnits="userSpaceOnUse"
       id="gradient6"
       r="819.20001"
       spreadMethod="pad">
      <stop
         offset="0.22745098039215686"
         stop-color="#ffffff"
         id="stop79" />
      <stop
         offset="0.8627450980392157"
         stop-color="#4969ab"
         id="stop81" />
    </radialGradient>
    <radialGradient
       cx="0"
       cy="0"
       gradientTransform="matrix(0.0084,0,0,0.0084,25.2,-20.45)"
       gradientUnits="userSpaceOnUse"
       id="gradient7"
       r="819.20001"
       spreadMethod="pad">
      <stop
         offset="0.22745098039215686"
         stop-color="#ffffff"
         id="stop84" />
      <stop
         offset="0.8627450980392157"
         stop-color="#4969ab"
         id="stop86" />
    </radialGradient>
    <linearGradient
       gradientTransform="matrix(0.0036,0,0,0.0069,3.05,-32.4)"
       gradientUnits="userSpaceOnUse"
       id="gradient8"
       spreadMethod="pad"
       x1="-819.20001"
       x2="819.20001">
      <stop
         offset="0.40784313725490196"
         stop-color="#ffffff"
         id="stop89" />
      <stop
         offset="0.7725490196078432"
         stop-color="#6ba9f3"
         id="stop91" />
    </linearGradient>
    <linearGradient
       gradientTransform="matrix(0.0037,0,0,0.004,16.6,-32.65)"
       gradientUnits="userSpaceOnUse"
       id="gradient9"
       spreadMethod="pad"
       x1="-819.20001"
       x2="819.20001">
      <stop
         offset="0.40784313725490196"
         stop-color="#ffffff"
         id="stop94" />
      <stop
         offset="0.7725490196078432"
         stop-color="#6ba9f3"
         id="stop96" />
    </linearGradient>
    <linearGradient
       gradientTransform="matrix(0.0028,0,0,0.0038,18.45,-6.65)"
       gradientUnits="userSpaceOnUse"
       id="gradient10"
       spreadMethod="pad"
       x1="-819.20001"
       x2="819.20001">
      <stop
         offset="0.40784313725490196"
         stop-color="#ffffff"
         id="stop99" />
      <stop
         offset="0.7725490196078432"
         stop-color="#6ba9f3"
         id="stop101" />
    </linearGradient>
    <linearGradient
       gradientTransform="matrix(0.0047,0,0,0.0057,-8.9,-22.05)"
       gradientUnits="userSpaceOnUse"
       id="gradient11"
       spreadMethod="pad"
       x1="-819.20001"
       x2="819.20001">
      <stop
         offset="0.40784313725490196"
         stop-color="#ffffff"
         id="stop104" />
      <stop
         offset="0.7725490196078432"
         stop-color="#6ba9f3"
         id="stop106" />
    </linearGradient>
  </defs>
</svg>
