<?xml version="1.0" encoding="UTF-8" standalone="no"?>
<svg xmlns:xlink="http://www.w3.org/1999/xlink" height="33.15px" width="29.25px" xmlns="http://www.w3.org/2000/svg">
  <g transform="matrix(1.0, 0.0, 0.0, 1.0, 14.75, 32.3)">
    <path d="M5.35 -32.25 L6.85 -31.6 7.25 -31.2 7.35 -30.65 Q6.7 -27.55 5.2 -24.65 L5.2 -24.7 4.05 -22.95 5.5 -17.8 Q6.45 -17.65 7.1 -17.0 L7.15 -16.95 Q8.4 -15.3 8.3 -13.15 8.2 -10.65 9.5 -8.6 L9.65 -8.15 9.65 -7.45 11.4 -7.25 11.65 -7.15 Q12.6 -6.9 13.55 -6.3 L13.7 -6.15 Q14.65 -5.05 14.45 -3.5 L14.45 -3.45 14.45 -2.9 Q14.25 -1.95 13.65 -1.3 8.65 0.35 6.95 0.5 L2.95 0.85 Q-6.15 0.95 -10.1 -0.15 L-14.25 -1.45 Q-15.2 -3.4 -14.25 -5.0 L-14.05 -5.25 -13.65 -5.65 -11.0 -6.8 -11.35 -7.6 -11.4 -7.7 -11.55 -8.2 Q-11.9 -9.85 -10.85 -11.2 L-8.75 -14.0 -8.7 -14.0 Q-8.15 -14.8 -8.0 -15.8 -8.8 -18.35 -7.6 -20.85 -7.0 -22.3 -5.2 -24.3 -5.5 -25.1 -5.1 -25.7 L-5.05 -25.75 Q-3.65 -28.1 -1.7 -29.9 L-1.0 -30.5 -1.0 -30.55 Q1.1 -32.35 4.0 -32.3 L5.15 -32.25 5.35 -32.25 M4.7 -18.0 L3.2 -23.25 4.55 -25.15 Q5.95 -27.9 6.6 -30.9 L5.15 -31.5 4.1 -31.55 Q1.5 -31.6 -0.4 -29.95 L-1.05 -29.35 Q-2.9 -27.65 -4.25 -25.35 -4.55 -24.9 -4.05 -24.3 -6.1 -22.1 -6.75 -20.6 -7.85 -18.3 -7.05 -15.95 -7.2 -14.65 -8.0 -13.55 L-10.1 -10.8 Q-10.9 -9.75 -10.6 -8.45 L-10.5 -8.05 -9.8 -6.5 -13.25 -4.95 -13.7 -4.1 -13.75 -3.95 Q-14.05 -2.7 -13.2 -1.6 L-13.0 -1.3 Q-4.9 0.85 0.9 0.65 L8.05 0.05 10.3 -0.65 11.65 -1.1 12.65 -1.65 Q13.5 -2.2 13.65 -3.15 L13.7 -3.65 Q13.85 -4.85 13.15 -5.7 L11.5 -6.45 11.35 -6.5 8.9 -6.75 8.9 -8.2 Q7.4 -10.55 7.55 -13.25 7.6 -15.1 6.6 -16.5 5.95 -17.15 4.95 -17.15 L4.7 -18.0" fill="#000000" fill-rule="evenodd" stroke="none"/>
    <path d="M5.15 -31.5 L6.6 -30.9 Q5.95 -27.9 4.55 -25.15 L3.2 -23.25 4.7 -18.0 0.4 -16.8 6.6 -16.5 Q7.6 -15.1 7.55 -13.25 7.4 -10.55 8.9 -8.2 2.45 -5.55 -4.7 -6.0 L-4.85 -5.8 -4.9 -5.6 Q2.0 -4.55 8.95 -5.85 L11.05 -6.3 11.5 -6.45 13.15 -5.7 Q13.0 -4.1 11.55 -3.55 9.45 -2.8 7.2 -2.6 L1.3 -2.1 -4.05 -2.45 -9.7 -3.5 -9.5 -4.9 -6.25 -5.75 -5.7 -6.55 -5.85 -7.1 Q-8.15 -7.5 -8.8 -9.6 L-4.3 -12.55 Q-1.1 -11.8 2.15 -12.55 L-4.6 -14.95 -5.1 -17.4 -3.1 -22.2 -1.5 -22.6 -1.3 -22.85 Q0.2 -22.5 1.4 -23.15 L2.15 -23.6 1.35 -24.4 0.6 -24.55 0.35 -24.9 -0.65 -25.35 -0.4 -25.7 -0.4 -26.1 Q1.95 -29.25 5.15 -31.5 M-13.75 -3.95 L-13.7 -4.1 -13.65 -3.95 -13.75 -3.95 M-7.05 -15.95 L-6.75 -15.8 -7.05 -15.95" fill="#594faa" fill-rule="evenodd" stroke="none"/>
    <path d="M4.7 -18.0 L4.95 -17.15 Q5.95 -17.15 6.6 -16.5 L0.4 -16.8 4.7 -18.0 M8.9 -8.2 L8.9 -6.75 6.05 -6.35 8.95 -5.85 Q2.0 -4.55 -4.9 -5.6 L-4.85 -5.8 -4.7 -6.0 Q2.45 -5.55 8.9 -8.2 M11.35 -6.5 L11.5 -6.45 11.05 -6.3 11.35 -6.5 M13.15 -5.7 Q13.85 -4.85 13.7 -3.65 L13.65 -3.15 Q6.9 -0.4 -0.85 -0.75 -8.6 -1.05 -12.25 -2.75 L-12.15 -3.7 Q-12.45 -4.55 -11.3 -5.0 -10.2 -5.45 -9.8 -6.25 L-8.45 -6.4 -7.7 -7.55 -8.25 -7.9 -10.5 -8.05 -10.6 -8.45 Q-10.0 -11.6 -7.05 -12.9 -5.6 -13.6 -4.05 -13.35 -4.0 -13.3 -3.85 -13.45 L-4.7 -13.95 -4.75 -14.45 -6.2 -15.05 Q-7.1 -20.15 -5.35 -21.9 -3.6 -23.6 -2.45 -24.0 L-1.2 -24.6 -2.3 -25.15 -3.05 -25.25 -0.4 -29.95 Q1.5 -31.6 4.1 -31.55 L5.15 -31.5 Q1.95 -29.25 -0.4 -26.1 L-0.4 -25.7 -0.65 -25.35 0.35 -24.9 0.6 -24.55 1.35 -24.4 2.15 -23.6 1.4 -23.15 Q0.2 -22.5 -1.3 -22.85 L-1.5 -22.6 -3.1 -22.2 -5.1 -17.4 -4.6 -14.95 2.15 -12.55 Q-1.1 -11.8 -4.3 -12.55 L-8.8 -9.6 Q-8.15 -7.5 -5.85 -7.1 L-5.7 -6.55 -6.25 -5.75 -9.5 -4.9 -9.7 -3.5 -4.05 -2.45 1.3 -2.1 7.2 -2.6 Q9.45 -2.8 11.55 -3.55 13.0 -4.1 13.15 -5.7" fill="#484088" fill-rule="evenodd" stroke="none"/>
    <path d="M8.9 -6.75 L11.35 -6.5 11.05 -6.3 8.95 -5.85 6.05 -6.35 8.9 -6.75 M13.65 -3.15 Q13.5 -2.2 12.65 -1.65 L11.65 -1.1 10.3 -0.65 8.05 0.05 0.9 0.65 Q-4.9 0.85 -13.0 -1.3 L-13.2 -1.6 Q-14.05 -2.7 -13.75 -3.95 L-13.65 -3.95 -13.7 -4.1 -13.25 -4.95 -9.8 -6.5 -10.5 -8.05 -8.25 -7.9 -7.7 -7.55 -8.45 -6.4 -9.8 -6.25 Q-10.2 -5.45 -11.3 -5.0 -12.45 -4.55 -12.15 -3.7 L-12.25 -2.75 Q-8.6 -1.05 -0.85 -0.75 6.9 -0.4 13.65 -3.15 M-10.6 -8.45 Q-10.9 -9.75 -10.1 -10.8 L-8.0 -13.55 Q-7.2 -14.65 -7.05 -15.95 -7.85 -18.3 -6.75 -20.6 -6.1 -22.1 -4.05 -24.3 -4.55 -24.9 -4.25 -25.35 -2.9 -27.65 -1.05 -29.35 L-0.4 -29.95 -3.05 -25.25 -2.3 -25.15 -1.2 -24.6 -2.45 -24.0 Q-3.6 -23.6 -5.35 -21.9 -7.1 -20.15 -6.2 -15.05 L-4.75 -14.45 -4.7 -13.95 -3.85 -13.45 Q-4.0 -13.3 -4.05 -13.35 -5.6 -13.6 -7.05 -12.9 -10.0 -11.6 -10.6 -8.45 M-7.05 -15.95 L-6.75 -15.8 -7.05 -15.95" fill="#312c5f" fill-rule="evenodd" stroke="none"/>
    <path d="M0.95 -12.6 L1.2 -12.15 1.95 -9.65 4.8 -10.05 5.4 -9.9 5.8 -9.55 6.25 -8.6 6.35 -8.0 6.0 -7.45 3.7 -5.6 4.95 -3.75 5.05 -3.4 5.05 -3.0 4.8 -1.85 4.45 -1.4 Q4.25 -1.2 3.95 -1.15 L3.45 -1.25 0.55 -2.8 -1.8 -1.3 -2.3 -1.15 -3.4 -1.15 -3.95 -1.35 -4.25 -1.85 -4.2 -2.45 -3.1 -5.15 -4.95 -6.0 Q-5.25 -6.1 -5.4 -6.35 L-5.55 -6.85 -5.55 -7.7 -5.3 -8.3 Q-5.1 -8.55 -4.75 -8.6 L-2.3 -9.05 -1.45 -11.65 -1.05 -12.15 Q-0.55 -12.45 -0.15 -12.7 L0.45 -12.85 0.95 -12.6" fill="#8f6f01" fill-rule="evenodd" stroke="none"/>
    <path d="M4.15 -3.45 L4.25 -3.3 3.95 -2.15 0.6 -3.95 -2.2 -2.15 -3.3 -2.15 -1.8 -5.7 -4.5 -6.9 -4.5 -7.75 -1.5 -8.3 -0.45 -11.4 0.45 -11.95 1.35 -8.65 5.05 -9.15 5.5 -8.25 2.55 -5.85 4.0 -3.7 1.85 -5.6 3.4 -3.45 4.15 -3.45 M-4.05 -7.75 L-4.05 -7.35 -1.75 -7.35 -1.75 -7.75 -4.05 -7.75 M2.0 -8.4 L1.0 -8.5 0.4 -11.2 -0.3 -10.7 0.65 -8.05 4.3 -8.05 4.9 -8.7 2.0 -8.4" fill="#ffcc00" fill-rule="evenodd" stroke="none"/>
    <path d="M4.0 -3.7 L4.15 -3.45 3.4 -3.45 1.85 -5.6 4.0 -3.7 M2.0 -8.4 L4.9 -8.7 4.3 -8.05 0.65 -8.05 -0.3 -10.7 0.4 -11.2 1.0 -8.5 2.0 -8.4 M-4.05 -7.75 L-1.75 -7.75 -1.75 -7.35 -4.05 -7.35 -4.05 -7.75" fill="#ffffff" fill-rule="evenodd" stroke="none"/>
  </g>
</svg>
