<?xml version="1.0" encoding="UTF-8" standalone="no"?>
<svg xmlns:xlink="http://www.w3.org/1999/xlink" height="19.65px" width="21.25px" xmlns="http://www.w3.org/2000/svg">
  <g transform="matrix(1.0, 0.0, 0.0, 1.0, 10.6, 18.7)">
    <path d="M0.25 -18.7 L0.65 -18.65 0.6 -18.65 Q5.9 -17.75 8.95 -13.65 L8.95 -13.7 10.0 -11.8 10.05 -11.65 10.5 -10.0 10.55 -7.2 Q10.1 -4.1 7.1 -1.75 L7.15 -1.75 Q5.9 -0.75 4.85 -0.1 L4.85 -0.15 4.55 0.0 4.55 0.05 Q-0.55 1.85 -4.05 0.05 -5.2 -0.3 -7.8 -2.2 L-7.8 -2.15 Q-10.4 -3.9 -10.55 -7.2 -10.65 -8.4 -10.35 -9.8 L-10.35 -10.0 Q-9.45 -14.8 -6.6 -16.5 L-6.65 -16.5 Q-3.55 -18.6 0.2 -18.7 L0.25 -18.7" fill="#000000" fill-rule="evenodd" stroke="none"/>
    <path d="M-7.25 -3.0 Q-10.25 -5.05 -9.4 -9.65 -8.6 -14.1 -6.1 -15.65 -3.25 -17.6 0.2 -17.7 L0.4 -17.65 Q5.35 -16.85 8.15 -13.05 L9.05 -11.45 9.05 -11.4 Q10.95 -6.1 6.5 -2.5 L4.35 -1.0 4.2 -0.9 Q-0.5 0.8 -3.7 -0.9 -4.75 -1.2 -7.25 -3.0" fill="#bbffff" fill-rule="evenodd" stroke="none"/>
    <path d="M1.4 -14.25 Q1.5 -15.25 0.1 -16.0 -0.65 -16.0 -1.3 -15.55 L-2.3 -14.4 -4.4 -13.65 -5.0 -13.85 Q-8.35 -12.7 -8.0 -9.25 -7.95 -8.55 -7.45 -8.15 L-7.3 -7.35 -6.8 -7.8 -6.65 -7.75 Q-5.05 -7.45 -4.05 -8.15 -2.15 -7.5 -2.6 -5.5 -2.85 -4.2 -4.2 -3.55 L-0.8 -2.85 Q-1.7 -3.65 -1.85 -4.95 L-2.0 -6.15 Q-2.1 -7.1 -1.65 -7.9 -0.8 -9.5 0.85 -10.05 3.95 -9.85 5.35 -7.05 5.85 -9.25 5.15 -11.35 4.8 -12.55 3.75 -13.2 2.65 -13.95 1.4 -14.25 M-1.65 -12.95 L-0.5 -12.4 -0.6 -12.25 Q-1.8 -12.3 -1.65 -12.95 M7.95 -11.1 Q9.6 -6.4 5.7 -3.3 L3.7 -1.85 Q-0.65 -0.3 -3.55 -1.85 -4.45 -2.1 -6.8 -3.8 -9.3 -5.6 -8.55 -9.45 -7.9 -13.4 -5.7 -14.85 -3.05 -16.6 0.1 -16.7 4.6 -15.9 7.2 -12.45 L7.95 -11.1 M1.45 -12.45 L2.05 -12.7 Q4.7 -12.05 3.05 -10.25 2.5 -9.7 1.8 -10.0 -0.6 -11.0 1.45 -12.45 M-3.35 -8.95 L-2.85 -10.05 -1.8 -10.4 Q-1.1 -10.3 -1.05 -9.6 L-1.05 -9.5 Q-2.05 -7.75 -3.35 -8.95" fill="#00cccc" fill-rule="evenodd" stroke="none"/>
    <path d="M1.4 -14.25 Q2.65 -13.95 3.75 -13.2 4.8 -12.55 5.15 -11.35 5.85 -9.25 5.35 -7.05 3.95 -9.85 0.85 -10.05 -0.8 -9.5 -1.65 -7.9 -2.1 -7.1 -2.0 -6.15 L-1.85 -4.95 Q-1.7 -3.65 -0.8 -2.85 L-4.2 -3.55 Q-2.85 -4.2 -2.6 -5.5 -2.15 -7.5 -4.05 -8.15 L-3.35 -8.95 Q-2.05 -7.75 -1.05 -9.5 L-1.05 -9.6 Q-1.1 -10.3 -1.8 -10.4 L-2.85 -10.05 -2.7 -10.6 Q-2.2 -11.05 -2.6 -11.5 -2.65 -13.1 -4.4 -13.65 L-2.3 -14.4 Q-2.55 -13.65 -1.65 -12.95 -1.8 -12.3 -0.6 -12.25 L-0.5 -12.4 Q0.0 -12.35 0.45 -12.75 1.3 -13.6 1.4 -14.25 M-6.8 -7.8 L-7.3 -7.35 -7.45 -8.15 -6.8 -7.8 M1.45 -12.45 Q-0.6 -11.0 1.8 -10.0 2.5 -9.7 3.05 -10.25 4.7 -12.05 2.05 -12.7 L1.45 -12.45" fill="#018382" fill-rule="evenodd" stroke="none"/>
    <path d="M-2.3 -14.4 L-1.3 -15.55 Q-0.65 -16.0 0.1 -16.0 1.5 -15.25 1.4 -14.25 1.3 -13.6 0.45 -12.75 0.0 -12.35 -0.5 -12.4 L-1.65 -12.95 Q-2.55 -13.65 -2.3 -14.4 M-4.05 -8.15 Q-5.05 -7.45 -6.65 -7.75 L-6.8 -7.8 -7.45 -8.15 Q-7.95 -8.55 -8.0 -9.25 -8.35 -12.7 -5.0 -13.85 L-4.4 -13.65 Q-2.65 -13.1 -2.6 -11.5 -2.2 -11.05 -2.7 -10.6 L-2.85 -10.05 -3.35 -8.95 -4.05 -8.15 M-1.7 -14.6 Q-1.2 -12.9 -0.1 -14.45 L-0.1 -14.5 Q-0.2 -15.35 -1.1 -15.35 L-1.3 -15.3 Q-1.9 -15.15 -1.7 -14.6 M-6.35 -12.4 Q-7.95 -11.25 -6.7 -9.95 -5.8 -9.0 -4.95 -9.95 -3.35 -11.85 -5.45 -12.8 L-6.35 -12.4" fill="#bbffff" fill-rule="evenodd" stroke="none"/>
    <path d="M-1.7 -14.6 Q-1.9 -15.15 -1.3 -15.3 L-1.1 -15.35 Q-0.2 -15.35 -0.1 -14.5 L-0.1 -14.45 Q-1.2 -12.9 -1.7 -14.6 M-6.35 -12.4 L-5.45 -12.8 Q-3.35 -11.85 -4.95 -9.95 -5.8 -9.0 -6.7 -9.95 -7.95 -11.25 -6.35 -12.4" fill="#ffffff" fill-rule="evenodd" stroke="none"/>
  </g>
</svg>
