<?xml version="1.0" encoding="UTF-8" standalone="no"?>
<svg xmlns:xlink="http://www.w3.org/1999/xlink" height="32.05px" width="34.1px" xmlns="http://www.w3.org/2000/svg">
  <g transform="matrix(1.0, 0.0, 0.0, 1.0, 17.45, 32.1)">
    <path d="M8.05 -28.85 L7.9 -28.7 8.2 -27.7 Q8.55 -26.9 8.95 -26.8 L9.4 -27.35 9.55 -27.5 9.8 -27.6 10.1 -27.55 10.45 -27.35 10.55 -27.0 10.65 -26.45 10.65 -26.35 Q10.5 -25.4 9.6 -25.0 L9.65 -25.05 9.3 -24.9 9.25 -24.9 8.8 -24.85 8.7 -24.85 8.55 -24.85 Q6.4 -24.75 5.55 -28.5 L5.45 -29.0 5.45 -29.1 Q5.35 -32.1 10.3 -32.1 16.6 -32.15 16.65 -24.6 16.65 -19.2 11.8 -19.25 L11.75 -19.25 10.55 -19.4 10.45 -18.95 10.45 -18.9 10.25 -19.0 10.25 -18.65 10.35 -18.85 10.4 -18.8 12.1 -16.4 12.2 -16.0 12.05 -15.7 6.5 -10.7 6.75 -9.35 Q7.05 -8.05 7.65 -7.4 L7.7 -7.4 7.9 -7.2 8.45 -7.05 8.7 -7.0 Q10.35 -6.7 11.15 -8.0 L11.15 -8.7 11.15 -8.75 10.9 -9.65 10.65 -9.9 10.6 -9.9 10.5 -9.9 10.2 -9.9 10.4 -9.65 10.45 -8.65 9.6 -8.1 Q8.0 -7.65 7.55 -9.35 L7.55 -9.4 Q7.45 -10.0 7.65 -10.65 7.9 -11.9 9.8 -12.2 L10.25 -12.25 10.35 -12.25 11.05 -12.25 Q12.7 -12.05 13.55 -10.0 L13.95 -8.3 13.95 -8.2 Q13.55 -5.35 10.9 -3.95 L10.85 -3.95 Q9.4 -3.25 8.2 -3.35 7.3 -3.4 6.55 -3.8 5.6 -4.35 4.85 -5.5 L3.8 -7.25 3.45 -6.2 Q2.75 -3.55 2.35 -0.8 L2.2 -0.55 1.95 -0.4 -0.25 -0.05 -0.35 -0.05 -0.45 -0.05 -0.65 -0.1 -2.7 -0.4 -3.0 -0.55 -3.15 -0.8 -4.2 -6.2 -4.2 -6.25 -4.55 -7.25 -5.6 -5.5 Q-6.4 -4.35 -7.35 -3.8 -8.1 -3.4 -8.95 -3.35 -10.2 -3.25 -11.65 -3.95 -14.35 -5.35 -14.75 -8.2 L-14.75 -8.3 -14.35 -10.0 -14.3 -10.0 Q-13.5 -12.05 -11.85 -12.25 L-11.15 -12.25 -11.05 -12.25 -10.55 -12.2 Q-8.7 -11.9 -8.4 -10.65 L-8.3 -9.4 -8.35 -9.35 Q-8.8 -7.65 -10.4 -8.1 L-11.2 -8.65 Q-11.45 -9.05 -11.2 -9.65 L-10.95 -9.9 -11.3 -9.9 -11.4 -9.9 -11.45 -9.9 -11.65 -9.65 -11.9 -8.75 -11.9 -8.7 -11.95 -8.0 Q-11.15 -6.7 -9.5 -7.0 L-9.25 -7.05 -8.65 -7.2 -8.45 -7.4 Q-7.85 -8.05 -7.5 -9.35 L-7.3 -10.7 -12.8 -15.7 -13.0 -16.0 -12.9 -16.4 -11.15 -18.8 -11.15 -18.85 -11.05 -18.65 -11.0 -19.0 -11.25 -18.9 -11.2 -18.95 -11.3 -19.4 -12.5 -19.25 -12.6 -19.25 Q-17.45 -19.2 -17.45 -24.6 -17.4 -32.15 -11.1 -32.1 -6.15 -32.1 -6.25 -29.1 L-6.25 -29.0 -6.35 -28.5 Q-7.2 -24.75 -9.35 -24.85 L-9.5 -24.85 -9.55 -24.85 -10.05 -24.9 -10.4 -25.05 -10.4 -25.0 Q-11.3 -25.4 -11.45 -26.35 L-11.45 -26.45 -11.35 -27.0 -11.2 -27.35 -10.9 -27.55 -10.6 -27.6 -10.35 -27.5 -10.15 -27.35 -9.75 -26.8 Q-9.35 -26.9 -9.0 -27.7 L-8.7 -28.7 -8.8 -28.85 -10.5 -29.1 Q-12.3 -29.1 -13.2 -28.05 -14.1 -26.95 -14.05 -24.7 -14.05 -22.85 -12.7 -22.75 L-11.3 -22.95 -10.15 -23.05 -10.1 -23.05 Q-9.1 -23.05 -8.45 -22.7 L-7.95 -23.45 -7.65 -23.6 -7.35 -23.6 -0.4 -20.5 6.55 -23.6 6.9 -23.6 7.15 -23.45 7.7 -22.7 9.3 -23.05 9.35 -23.05 10.5 -22.95 10.55 -22.95 11.95 -22.75 Q13.25 -22.85 13.25 -24.7 13.3 -26.95 12.4 -28.05 11.5 -29.1 9.7 -29.1 L8.05 -28.85" fill="#2d416c" fill-rule="evenodd" stroke="none"/>
    <path d="M10.45 -22.5 L11.85 -22.3 Q13.75 -22.3 13.75 -24.75 13.85 -29.65 9.7 -29.65 L7.8 -29.3 7.65 -29.4 Q7.4 -29.4 7.3 -28.85 7.25 -28.35 6.75 -28.35 L6.05 -28.65 5.95 -29.15 Q5.95 -31.65 10.3 -31.65 16.1 -31.65 16.15 -24.65 16.15 -19.8 11.8 -19.8 L10.0 -20.05 10.05 -19.95 9.85 -18.95 10.05 -18.65 10.1 -18.65 10.0 -18.6 9.95 -18.6 11.7 -16.15 6.0 -10.95 5.9 -10.9 4.05 -8.75 3.8 -8.4 Q3.2 -7.5 2.95 -6.4 2.25 -3.7 1.85 -0.95 L-0.35 -0.6 -0.45 -0.6 -0.45 -0.65 -2.65 -0.95 Q-3.05 -3.7 -3.75 -6.4 -4.0 -7.5 -4.6 -8.4 L-4.85 -8.75 -6.7 -10.9 -6.75 -10.95 -12.5 -16.15 -10.75 -18.6 -10.85 -18.65 -10.6 -18.95 -10.85 -19.95 -10.8 -20.05 -12.6 -19.8 Q-16.95 -19.8 -16.95 -24.65 -16.9 -31.65 -11.1 -31.65 -6.75 -31.65 -6.75 -29.15 L-6.85 -28.65 -7.55 -28.35 Q-8.05 -28.35 -8.1 -28.85 -8.2 -29.4 -8.45 -29.4 L-8.55 -29.3 -10.5 -29.65 Q-14.65 -29.65 -14.55 -24.75 -14.55 -22.3 -12.65 -22.3 L-11.25 -22.5 -11.9 -22.4 -11.4 -22.3 Q-10.15 -22.1 -10.15 -20.85 L-10.3 -20.25 -9.95 -19.95 Q-9.4 -19.95 -9.0 -21.2 L-8.35 -22.1 -7.55 -23.2 -0.4 -20.0 6.75 -23.2 7.55 -22.1 7.6 -22.1 8.2 -21.2 Q8.6 -19.95 9.15 -19.95 9.5 -19.95 9.5 -20.25 L9.35 -20.85 Q9.35 -22.1 10.6 -22.3 L11.1 -22.4 10.45 -22.5 M8.95 -26.35 Q9.35 -26.35 9.8 -27.15 L10.0 -27.1 10.15 -26.5 Q10.05 -25.8 9.45 -25.55 L9.35 -25.55 Q8.85 -25.55 8.85 -26.15 L8.95 -26.35 M13.8 -29.15 Q14.9 -25.35 14.9 -23.85 L14.65 -22.65 Q14.65 -22.2 15.1 -22.2 15.9 -22.2 15.9 -23.9 15.5 -29.5 14.2 -29.5 13.8 -29.5 13.8 -29.15 M5.65 -21.4 L5.7 -21.3 5.45 -21.35 Q4.95 -21.35 -0.35 -18.95 L-0.4 -18.95 -0.45 -18.9 -0.45 -18.95 Q-5.75 -21.35 -6.25 -21.35 L-6.45 -21.3 -6.45 -21.4 -6.7 -21.8 -8.35 -19.1 -10.3 -16.35 Q-10.3 -15.95 -9.85 -15.95 L-6.6 -21.0 -1.65 -18.4 -0.45 -17.8 -0.45 -17.75 -0.4 -17.8 -0.35 -17.8 0.85 -18.4 5.85 -21.0 9.05 -15.95 Q9.5 -15.95 9.5 -16.35 L7.55 -19.1 5.9 -21.8 5.65 -21.4 M4.6 -16.6 L4.25 -16.25 Q4.25 -15.3 5.4 -15.15 7.25 -15.3 7.25 -16.55 7.25 -17.5 6.5 -17.5 L6.15 -17.2 6.55 -16.55 Q6.55 -15.9 5.55 -15.9 5.05 -15.9 4.95 -16.25 L4.6 -16.6 M4.15 -17.65 Q4.15 -17.1 4.95 -17.1 5.8 -17.1 5.8 -17.7 5.8 -18.25 4.9 -18.25 4.0 -18.25 4.15 -17.65 M-0.05 -17.25 L-0.35 -16.95 -0.35 -16.9 Q-0.3 -15.3 2.1 -15.3 3.05 -15.3 3.3 -14.6 L3.6 -14.9 Q3.6 -16.05 2.25 -16.05 L1.3 -15.95 Q0.7 -15.95 0.5 -16.6 0.3 -17.25 -0.05 -17.25 M0.85 -13.7 Q-0.15 -13.7 -0.3 -12.95 L-0.05 -12.7 Q0.25 -13.1 0.75 -13.1 L1.7 -12.95 2.25 -12.75 Q3.1 -12.75 3.45 -13.2 L3.65 -13.75 3.65 -14.05 3.4 -14.35 Q2.9 -13.45 2.2 -13.45 L0.85 -13.7 M5.7 -13.55 Q4.1 -12.15 3.65 -11.35 L3.3 -10.85 1.75 -9.1 1.3 -6.9 -0.35 -6.6 -0.4 -6.6 -0.45 -6.6 -2.1 -6.9 -2.55 -9.1 -4.1 -10.85 -4.45 -11.35 Q-4.9 -12.15 -6.5 -13.55 L-7.4 -14.35 -9.2 -15.75 -9.45 -15.7 -9.45 -15.4 -7.05 -13.15 -5.15 -11.2 -4.2 -10.1 -3.5 -9.25 Q-2.8 -8.25 -2.8 -6.9 L-2.9 -6.6 Q-2.9 -5.95 -0.45 -5.85 L-0.35 -5.85 Q2.1 -5.95 2.1 -6.6 L2.0 -6.9 Q2.0 -8.25 2.7 -9.25 L3.4 -10.1 4.35 -11.2 6.25 -13.15 8.65 -15.4 8.65 -15.7 8.4 -15.75 6.6 -14.35 5.7 -13.55 M7.3 -7.1 L7.7 -6.8 8.35 -6.6 8.65 -6.55 Q10.65 -6.2 11.65 -7.85 L11.65 -8.85 11.35 -9.95 10.9 -10.4 10.7 -10.45 10.65 -10.45 10.65 -10.6 Q10.65 -11.45 9.85 -11.75 L10.3 -11.8 10.35 -11.8 11.0 -11.8 Q12.35 -11.6 13.1 -9.85 L13.45 -8.35 Q13.1 -5.7 10.65 -4.45 9.3 -3.85 8.2 -3.9 7.45 -3.95 6.8 -4.3 6.65 -4.8 6.65 -5.4 6.65 -6.65 7.3 -7.1 M0.65 -11.85 L0.65 -11.8 0.9 -11.85 0.7 -11.8 0.65 -11.65 Q1.4 -11.5 1.4 -11.15 0.65 -10.7 0.55 -10.1 L0.5 -9.1 0.6 -8.45 Q0.6 -8.1 -0.35 -7.8 L-0.2 -7.45 Q1.25 -7.6 1.25 -8.5 L1.15 -9.65 Q1.15 -10.25 1.55 -10.4 1.95 -10.5 1.95 -10.85 1.95 -11.95 1.25 -11.95 L0.85 -11.9 0.65 -11.85 M1.45 -5.8 L-0.25 -5.4 -0.3 -5.2 Q-0.3 -4.95 -0.1 -4.95 0.7 -4.95 1.65 -5.55 L1.45 -5.8 M0.7 -4.0 Q1.45 -4.2 1.6 -4.8 L1.4 -4.9 0.05 -4.65 -0.3 -4.3 Q-0.3 -3.95 -0.1 -3.95 L0.35 -3.95 Q-0.3 -3.85 -0.3 -3.4 L0.0 -3.1 Q1.55 -3.1 1.55 -3.75 1.55 -4.05 1.15 -4.05 L0.7 -4.0 M0.9 -2.55 L-0.35 -2.35 -0.4 -2.3 -0.45 -2.3 -0.45 -2.35 -1.7 -2.55 Q-2.1 -2.55 -2.1 -2.3 -1.75 -2.05 -1.4 -1.95 L-0.45 -1.65 -0.45 -1.6 -0.4 -1.6 -0.35 -1.65 0.6 -1.95 Q0.95 -2.05 1.3 -2.3 L0.9 -2.55 M12.15 -8.35 L12.5 -7.85 Q13.15 -7.85 13.0 -8.5 13.0 -9.9 12.3 -9.9 12.0 -9.9 12.0 -9.5 L12.15 -8.35 M-14.6 -29.15 L-15.0 -29.5 Q-16.3 -29.5 -16.7 -23.9 -16.7 -22.2 -15.9 -22.2 -15.45 -22.2 -15.45 -22.65 L-15.7 -23.85 Q-15.7 -25.35 -14.6 -29.15 M-10.2 -25.55 Q-10.85 -25.8 -10.95 -26.5 L-10.8 -27.1 -10.6 -27.15 -9.75 -26.35 -9.65 -26.15 Q-9.65 -25.55 -10.15 -25.55 L-10.2 -25.55 M-6.95 -17.2 L-7.3 -17.5 Q-8.05 -17.5 -8.05 -16.55 -8.05 -15.3 -6.2 -15.15 -5.05 -15.3 -5.05 -16.25 L-5.4 -16.6 -5.75 -16.25 Q-5.85 -15.9 -6.35 -15.9 -7.35 -15.9 -7.35 -16.55 L-6.95 -17.2 M-0.45 -16.9 L-0.45 -16.95 Q-0.45 -17.25 -0.75 -17.25 L-1.3 -16.6 Q-1.5 -15.95 -2.1 -15.95 L-3.05 -16.05 Q-4.4 -16.05 -4.4 -14.9 L-4.1 -14.6 Q-3.85 -15.3 -2.9 -15.3 -0.5 -15.3 -0.45 -16.9 M-5.7 -18.25 Q-6.6 -18.25 -6.6 -17.7 -6.6 -17.1 -5.75 -17.1 -4.95 -17.1 -4.95 -17.65 -4.8 -18.25 -5.7 -18.25 M-4.45 -14.05 L-4.4 -13.75 -4.2 -13.2 Q-3.9 -12.75 -3.05 -12.75 L-2.5 -12.95 -1.55 -13.1 Q-1.05 -13.1 -0.75 -12.7 -0.5 -12.7 -0.5 -12.95 -0.65 -13.7 -1.65 -13.7 L-3.0 -13.45 Q-3.7 -13.45 -4.2 -14.35 L-4.45 -14.05 M-7.6 -4.3 Q-8.25 -3.95 -9.0 -3.9 -10.1 -3.85 -11.45 -4.45 -13.9 -5.7 -14.25 -8.35 L-13.85 -9.85 Q-13.15 -11.6 -11.75 -11.8 L-11.15 -11.8 -11.1 -11.8 -10.65 -11.75 Q-11.45 -11.45 -11.45 -10.6 L-11.45 -10.45 -11.65 -10.4 -12.1 -9.95 -12.4 -8.85 -12.4 -7.85 Q-11.45 -6.2 -9.4 -6.55 L-9.15 -6.6 -8.45 -6.8 -8.1 -7.1 Q-7.45 -6.65 -7.45 -5.4 -7.45 -4.8 -7.6 -4.3 M-12.95 -8.35 L-12.8 -9.5 Q-12.8 -9.9 -13.1 -9.9 -13.8 -9.9 -13.8 -8.5 -13.95 -7.85 -13.3 -7.85 L-12.95 -8.35 M-1.65 -11.9 L-2.05 -11.95 Q-2.75 -11.95 -2.75 -10.85 -2.75 -10.5 -2.35 -10.4 -1.95 -10.25 -1.95 -9.65 L-2.05 -8.5 Q-2.05 -7.6 -0.6 -7.45 L-0.45 -7.8 Q-1.4 -8.1 -1.4 -8.45 L-1.3 -9.1 -1.35 -10.1 Q-1.45 -10.7 -2.2 -11.15 -2.2 -11.5 -1.45 -11.65 L-1.5 -11.8 -1.7 -11.85 -1.45 -11.8 -1.45 -11.85 -1.65 -11.9 M-0.5 -5.2 L-0.55 -5.4 -2.25 -5.8 -2.45 -5.55 Q-1.5 -4.95 -0.7 -4.95 -0.5 -4.95 -0.5 -5.2 M-1.1 -3.95 L-0.7 -3.95 Q-0.5 -3.95 -0.5 -4.3 -0.6 -4.65 -0.85 -4.65 L-2.2 -4.9 -2.4 -4.8 Q-2.25 -4.2 -1.45 -4.0 L-1.95 -4.05 -2.35 -3.75 Q-2.35 -3.1 -0.8 -3.1 -0.5 -3.1 -0.5 -3.4 -0.5 -3.85 -1.1 -3.95" fill="#b5f2ff" fill-rule="evenodd" stroke="none"/>
    <path d="M10.45 -22.5 L11.1 -22.4 10.6 -22.3 Q9.35 -22.1 9.35 -20.85 L9.5 -20.25 Q9.5 -19.95 9.15 -19.95 8.6 -19.95 8.2 -21.2 L7.6 -22.1 Q8.15 -22.6 9.3 -22.6 L10.45 -22.5 M-8.35 -22.1 L-9.0 -21.2 Q-9.4 -19.95 -9.95 -19.95 L-10.3 -20.25 -10.15 -20.85 Q-10.15 -22.1 -11.4 -22.3 L-11.9 -22.4 -11.25 -22.5 -10.1 -22.6 Q-8.95 -22.6 -8.35 -22.1 M-8.55 -29.3 L-8.45 -29.4 Q-8.2 -29.4 -8.1 -28.85 -8.05 -28.35 -7.55 -28.35 L-6.85 -28.65 Q-7.6 -25.4 -9.35 -25.4 L-9.5 -25.4 -9.95 -25.45 -10.2 -25.55 -10.15 -25.55 Q-9.65 -25.55 -9.65 -26.15 L-9.75 -26.35 Q-9.05 -26.35 -8.55 -27.55 L-8.2 -28.75 Q-8.2 -29.1 -8.55 -29.3 M-6.75 -10.95 L-6.7 -10.9 -4.85 -8.75 -4.6 -8.4 Q-5.3 -6.85 -6.05 -5.8 -6.75 -4.8 -7.6 -4.3 -7.45 -4.8 -7.45 -5.4 -7.45 -6.65 -8.1 -7.1 -7.4 -7.85 -7.05 -9.25 L-6.75 -10.95 M3.8 -8.4 L4.05 -8.75 5.9 -10.9 6.0 -10.95 6.25 -9.25 Q6.6 -7.85 7.3 -7.1 6.65 -6.65 6.65 -5.4 6.65 -4.8 6.8 -4.3 5.95 -4.8 5.25 -5.8 L3.8 -8.4 M6.05 -28.65 L6.75 -28.35 Q7.25 -28.35 7.3 -28.85 7.4 -29.4 7.65 -29.4 L7.8 -29.3 7.4 -28.75 Q7.5 -28.1 7.75 -27.55 8.25 -26.35 8.95 -26.35 L8.85 -26.15 Q8.85 -25.55 9.35 -25.55 L9.45 -25.55 9.2 -25.45 8.7 -25.4 8.55 -25.4 Q6.8 -25.4 6.05 -28.65 M5.65 -21.4 L5.9 -21.8 7.55 -19.1 9.5 -16.35 Q9.5 -15.95 9.05 -15.95 L5.85 -21.0 0.85 -18.4 -0.35 -17.8 -0.4 -17.8 -0.45 -17.75 -0.45 -17.8 -1.65 -18.4 -6.6 -21.0 -9.85 -15.95 Q-10.3 -15.95 -10.3 -16.35 L-8.35 -19.1 -6.7 -21.8 -6.45 -21.4 -6.45 -21.3 -6.25 -21.35 Q-5.75 -21.35 -0.45 -18.95 L-0.45 -18.9 -0.4 -18.95 -0.35 -18.95 Q4.95 -21.35 5.45 -21.35 L5.7 -21.3 5.65 -21.4 M4.6 -16.6 L4.95 -16.25 Q5.05 -15.9 5.55 -15.9 6.55 -15.9 6.55 -16.55 L6.15 -17.2 6.5 -17.5 Q7.25 -17.5 7.25 -16.55 7.25 -15.3 5.4 -15.15 4.25 -15.3 4.25 -16.25 L4.6 -16.6 M0.85 -13.7 L2.2 -13.45 Q2.9 -13.45 3.4 -14.35 L3.65 -14.05 3.65 -13.75 3.45 -13.2 Q3.1 -12.75 2.25 -12.75 L1.7 -12.95 0.75 -13.1 Q0.25 -13.1 -0.05 -12.7 L-0.3 -12.95 Q-0.15 -13.7 0.85 -13.7 M10.65 -10.45 L10.45 -10.45 Q9.45 -10.4 9.3 -10.0 9.55 -9.7 9.95 -9.5 10.25 -8.85 9.5 -8.6 8.35 -8.35 8.05 -9.55 L8.1 -10.6 Q8.35 -11.5 9.85 -11.75 10.65 -11.45 10.65 -10.6 L10.65 -10.45 M1.45 -5.8 L1.65 -5.55 Q0.7 -4.95 -0.1 -4.95 -0.3 -4.95 -0.3 -5.2 L-0.25 -5.4 1.45 -5.8 M0.65 -11.85 L0.85 -11.9 1.25 -11.95 Q1.95 -11.95 1.95 -10.85 1.95 -10.5 1.55 -10.4 1.15 -10.25 1.15 -9.65 L1.25 -8.5 Q1.25 -7.6 -0.2 -7.45 L-0.35 -7.8 Q0.6 -8.1 0.6 -8.45 L0.5 -9.1 0.55 -10.1 Q0.65 -10.7 1.4 -11.15 1.4 -11.5 0.65 -11.65 L0.7 -11.8 0.9 -11.85 0.65 -11.8 0.65 -11.85 M0.35 -3.95 L0.7 -4.0 1.15 -4.05 Q1.55 -4.05 1.55 -3.75 1.55 -3.1 0.0 -3.1 L-0.3 -3.4 Q-0.3 -3.85 0.35 -3.95 M-6.95 -17.2 L-7.35 -16.55 Q-7.35 -15.9 -6.35 -15.9 -5.85 -15.9 -5.75 -16.25 L-5.4 -16.6 -5.05 -16.25 Q-5.05 -15.3 -6.2 -15.15 -8.05 -15.3 -8.05 -16.55 -8.05 -17.5 -7.3 -17.5 L-6.95 -17.2 M-4.45 -14.05 L-4.2 -14.35 Q-3.7 -13.45 -3.0 -13.45 L-1.65 -13.7 Q-0.65 -13.7 -0.5 -12.95 -0.5 -12.7 -0.75 -12.7 -1.05 -13.1 -1.55 -13.1 L-2.5 -12.95 -3.05 -12.75 Q-3.9 -12.75 -4.2 -13.2 L-4.4 -13.75 -4.45 -14.05 M-11.45 -10.45 L-11.45 -10.6 Q-11.45 -11.45 -10.65 -11.75 -9.15 -11.5 -8.9 -10.6 L-8.8 -9.55 Q-9.15 -8.35 -10.25 -8.6 -11.05 -8.85 -10.75 -9.5 L-10.1 -10.0 Q-10.25 -10.4 -11.25 -10.45 L-11.45 -10.45 M-1.65 -11.9 L-1.45 -11.85 -1.45 -11.8 -1.7 -11.85 -1.5 -11.8 -1.45 -11.65 Q-2.2 -11.5 -2.2 -11.15 -1.45 -10.7 -1.35 -10.1 L-1.3 -9.1 -1.4 -8.45 Q-1.4 -8.1 -0.45 -7.8 L-0.6 -7.45 Q-2.05 -7.6 -2.05 -8.5 L-1.95 -9.65 Q-1.95 -10.25 -2.35 -10.4 -2.75 -10.5 -2.75 -10.85 -2.75 -11.95 -2.05 -11.95 L-1.65 -11.9 M-0.5 -5.2 Q-0.5 -4.95 -0.7 -4.95 -1.5 -4.95 -2.45 -5.55 L-2.25 -5.8 -0.55 -5.4 -0.5 -5.2 M-1.1 -3.95 Q-0.5 -3.85 -0.5 -3.4 -0.5 -3.1 -0.8 -3.1 -2.35 -3.1 -2.35 -3.75 L-1.95 -4.05 -1.45 -4.0 -1.15 -3.95 -1.1 -3.95" fill="#02b7ca" fill-rule="evenodd" stroke="none"/>
    <path d="M13.8 -29.15 Q13.8 -29.5 14.2 -29.5 15.5 -29.5 15.9 -23.9 15.9 -22.2 15.1 -22.2 14.65 -22.2 14.65 -22.65 L14.9 -23.85 Q14.9 -25.35 13.8 -29.15 M-0.05 -17.25 Q0.3 -17.25 0.5 -16.6 0.7 -15.95 1.3 -15.95 L2.25 -16.05 Q3.6 -16.05 3.6 -14.9 L3.3 -14.6 Q3.05 -15.3 2.1 -15.3 -0.3 -15.3 -0.35 -16.9 L-0.35 -16.95 -0.05 -17.25 M4.15 -17.65 Q4.0 -18.25 4.9 -18.25 5.8 -18.25 5.8 -17.7 5.8 -17.1 4.95 -17.1 4.15 -17.1 4.15 -17.65 M5.7 -13.55 L6.6 -14.35 8.4 -15.75 8.65 -15.7 8.65 -15.4 6.25 -13.15 4.35 -11.2 3.4 -10.1 2.7 -9.25 Q2.0 -8.25 2.0 -6.9 L2.1 -6.6 Q2.1 -5.95 -0.35 -5.85 L-0.45 -5.85 Q-2.9 -5.95 -2.9 -6.6 L-2.8 -6.9 Q-2.8 -8.25 -3.5 -9.25 L-4.2 -10.1 -5.15 -11.2 -7.05 -13.15 -9.45 -15.4 -9.45 -15.7 -9.2 -15.75 -7.4 -14.35 -6.5 -13.55 Q-4.9 -12.15 -4.45 -11.35 L-4.1 -10.85 -2.55 -9.1 -2.1 -6.9 -0.45 -6.6 -0.4 -6.6 -0.35 -6.6 1.3 -6.9 1.75 -9.1 3.3 -10.85 3.65 -11.35 Q4.1 -12.15 5.7 -13.55 M0.35 -3.95 L-0.1 -3.95 Q-0.3 -3.95 -0.3 -4.3 L0.05 -4.65 1.4 -4.9 1.6 -4.8 Q1.45 -4.2 0.7 -4.0 L0.35 -3.95 M0.9 -2.55 L1.3 -2.3 Q0.95 -2.05 0.6 -1.95 L-0.35 -1.65 -0.4 -1.6 -0.45 -1.6 -0.45 -1.65 -1.4 -1.95 Q-1.75 -2.05 -2.1 -2.3 -2.1 -2.55 -1.7 -2.55 L-0.45 -2.35 -0.45 -2.3 -0.4 -2.3 -0.35 -2.35 0.9 -2.55 M12.15 -8.35 L12.0 -9.5 Q12.0 -9.9 12.3 -9.9 13.0 -9.9 13.0 -8.5 13.15 -7.85 12.5 -7.85 L12.15 -8.35 M-14.6 -29.15 Q-15.7 -25.35 -15.7 -23.85 L-15.45 -22.65 Q-15.45 -22.2 -15.9 -22.2 -16.7 -22.2 -16.7 -23.9 -16.3 -29.5 -15.0 -29.5 L-14.6 -29.15 M-5.7 -18.25 Q-4.8 -18.25 -4.95 -17.65 -4.95 -17.1 -5.75 -17.1 -6.6 -17.1 -6.6 -17.7 -6.6 -18.25 -5.7 -18.25 M-0.45 -16.9 Q-0.5 -15.3 -2.9 -15.3 -3.85 -15.3 -4.1 -14.6 L-4.4 -14.9 Q-4.4 -16.05 -3.05 -16.05 L-2.1 -15.95 Q-1.5 -15.95 -1.3 -16.6 L-0.75 -17.25 Q-0.45 -17.25 -0.45 -16.95 L-0.45 -16.9 M-12.95 -8.35 L-13.3 -7.85 Q-13.95 -7.85 -13.8 -8.5 -13.8 -9.9 -13.1 -9.9 -12.8 -9.9 -12.8 -9.5 L-12.95 -8.35 M-1.45 -4.0 Q-2.25 -4.2 -2.4 -4.8 L-2.2 -4.9 -0.85 -4.65 Q-0.6 -4.65 -0.5 -4.3 -0.5 -3.95 -0.7 -3.95 L-1.1 -3.95 -1.15 -3.95 -1.45 -4.0" fill="#ffffff" fill-rule="evenodd" stroke="none"/>
    <path d="M-4.4 -7.5 L-4.6 -7.4 -7.9 -11.15 -7.8 -11.45 -7.7 -11.45 Q-6.4 -11.45 -4.35 -7.85 L-4.4 -7.5" fill="#000000" fill-rule="evenodd" stroke="none"/>
    <path d="M3.3 -7.1 L3.5 -7.0 6.8 -10.75 6.7 -11.05 6.6 -11.05 Q5.3 -11.05 3.25 -7.45 L3.3 -7.1" fill="#000000" fill-rule="evenodd" stroke="none"/>
    <path d="M-8.7 -21.4 Q-9.4 -20.25 -9.65 -20.15 L-9.7 -20.25 -8.25 -23.1 -8.05 -22.8 -8.7 -21.4" fill="#000000" fill-rule="evenodd" stroke="none"/>
    <path d="M8.5 -20.75 L8.25 -20.6 7.35 -22.35 7.8 -23.0 7.95 -22.35 8.5 -20.75" fill="#000000" fill-rule="evenodd" stroke="none"/>
    <path d="M2.65 -14.05 Q3.2 -13.05 3.2 -12.4 3.2 -9.8 0.05 -9.8 -3.3 -9.8 -3.4 -12.85 -3.4 -15.5 0.5 -15.5 1.85 -15.5 2.65 -14.05" fill="#ff9900" fill-rule="evenodd" stroke="none"/>
    <path d="M1.55 -13.55 L1.9 -12.5 Q1.9 -10.95 0.0 -10.95 -2.05 -10.95 -2.1 -12.8 -2.1 -14.4 0.25 -14.4 1.1 -14.4 1.55 -13.55" fill="#a52c0e" fill-rule="evenodd" stroke="none"/>
    <path d="M1.35 -13.7 Q1.35 -12.45 -0.15 -12.45 -1.7 -12.45 -1.75 -13.9 -1.75 -15.15 0.1 -15.15 0.7 -15.15 1.1 -14.5 L1.35 -13.7" fill="#f7e866" fill-rule="evenodd" stroke="none"/>
    <path d="M0.0 -13.1 Q-1.05 -13.15 -1.1 -14.05 -1.1 -14.85 0.1 -14.85 L0.7 -14.4 0.95 -13.9 Q0.85 -13.15 0.0 -13.1" fill="#ffffff" fill-rule="evenodd" stroke="none"/>
  </g>
</svg>
